%TF.GenerationSoftware,KiCad,Pcbnew,8.0.0-8.0.0-1~ubuntu22.04.1*%
%TF.CreationDate,2024-06-26T22:34:51-04:00*%
%TF.ProjectId,luccioloa,6c756363-696f-46c6-9f61-2e6b69636164,rev?*%
%TF.SameCoordinates,Original*%
%TF.FileFunction,Soldermask,Bot*%
%TF.FilePolarity,Negative*%
%FSLAX46Y46*%
G04 Gerber Fmt 4.6, Leading zero omitted, Abs format (unit mm)*
G04 Created by KiCad (PCBNEW 8.0.0-8.0.0-1~ubuntu22.04.1) date 2024-06-26 22:34:51*
%MOMM*%
%LPD*%
G01*
G04 APERTURE LIST*
%ADD10R,1.700000X1.700000*%
%ADD11O,1.700000X1.700000*%
%ADD12C,1.524000*%
%ADD13C,2.400000*%
%ADD14O,2.400000X2.400000*%
%ADD15C,3.200000*%
%ADD16C,2.100000*%
%ADD17C,1.750000*%
%ADD18O,1.350000X1.350000*%
%ADD19R,1.350000X1.350000*%
%ADD20C,2.600000*%
%ADD21C,2.500000*%
%ADD22R,1.600000X1.600000*%
%ADD23C,1.600000*%
%ADD24R,1.800000X1.800000*%
%ADD25C,1.800000*%
G04 APERTURE END LIST*
D10*
%TO.C,U1*%
X-120650000Y-20066000D03*
D11*
X-123190000Y-20066000D03*
X-125730000Y-20066000D03*
X-128270000Y-20066000D03*
%TD*%
%TO.C,U2*%
X-128303000Y-23251000D03*
X-125763000Y-23251000D03*
X-123223000Y-23251000D03*
D10*
X-120683000Y-23251000D03*
%TD*%
D12*
%TO.C,U4*%
X-105650000Y-61214000D03*
X-108150000Y-61214000D03*
X-110650000Y-61214000D03*
X-113150000Y-61214000D03*
X-115650000Y-61214000D03*
X-118150000Y-61214000D03*
X-120650000Y-61214000D03*
X-123150000Y-61214000D03*
%TD*%
D13*
%TO.C,R10*%
X-85640000Y-9690000D03*
D14*
X-65320000Y-9690000D03*
%TD*%
D15*
%TO.C,H2*%
X-48000000Y-60000000D03*
%TD*%
D16*
%TO.C,SW5*%
X-49490000Y-13750000D03*
X-49490000Y-20760000D03*
D17*
X-47000000Y-15000000D03*
X-47000000Y-19500000D03*
%TD*%
D15*
%TO.C,H4*%
X-106000000Y17000000D03*
%TD*%
D10*
%TO.C,mesh_display1*%
X-128520000Y19398000D03*
D11*
X-125980000Y19398000D03*
X-123440000Y19398000D03*
X-120900000Y19398000D03*
%TD*%
D13*
%TO.C,R2*%
X-69480000Y-40450000D03*
D14*
X-89800000Y-40450000D03*
%TD*%
D11*
%TO.C,A2*%
X-108458000Y8890000D03*
X-108458000Y6350000D03*
X-108458000Y3810000D03*
X-108458000Y1270000D03*
X-108458000Y-1270000D03*
X-108458000Y-3810000D03*
X-108458000Y-6350000D03*
D10*
X-108458000Y-8890000D03*
D11*
X-93218000Y-8890000D03*
X-93218000Y-6350000D03*
X-93218000Y-3810000D03*
X-93218000Y-1270000D03*
X-93218000Y1270000D03*
X-93218000Y3810000D03*
X-93218000Y6350000D03*
D10*
X-93218000Y8890000D03*
%TD*%
D18*
%TO.C,U3*%
X-98044000Y-54102000D03*
X-96044000Y-54102000D03*
X-94044000Y-54102000D03*
D19*
X-92044000Y-54102000D03*
%TD*%
D10*
%TO.C,A1*%
X-79470000Y-3950000D03*
D11*
X-76930000Y-3950000D03*
X-74390000Y-3950000D03*
X-71850000Y-3950000D03*
%TD*%
D15*
%TO.C,H1*%
X-48000000Y17000000D03*
%TD*%
D13*
%TO.C,R14*%
X-85550000Y-19970000D03*
D14*
X-65230000Y-19970000D03*
%TD*%
D17*
%TO.C,SW1*%
X-80500000Y18000000D03*
X-85000000Y18000000D03*
D16*
X-79240000Y15510000D03*
X-86250000Y15510000D03*
%TD*%
D13*
%TO.C,R12*%
X-85640000Y-14840000D03*
D14*
X-65320000Y-14840000D03*
%TD*%
D16*
%TO.C,SW2*%
X-75250000Y15510000D03*
X-68240000Y15510000D03*
D17*
X-74000000Y18000000D03*
X-69500000Y18000000D03*
%TD*%
D14*
%TO.C,R3*%
X-107230000Y-32786000D03*
D13*
X-127550000Y-32786000D03*
%TD*%
D10*
%TO.C,J2*%
X-62000000Y18000000D03*
D11*
X-59460000Y18000000D03*
X-56920000Y18000000D03*
%TD*%
D16*
%TO.C,SW4*%
X-49490000Y-2750000D03*
X-49490000Y-9760000D03*
D17*
X-47000000Y-4000000D03*
X-47000000Y-8500000D03*
%TD*%
D10*
%TO.C,J5*%
X-86200000Y-56420000D03*
D11*
X-83660000Y-56420000D03*
X-81120000Y-56420000D03*
X-78580000Y-56420000D03*
X-76040000Y-56420000D03*
X-73500000Y-56420000D03*
X-70960000Y-56420000D03*
X-68420000Y-56420000D03*
X-65880000Y-56420000D03*
%TD*%
D14*
%TO.C,R5*%
X-107230000Y-37936000D03*
D13*
X-127550000Y-37936000D03*
%TD*%
%TO.C,R9*%
X-69480000Y-35300000D03*
D14*
X-89800000Y-35300000D03*
%TD*%
D15*
%TO.C,H3*%
X-134000000Y-60000000D03*
%TD*%
D20*
%TO.C,AE1*%
X-96550000Y18950000D03*
X-96550000Y13870000D03*
X-91470000Y18950000D03*
X-91470000Y13870000D03*
D21*
X-93910000Y16485000D03*
%TD*%
D22*
%TO.C,A4*%
X-52190000Y-27360000D03*
D23*
X-54730000Y-27360000D03*
X-57270000Y-27360000D03*
X-59810000Y-27360000D03*
X-62350000Y-27360000D03*
X-64890000Y-27360000D03*
X-67430000Y-27360000D03*
X-69970000Y-27360000D03*
X-72510000Y-27360000D03*
X-75050000Y-27360000D03*
X-77590000Y-27360000D03*
X-80130000Y-27360000D03*
X-82670000Y-27360000D03*
X-85210000Y-27360000D03*
X-87750000Y-27360000D03*
X-90290000Y-27360000D03*
X-90290000Y-47680000D03*
X-87750000Y-47680000D03*
X-85210000Y-47680000D03*
X-82670000Y-47680000D03*
X-80130000Y-47680000D03*
X-77590000Y-47680000D03*
X-75050000Y-47680000D03*
X-72510000Y-47680000D03*
X-69970000Y-47680000D03*
X-67430000Y-47680000D03*
X-64890000Y-47680000D03*
X-62350000Y-47680000D03*
%TD*%
D10*
%TO.C,A3*%
X-134844000Y-27891000D03*
D11*
X-132304000Y-27891000D03*
X-129764000Y-27891000D03*
X-127224000Y-27891000D03*
X-124684000Y-27891000D03*
X-122144000Y-27891000D03*
X-119604000Y-27891000D03*
X-117064000Y-27891000D03*
X-114524000Y-27891000D03*
X-111984000Y-27891000D03*
X-109444000Y-27891000D03*
X-106904000Y-27891000D03*
X-104364000Y-27891000D03*
X-101824000Y-27891000D03*
X-101854000Y-42926000D03*
X-104394000Y-42926000D03*
X-106934000Y-42926000D03*
X-109474000Y-42926000D03*
X-112014000Y-42926000D03*
X-114554000Y-42926000D03*
X-117094000Y-42926000D03*
X-119634000Y-42926000D03*
X-122174000Y-42926000D03*
X-124714000Y-42926000D03*
X-127254000Y-42926000D03*
X-129794000Y-42926000D03*
X-132334000Y-42926000D03*
D10*
X-134874000Y-42926000D03*
%TD*%
D13*
%TO.C,R1*%
X-110420000Y-18270000D03*
D14*
X-90100000Y-18270000D03*
%TD*%
D17*
%TO.C,SW3*%
X-47000000Y2500000D03*
X-47000000Y7000000D03*
D16*
X-49490000Y1240000D03*
X-49490000Y8250000D03*
%TD*%
D24*
%TO.C,D1*%
X-131000000Y-53025000D03*
D25*
X-131000000Y-50485000D03*
%TD*%
D11*
%TO.C,A5*%
X-67380000Y4950000D03*
X-69920000Y4950000D03*
X-72460000Y4950000D03*
X-75000000Y4950000D03*
X-77540000Y4950000D03*
X-80080000Y4950000D03*
X-82620000Y4950000D03*
X-85160000Y4950000D03*
D10*
X-87700000Y4950000D03*
%TD*%
%TO.C,A6*%
X-60190000Y370000D03*
D11*
X-62730000Y370000D03*
X-65270000Y370000D03*
X-67810000Y370000D03*
X-70350000Y370000D03*
X-72890000Y370000D03*
X-75430000Y370000D03*
X-77970000Y370000D03*
X-80510000Y370000D03*
X-83050000Y370000D03*
X-85590000Y370000D03*
%TD*%
M02*
