(footprint "display_adafruit_sharp_small_noholes"
	(version 20240108)
	(generator "pcbnew")
	(generator_version "8.0")
	(layer "F.Cu")
	(descr "Through hole straight socket strip, 1x09, 2.54mm pitch, single row (from Kicad 4.0.7), script generated")
	(tags "Through hole socket strip THT 1x09 2.54mm single row")
	(property "Reference" "REF**"
		(at -14.38 -22.56 90)
		(layer "F.SilkS")
		(uuid "a75b478f-0b8a-41ca-8cf2-bf2243e1d1e2")
		(effects
			(font
				(size 1 1)
				(thickness 0.15)
			)
		)
	)
	(property "Value" "display_adafruit_sharp_small_noholes"
		(at 11.48 -22.56 90)
		(layer "F.Fab")
		(uuid "318e997a-8d44-457e-abe4-5b88c5572e57")
		(effects
			(font
				(size 1 1)
				(thickness 0.15)
			)
		)
	)
	(property "Footprint" ""
		(at -11.65 -22.6 90)
		(unlocked yes)
		(layer "F.Fab")
		(hide yes)
		(uuid "8c5cd190-70be-417f-bf70-cd1af1625fee")
		(effects
			(font
				(size 1.27 1.27)
			)
		)
	)
	(property "Datasheet" ""
		(at -11.65 -22.6 90)
		(unlocked yes)
		(layer "F.Fab")
		(hide yes)
		(uuid "4f4e4780-6304-485c-8b1d-55b4f4db13ae")
		(effects
			(font
				(size 1.27 1.27)
			)
		)
	)
	(property "Description" ""
		(at -11.65 -22.6 90)
		(unlocked yes)
		(layer "F.Fab")
		(hide yes)
		(uuid "c7fef138-1bb4-4202-b183-c2b915602847")
		(effects
			(font
				(size 1.27 1.27)
			)
		)
	)
	(attr through_hole)
	(fp_line
		(start -12.98 -23.93)
		(end -11.65 -23.93)
		(stroke
			(width 0.12)
			(type solid)
		)
		(layer "F.SilkS")
		(uuid "06bf772f-9ffc-4ce0-b986-32a2021b05d6")
	)
	(fp_line
		(start -12.98 -22.6)
		(end -12.98 -23.93)
		(stroke
			(width 0.12)
			(type solid)
		)
		(layer "F.SilkS")
		(uuid "cfa58ef1-1a0d-4f38-a159-1bdfaeb1f3b2")
	)
	(fp_line
		(start -10.38 -23.93)
		(end 10 -23.93)
		(stroke
			(width 0.12)
			(type solid)
		)
		(layer "F.SilkS")
		(uuid "babb629b-bd9d-4666-a00c-98d266de9fff")
	)
	(fp_line
		(start -10.38 -21.27)
		(end -10.38 -23.93)
		(stroke
			(width 0.12)
			(type solid)
		)
		(layer "F.SilkS")
		(uuid "9d7e8014-3563-441c-947e-d7a2653420e1")
	)
	(fp_line
		(start -10.38 -21.27)
		(end 10 -21.27)
		(stroke
			(width 0.12)
			(type solid)
		)
		(layer "F.SilkS")
		(uuid "3e52f962-c1c5-435c-8a3d-b56a18d96d4e")
	)
	(fp_line
		(start -1.45 -25.1)
		(end -1.45 -22.56)
		(stroke
			(width 0.12)
			(type default)
		)
		(layer "F.SilkS")
		(uuid "9bd3617d-0170-4728-aa47-26ecf4a5f063")
	)
	(fp_line
		(start 10 -21.27)
		(end 10 -23.93)
		(stroke
			(width 0.12)
			(type solid)
		)
		(layer "F.SilkS")
		(uuid "617fe709-1a9e-4daf-8cf9-9896ed8f660c")
	)
	(fp_rect
		(start -19.8 -25.1)
		(end 16.8 12.15)
		(stroke
			(width 0.12)
			(type default)
		)
		(fill none)
		(layer "F.SilkS")
		(uuid "3005007c-16a0-4eb0-acf8-81863267189b")
	)
	(fp_circle
		(center -18.5 -22.15)
		(end -17.658233 -21.308233)
		(stroke
			(width 0.12)
			(type default)
		)
		(fill none)
		(layer "F.SilkS")
		(uuid "94c1214b-873e-4e5f-9798-e3dfe0ac1cf1")
	)
	(fp_circle
		(center -18.5 10.85)
		(end -17.658233 11.691767)
		(stroke
			(width 0.12)
			(type default)
		)
		(fill none)
		(layer "F.SilkS")
		(uuid "00a85088-3d9d-4a4d-b805-7ece8b5955a9")
	)
	(fp_circle
		(center 15.5 -22.15)
		(end 16.341767 -21.308233)
		(stroke
			(width 0.12)
			(type default)
		)
		(fill none)
		(layer "F.SilkS")
		(uuid "09951719-e3dc-41d7-84df-eaf1102462c5")
	)
	(fp_circle
		(center 15.5 10.85)
		(end 16.341767 11.691767)
		(stroke
			(width 0.12)
			(type default)
		)
		(fill none)
		(layer "F.SilkS")
		(uuid "0f8052fd-27aa-45d0-9393-4b98206dc922")
	)
	(fp_line
		(start -18.51 -22.62)
		(end -18.51 -22.16)
		(stroke
			(width 0.12)
			(type default)
		)
		(layer "Dwgs.User")
		(uuid "2eec6868-6c0c-4a4e-b161-9d170c2886b5")
	)
	(fp_line
		(start -11.66 -22.62)
		(end -18.51 -22.62)
		(stroke
			(width 0.12)
			(type default)
		)
		(layer "Dwgs.User")
		(uuid "f176e92f-82fc-4d8f-b72d-6732e9a75c44")
	)
	(fp_line
		(start 8.65 -22.58)
		(end 15.5 -22.58)
		(stroke
			(width 0.12)
			(type default)
		)
		(layer "Dwgs.User")
		(uuid "56bc91df-bcb0-4bde-bbf8-82944038e794")
	)
	(fp_line
		(start 15.5 -22.58)
		(end 15.5 -22.12)
		(stroke
			(width 0.12)
			(type default)
		)
		(layer "Dwgs.User")
		(uuid "88c21993-5dbf-4e08-89af-005091e8872d")
	)
	(fp_line
		(start -13.45 -24.35)
		(end 10.45 -24.35)
		(stroke
			(width 0.05)
			(type solid)
		)
		(layer "F.CrtYd")
		(uuid "532afb30-224e-48a4-afaa-d03cabe2e9d7")
	)
	(fp_line
		(start -13.45 -20.8)
		(end -13.45 -24.35)
		(stroke
			(width 0.05)
			(type solid)
		)
		(layer "F.CrtYd")
		(uuid "17e1e5ae-70ce-4265-8284-b3bdde7854e9")
	)
	(fp_line
		(start 10.45 -24.35)
		(end 10.45 -20.8)
		(stroke
			(width 0.05)
			(type solid)
		)
		(layer "F.CrtYd")
		(uuid "9000a8f1-2630-4d1f-b63c-c0c98e94cfa7")
	)
	(fp_line
		(start 10.45 -20.8)
		(end -13.45 -20.8)
		(stroke
			(width 0.05)
			(type solid)
		)
		(layer "F.CrtYd")
		(uuid "9ad7d802-001b-49c2-848b-dc8727e6b97c")
	)
	(fp_line
		(start -12.92 -23.235)
		(end -12.285 -23.87)
		(stroke
			(width 0.1)
			(type solid)
		)
		(layer "F.Fab")
		(uuid "cb82a3fc-3136-4b9d-a54f-833484a9ef6c")
	)
	(fp_line
		(start -12.92 -21.33)
		(end -12.92 -23.235)
		(stroke
			(width 0.1)
			(type solid)
		)
		(layer "F.Fab")
		(uuid "9bd2903f-683c-482f-a868-a27d70d4e43f")
	)
	(fp_line
		(start -12.285 -23.87)
		(end 9.94 -23.87)
		(stroke
			(width 0.1)
			(type solid)
		)
		(layer "F.Fab")
		(uuid "c28ef780-cd09-452a-8dfe-8991cf93b0f6")
	)
	(fp_line
		(start 9.94 -23.87)
		(end 9.94 -21.33)
		(stroke
			(width 0.1)
			(type solid)
		)
		(layer "F.Fab")
		(uuid "02e169ae-eadf-4cbe-ad74-1275464dc40b")
	)
	(fp_line
		(start 9.94 -21.33)
		(end -12.92 -21.33)
		(stroke
			(width 0.1)
			(type solid)
		)
		(layer "F.Fab")
		(uuid "959b26d7-d881-49c0-afb0-da41ae0023d2")
	)
	(fp_text user "${REFERENCE}"
		(at -1.49 -22.6 180)
		(layer "F.Fab")
		(uuid "a9a61621-03df-48b7-b82e-2f773e3e0418")
		(effects
			(font
				(size 1 1)
				(thickness 0.15)
			)
		)
	)
	(pad "1" thru_hole rect
		(at -11.65 -22.6 90)
		(size 1.7 1.7)
		(drill 1)
		(layers "*.Cu" "*.Mask")
		(remove_unused_layers no)
		(uuid "023c9b7c-8222-4ed8-93d0-d81f36310172")
	)
	(pad "2" thru_hole oval
		(at -9.11 -22.6 90)
		(size 1.7 1.7)
		(drill 1)
		(layers "*.Cu" "*.Mask")
		(remove_unused_layers no)
		(uuid "78997860-7bdd-413f-a48f-81c89b1fc1a2")
	)
	(pad "3" thru_hole oval
		(at -6.57 -22.6 90)
		(size 1.7 1.7)
		(drill 1)
		(layers "*.Cu" "*.Mask")
		(remove_unused_layers no)
		(uuid "7608666f-ccd2-45fe-9a79-a1a78f43b25c")
	)
	(pad "4" thru_hole oval
		(at -4.03 -22.6 90)
		(size 1.7 1.7)
		(drill 1)
		(layers "*.Cu" "*.Mask")
		(remove_unused_layers no)
		(uuid "c8ae179c-babe-429f-a878-2f9d029a7a35")
	)
	(pad "5" thru_hole oval
		(at -1.49 -22.6 90)
		(size 1.7 1.7)
		(drill 1)
		(layers "*.Cu" "*.Mask")
		(remove_unused_layers no)
		(uuid "6653f08f-c6a7-4a73-946d-46618e952efa")
	)
	(pad "6" thru_hole oval
		(at 1.05 -22.6 90)
		(size 1.7 1.7)
		(drill 1)
		(layers "*.Cu" "*.Mask")
		(remove_unused_layers no)
		(uuid "2de38cd8-adcd-422d-8978-bf08ca87929c")
	)
	(pad "7" thru_hole oval
		(at 3.59 -22.6 90)
		(size 1.7 1.7)
		(drill 1)
		(layers "*.Cu" "*.Mask")
		(remove_unused_layers no)
		(uuid "59add645-e0d7-4056-bb49-e986f3fe75c7")
	)
	(pad "8" thru_hole oval
		(at 6.13 -22.6 90)
		(size 1.7 1.7)
		(drill 1)
		(layers "*.Cu" "*.Mask")
		(remove_unused_layers no)
		(uuid "fc2f6819-bc7d-4f7b-a8e7-66bff6690d5c")
	)
	(pad "9" thru_hole oval
		(at 8.67 -22.6 90)
		(size 1.7 1.7)
		(drill 1)
		(layers "*.Cu" "*.Mask")
		(remove_unused_layers no)
		(uuid "fdad35ca-6fde-4523-ac15-cf706b37e7a5")
	)
	(model "${KICAD6_3DMODEL_DIR}/Connector_PinSocket_2.54mm.3dshapes/PinSocket_1x09_P2.54mm_Vertical.wrl"
		(offset
			(xyz 0 0 0)
		)
		(scale
			(xyz 1 1 1)
		)
		(rotate
			(xyz 0 0 0)
		)
	)
)