(footprint "sx1262_waveshare_core"
	(version 20240108)
	(generator "pcbnew")
	(generator_version "8.0")
	(layer "F.Cu")
	(descr "Through hole straight socket strip, 1x08, 2.54mm pitch, single row (from Kicad 4.0.7), script generated")
	(tags "Through hole socket strip THT 1x08 2.54mm single row")
	(property "Reference" "REF**"
		(at 0 -2.77 0)
		(layer "F.SilkS")
		(uuid "19ebda69-77dc-44b9-aaf4-7a5c8cc2bf61")
		(effects
			(font
				(size 1 1)
				(thickness 0.15)
			)
		)
	)
	(property "Value" "sx1262_waveshare_core"
		(at -8.06 -6.27 0)
		(layer "F.Fab")
		(uuid "7b02a37e-32fe-43a6-aa4c-6f1c89ac5391")
		(effects
			(font
				(size 1 1)
				(thickness 0.15)
			)
		)
	)
	(property "Footprint" ""
		(at 0 0 0)
		(unlocked yes)
		(layer "F.Fab")
		(hide yes)
		(uuid "b26ac3a4-d9b1-4072-9c8a-397a7152a7cb")
		(effects
			(font
				(size 1.27 1.27)
			)
		)
	)
	(property "Datasheet" ""
		(at 0 0 0)
		(unlocked yes)
		(layer "F.Fab")
		(hide yes)
		(uuid "a17bad8e-aabf-43d4-9623-e3c34ca6bfff")
		(effects
			(font
				(size 1.27 1.27)
			)
		)
	)
	(property "Description" ""
		(at 0 0 0)
		(unlocked yes)
		(layer "F.Fab")
		(hide yes)
		(uuid "e25127df-2c7d-4c72-843a-35cebdbfe890")
		(effects
			(font
				(size 1.27 1.27)
			)
		)
	)
	(attr through_hole)
	(fp_line
		(start -16.57 16.51)
		(end -16.57 -1.33)
		(stroke
			(width 0.12)
			(type solid)
		)
		(layer "F.SilkS")
		(uuid "761c5a7d-6059-4b76-b39f-378cd0f57f9f")
	)
	(fp_line
		(start -16.57 19.11)
		(end -16.57 17.78)
		(stroke
			(width 0.12)
			(type solid)
		)
		(layer "F.SilkS")
		(uuid "fb883539-b8fe-4043-9787-03e01b0a8b38")
	)
	(fp_line
		(start -15.24 19.11)
		(end -16.57 19.11)
		(stroke
			(width 0.12)
			(type solid)
		)
		(layer "F.SilkS")
		(uuid "9c13f86a-8e14-455e-8578-3e1fbdc61f21")
	)
	(fp_line
		(start -13.91 -1.33)
		(end -16.57 -1.33)
		(stroke
			(width 0.12)
			(type solid)
		)
		(layer "F.SilkS")
		(uuid "57f0aaa0-17d3-4495-8534-b6536a250f9d")
	)
	(fp_line
		(start -13.91 16.51)
		(end -16.57 16.51)
		(stroke
			(width 0.12)
			(type solid)
		)
		(layer "F.SilkS")
		(uuid "99ac2b3b-9e9e-486f-ad70-83e18791a869")
	)
	(fp_line
		(start -13.91 16.51)
		(end -13.91 -1.33)
		(stroke
			(width 0.12)
			(type solid)
		)
		(layer "F.SilkS")
		(uuid "da60680c-b723-4ff8-a435-3d36a8c7ff60")
	)
	(fp_line
		(start -1.33 -1.33)
		(end 0 -1.33)
		(stroke
			(width 0.12)
			(type solid)
		)
		(layer "F.SilkS")
		(uuid "f304d11d-97cf-4e22-b384-3b78ffc0ae73")
	)
	(fp_line
		(start -1.33 0)
		(end -1.33 -1.33)
		(stroke
			(width 0.12)
			(type solid)
		)
		(layer "F.SilkS")
		(uuid "f945e3c5-c142-4263-b9c1-7999b5bc82f6")
	)
	(fp_line
		(start -1.33 1.27)
		(end -1.33 19.11)
		(stroke
			(width 0.12)
			(type solid)
		)
		(layer "F.SilkS")
		(uuid "d33cad23-399c-4a46-9bdb-a592fd087d25")
	)
	(fp_line
		(start -1.33 1.27)
		(end 1.33 1.27)
		(stroke
			(width 0.12)
			(type solid)
		)
		(layer "F.SilkS")
		(uuid "6256348b-767e-4026-be7b-c858938e21d5")
	)
	(fp_line
		(start -1.33 1.27)
		(end 1.33 1.27)
		(stroke
			(width 0.12)
			(type solid)
		)
		(layer "F.SilkS")
		(uuid "fd43f70b-76fb-491c-bb29-96f4dec9f131")
	)
	(fp_line
		(start -1.33 19.11)
		(end 1.33 19.11)
		(stroke
			(width 0.12)
			(type solid)
		)
		(layer "F.SilkS")
		(uuid "b16b0345-d2bf-483f-907c-993c86097a2d")
	)
	(fp_line
		(start -1.27 -1.33)
		(end -1.27 1.33)
		(stroke
			(width 0.12)
			(type solid)
		)
		(layer "F.SilkS")
		(uuid "587e6239-4744-41b7-9376-78bc8071988a")
	)
	(fp_line
		(start 0 -1.33)
		(end 1.33 -1.33)
		(stroke
			(width 0.12)
			(type solid)
		)
		(layer "F.SilkS")
		(uuid "7f585563-324a-49a3-80dc-cf78f1e4a280")
	)
	(fp_line
		(start 0 -1.33)
		(end 1.33 -1.33)
		(stroke
			(width 0.12)
			(type solid)
		)
		(layer "F.SilkS")
		(uuid "e4a1209f-fe6c-4a62-8ae6-8df0180f0785")
	)
	(fp_line
		(start 1.27 1.33)
		(end 1.27 -1.33)
		(stroke
			(width 0.12)
			(type solid)
		)
		(layer "F.SilkS")
		(uuid "18834d73-db54-4a1e-9429-4475551e1c68")
	)
	(fp_line
		(start 1.33 -1.33)
		(end 1.33 0)
		(stroke
			(width 0.12)
			(type solid)
		)
		(layer "F.SilkS")
		(uuid "08004394-27af-4519-8a87-6eec018a86dd")
	)
	(fp_line
		(start 1.33 -1.33)
		(end 1.33 0)
		(stroke
			(width 0.12)
			(type solid)
		)
		(layer "F.SilkS")
		(uuid "95fdf3a0-d73e-4bbd-aeb1-b1202f65c867")
	)
	(fp_line
		(start 1.33 0)
		(end 1.33 1.33)
		(stroke
			(width 0.12)
			(type solid)
		)
		(layer "F.SilkS")
		(uuid "24873c71-26ca-4e6c-84be-408cf1e9b87b")
	)
	(fp_line
		(start 1.33 1.27)
		(end 1.33 19.11)
		(stroke
			(width 0.12)
			(type solid)
		)
		(layer "F.SilkS")
		(uuid "9852dbf6-42f2-4c80-aa8f-64d13c9244f8")
	)
	(fp_line
		(start 1.33 1.33)
		(end 0 1.33)
		(stroke
			(width 0.12)
			(type solid)
		)
		(layer "F.SilkS")
		(uuid "73f90a49-1cea-46c5-9ec2-d8dfc6cb6271")
	)
	(fp_rect
		(start -18.05 -2.39)
		(end 2.68 20.34)
		(stroke
			(width 0.12)
			(type default)
		)
		(fill none)
		(layer "F.SilkS")
		(uuid "0a7d273a-ac0e-410e-9b2f-d4a315bb72f7")
	)
	(fp_rect
		(start -6.597664 -1.502896)
		(end -3.023137 2.131631)
		(stroke
			(width 0.12)
			(type default)
		)
		(fill none)
		(layer "F.SilkS")
		(uuid "7a356853-6ac1-4169-a72e-ab3365cadcee")
	)
	(fp_circle
		(center -4.81 0.29)
		(end -3.886749 1.213251)
		(stroke
			(width 0.12)
			(type default)
		)
		(fill none)
		(layer "F.SilkS")
		(uuid "3c8b5eb2-f493-44d9-964e-61d50724ba0e")
	)
	(fp_line
		(start -17 -1.77)
		(end -13.45 -1.77)
		(stroke
			(width 0.05)
			(type solid)
		)
		(layer "F.CrtYd")
		(uuid "8942adb1-6f0f-4a4d-a205-06d45874cd9a")
	)
	(fp_line
		(start -16.99 19.58)
		(end -16.99 -1.77)
		(stroke
			(width 0.05)
			(type solid)
		)
		(layer "F.CrtYd")
		(uuid "dc8f7134-62f5-41e1-8b5f-7de13a0997b6")
	)
	(fp_line
		(start -13.44 -1.77)
		(end -13.44 19.58)
		(stroke
			(width 0.05)
			(type solid)
		)
		(layer "F.CrtYd")
		(uuid "08e0d98d-19e4-441f-9536-a2ff3dde8f98")
	)
	(fp_line
		(start -13.44 19.58)
		(end -16.99 19.58)
		(stroke
			(width 0.05)
			(type solid)
		)
		(layer "F.CrtYd")
		(uuid "6b9465b4-95aa-442e-a2f4-9f1e2ee99bcf")
	)
	(fp_line
		(start -1.8 -1.8)
		(end 1.75 -1.8)
		(stroke
			(width 0.05)
			(type solid)
		)
		(layer "F.CrtYd")
		(uuid "7a80f664-c8d1-414f-af0f-1d4e9938c62e")
	)
	(fp_line
		(start -1.8 -1.8)
		(end 1.75 -1.8)
		(stroke
			(width 0.05)
			(type solid)
		)
		(layer "F.CrtYd")
		(uuid "b96def15-0777-4bac-9124-7b3fd7f84c84")
	)
	(fp_line
		(start -1.8 1.8)
		(end -1.8 -1.75)
		(stroke
			(width 0.05)
			(type solid)
		)
		(layer "F.CrtYd")
		(uuid "e0f1f7f9-e73a-4512-a5ff-a07e4becc0d5")
	)
	(fp_line
		(start -1.8 19.55)
		(end -1.8 -1.8)
		(stroke
			(width 0.05)
			(type solid)
		)
		(layer "F.CrtYd")
		(uuid "976793c9-92ca-4e2a-aa76-830ea3007413")
	)
	(fp_line
		(start 1.75 -1.8)
		(end 1.75 19.55)
		(stroke
			(width 0.05)
			(type solid)
		)
		(layer "F.CrtYd")
		(uuid "f6dd1493-83c9-4b87-b265-ed45fe231442")
	)
	(fp_line
		(start 1.75 19.55)
		(end -1.8 19.55)
		(stroke
			(width 0.05)
			(type solid)
		)
		(layer "F.CrtYd")
		(uuid "a1b7fca8-5089-4b18-9d1e-5c61e38ec00d")
	)
	(fp_line
		(start 1.8 -1.8)
		(end 1.8 1.75)
		(stroke
			(width 0.05)
			(type solid)
		)
		(layer "F.CrtYd")
		(uuid "e8b69caf-87cb-4429-ade3-23fbf5203bbf")
	)
	(fp_line
		(start -16.51 -1.27)
		(end -13.97 -1.27)
		(stroke
			(width 0.1)
			(type solid)
		)
		(layer "F.Fab")
		(uuid "36b59cf7-7e68-468d-8c50-2b798c94ca43")
	)
	(fp_line
		(start -16.51 18.415)
		(end -16.51 -1.27)
		(stroke
			(width 0.1)
			(type solid)
		)
		(layer "F.Fab")
		(uuid "8f2e9a9d-cdcb-45f7-b31d-5387cec1dc4d")
	)
	(fp_line
		(start -15.875 19.05)
		(end -16.51 18.415)
		(stroke
			(width 0.1)
			(type solid)
		)
		(layer "F.Fab")
		(uuid "2f0937da-2d3f-471b-a7d3-217f3b82e859")
	)
	(fp_line
		(start -13.97 -1.27)
		(end -13.97 19.05)
		(stroke
			(width 0.1)
			(type solid)
		)
		(layer "F.Fab")
		(uuid "aaf44ba6-14a0-4f62-896e-deb934565d7b")
	)
	(fp_line
		(start -13.97 19.05)
		(end -15.875 19.05)
		(stroke
			(width 0.1)
			(type solid)
		)
		(layer "F.Fab")
		(uuid "34dfb4c9-759e-4293-a38a-6051ad128675")
	)
	(fp_line
		(start -1.27 -1.27)
		(end 0.635 -1.27)
		(stroke
			(width 0.1)
			(type solid)
		)
		(layer "F.Fab")
		(uuid "694ed403-760f-42f6-aa9a-65bb1a3cc93e")
	)
	(fp_line
		(start -1.27 -1.27)
		(end 0.635 -1.27)
		(stroke
			(width 0.1)
			(type solid)
		)
		(layer "F.Fab")
		(uuid "ad657d6d-3629-40bd-901e-30585a79f15d")
	)
	(fp_line
		(start -1.27 -0.635)
		(end -0.635 -1.27)
		(stroke
			(width 0.1)
			(type solid)
		)
		(layer "F.Fab")
		(uuid "c9c7b673-3d0b-4555-a8a6-1027eae8a02f")
	)
	(fp_line
		(start -1.27 1.27)
		(end -1.27 -0.635)
		(stroke
			(width 0.1)
			(type solid)
		)
		(layer "F.Fab")
		(uuid "b5124fde-ebcc-4c1d-9fa5-4daae2c385a4")
	)
	(fp_line
		(start -1.27 19.05)
		(end -1.27 -1.27)
		(stroke
			(width 0.1)
			(type solid)
		)
		(layer "F.Fab")
		(uuid "bddc2202-98c8-4058-ae7c-b8098fb78bd2")
	)
	(fp_line
		(start 0.635 -1.27)
		(end 1.27 -0.635)
		(stroke
			(width 0.1)
			(type solid)
		)
		(layer "F.Fab")
		(uuid "1a452f5c-ebb8-4163-a098-0e89c0ff95c1")
	)
	(fp_line
		(start 0.635 -1.27)
		(end 1.27 -0.635)
		(stroke
			(width 0.1)
			(type solid)
		)
		(layer "F.Fab")
		(uuid "689a5481-16b7-45bd-a33f-b949af559af8")
	)
	(fp_line
		(start 1.27 -1.27)
		(end 1.27 0.635)
		(stroke
			(width 0.1)
			(type solid)
		)
		(layer "F.Fab")
		(uuid "42d3eb6d-5ec7-4f98-8cd4-7f4ffcf89f87")
	)
	(fp_line
		(start 1.27 -0.635)
		(end 1.27 19.05)
		(stroke
			(width 0.1)
			(type solid)
		)
		(layer "F.Fab")
		(uuid "74b24851-60b8-47b5-8967-c8790c2ceafd")
	)
	(fp_line
		(start 1.27 0.635)
		(end 0.635 1.27)
		(stroke
			(width 0.1)
			(type solid)
		)
		(layer "F.Fab")
		(uuid "f5f0f46a-fc64-4b1b-bacd-e4062996c636")
	)
	(fp_line
		(start 1.27 19.05)
		(end -1.27 19.05)
		(stroke
			(width 0.1)
			(type solid)
		)
		(layer "F.Fab")
		(uuid "c15a3f79-428d-4bec-9683-471d94e649f7")
	)
	(fp_text user "${REFERENCE}"
		(at 0 8.89 90)
		(layer "F.Fab")
		(uuid "cd6e39db-7e5a-48fe-a598-0e86a4d0849b")
		(effects
			(font
				(size 1 1)
				(thickness 0.15)
			)
		)
	)
	(fp_text user "${REFERENCE}"
		(at -15.24 8.89 -90)
		(layer "F.Fab")
		(uuid "e598b9e1-f124-492e-a215-a48f9dce98c1")
		(effects
			(font
				(size 1 1)
				(thickness 0.15)
			)
		)
	)
	(pad "1" thru_hole rect
		(at 0 0)
		(size 1.7 1.7)
		(drill 1)
		(layers "*.Cu" "*.Mask")
		(remove_unused_layers no)
		(uuid "ac286f13-4db4-4516-9cab-8625dd41ae05")
	)
	(pad "2" thru_hole oval
		(at 0 2.54)
		(size 1.7 1.7)
		(drill 1)
		(layers "*.Cu" "*.Mask")
		(remove_unused_layers no)
		(uuid "7d4f696e-7856-4a95-9c4e-609763a2c01f")
	)
	(pad "3" thru_hole oval
		(at 0 5.08)
		(size 1.7 1.7)
		(drill 1)
		(layers "*.Cu" "*.Mask")
		(remove_unused_layers no)
		(uuid "5c795f78-b416-4862-85ad-4aab2dfe85eb")
	)
	(pad "4" thru_hole oval
		(at 0 7.62)
		(size 1.7 1.7)
		(drill 1)
		(layers "*.Cu" "*.Mask")
		(remove_unused_layers no)
		(uuid "3d797596-cb18-4a9a-b0a4-87e3b6e73e8d")
	)
	(pad "5" thru_hole oval
		(at 0 10.16)
		(size 1.7 1.7)
		(drill 1)
		(layers "*.Cu" "*.Mask")
		(remove_unused_layers no)
		(uuid "a1c1e5ec-fe28-4988-bdbc-6982f84324bc")
	)
	(pad "6" thru_hole oval
		(at 0 12.7)
		(size 1.7 1.7)
		(drill 1)
		(layers "*.Cu" "*.Mask")
		(remove_unused_layers no)
		(uuid "f9c60b37-1bb4-4178-b1f5-d5e9d7edc256")
	)
	(pad "7" thru_hole oval
		(at 0 15.24)
		(size 1.7 1.7)
		(drill 1)
		(layers "*.Cu" "*.Mask")
		(remove_unused_layers no)
		(uuid "259b70a0-0347-4a1b-95b0-e83eb32cfeb7")
	)
	(pad "8" thru_hole oval
		(at 0 17.78)
		(size 1.7 1.7)
		(drill 1)
		(layers "*.Cu" "*.Mask")
		(remove_unused_layers no)
		(uuid "a80f3c7c-ff3e-4f51-bcdb-474ae20fb888")
	)
	(pad "9" thru_hole rect
		(at -15.24 17.78 180)
		(size 1.7 1.7)
		(drill 1)
		(layers "*.Cu" "*.Mask")
		(remove_unused_layers no)
		(uuid "2db5bd55-813a-40df-a2ec-5301aec8cdf4")
	)
	(pad "10" thru_hole oval
		(at -15.24 15.24 180)
		(size 1.7 1.7)
		(drill 1)
		(layers "*.Cu" "*.Mask")
		(remove_unused_layers no)
		(uuid "094dcbb4-2cbd-459f-8cdc-dc3a6b7693cb")
	)
	(pad "11" thru_hole oval
		(at -15.24 12.7 180)
		(size 1.7 1.7)
		(drill 1)
		(layers "*.Cu" "*.Mask")
		(remove_unused_layers no)
		(uuid "f73d5df6-94d2-436d-891e-5742eb52e261")
	)
	(pad "12" thru_hole oval
		(at -15.24 10.16 180)
		(size 1.7 1.7)
		(drill 1)
		(layers "*.Cu" "*.Mask")
		(remove_unused_layers no)
		(uuid "8f718133-2195-44e9-a9b7-39de3ac82603")
	)
	(pad "13" thru_hole oval
		(at -15.24 7.62 180)
		(size 1.7 1.7)
		(drill 1)
		(layers "*.Cu" "*.Mask")
		(remove_unused_layers no)
		(uuid "d99a4e56-9a90-41e3-8066-28d0fe96be0a")
	)
	(pad "14" thru_hole oval
		(at -15.24 5.08 180)
		(size 1.7 1.7)
		(drill 1)
		(layers "*.Cu" "*.Mask")
		(remove_unused_layers no)
		(uuid "9ab9389c-605d-4e9f-bba4-f68611c0e4a8")
	)
	(pad "15" thru_hole oval
		(at -15.24 2.54 180)
		(size 1.7 1.7)
		(drill 1)
		(layers "*.Cu" "*.Mask")
		(remove_unused_layers no)
		(uuid "b80c0eb3-50a1-44c7-8ef6-713d95b6b1d2")
	)
	(pad "16" thru_hole oval
		(at -15.24 0 180)
		(size 1.7 1.7)
		(drill 1)
		(layers "*.Cu" "*.Mask")
		(remove_unused_layers no)
		(uuid "a1f7d22f-c4e2-4f98-b53c-8939c1e387bd")
	)
	(model "${KICAD6_3DMODEL_DIR}/Connector_PinSocket_2.54mm.3dshapes/PinSocket_1x08_P2.54mm_Vertical.wrl"
		(offset
			(xyz 0 0 0)
		)
		(scale
			(xyz 1 1 1)
		)
		(rotate
			(xyz 0 0 0)
		)
	)
)