(footprint "compass_adafruit_lsm303agr"
	(version 20240108)
	(generator "pcbnew")
	(generator_version "8.0")
	(layer "F.Cu")
	(descr "Through hole straight pin header, 1x06, 2.54mm pitch, single row")
	(tags "Through hole pin header THT 1x06 2.54mm single row")
	(property "Reference" "REF**"
		(at -10 -8.8 0)
		(layer "F.SilkS")
		(uuid "f50cd875-ad61-4c78-ac8d-eee39512d049")
		(effects
			(font
				(size 1 1)
				(thickness 0.15)
			)
		)
	)
	(property "Value" "compass_adafruit_lsm303agr"
		(at 0.1 -15.2 0)
		(layer "F.Fab")
		(uuid "a0f6403e-976f-4af5-ba62-8ec7d1aa5e2d")
		(effects
			(font
				(size 1 1)
				(thickness 0.15)
			)
		)
	)
	(property "Footprint" ""
		(at -10 -6.47 0)
		(unlocked yes)
		(layer "F.Fab")
		(hide yes)
		(uuid "0b7d0774-187a-4aa9-9077-1460c4c307ba")
		(effects
			(font
				(size 1.27 1.27)
			)
		)
	)
	(property "Datasheet" ""
		(at -10 -6.47 0)
		(unlocked yes)
		(layer "F.Fab")
		(hide yes)
		(uuid "0b5f700e-abaf-4111-a5c9-5a75f11f3d30")
		(effects
			(font
				(size 1.27 1.27)
			)
		)
	)
	(property "Description" ""
		(at -10 -6.47 0)
		(unlocked yes)
		(layer "F.Fab")
		(hide yes)
		(uuid "fb329424-0c2c-40a0-a0aa-c50aad4d029c")
		(effects
			(font
				(size 1.27 1.27)
			)
		)
	)
	(attr through_hole)
	(fp_line
		(start -11.33 -7.8)
		(end -10 -7.8)
		(stroke
			(width 0.12)
			(type solid)
		)
		(layer "F.SilkS")
		(uuid "d254e54c-2929-4933-821a-53081b9ae3cf")
	)
	(fp_line
		(start -11.33 -6.47)
		(end -11.33 -7.8)
		(stroke
			(width 0.12)
			(type solid)
		)
		(layer "F.SilkS")
		(uuid "6e9c7cc1-e9a0-41e2-bc38-6563eaec720c")
	)
	(fp_line
		(start -11.33 -5.2)
		(end -11.33 7.56)
		(stroke
			(width 0.12)
			(type solid)
		)
		(layer "F.SilkS")
		(uuid "3a1001b8-c1e6-4fcb-9135-c1c0310a879f")
	)
	(fp_line
		(start -11.33 -5.2)
		(end -8.67 -5.2)
		(stroke
			(width 0.12)
			(type solid)
		)
		(layer "F.SilkS")
		(uuid "d3d5bb20-e845-4d85-adad-b79ea9e39827")
	)
	(fp_line
		(start -11.33 7.56)
		(end -8.67 7.56)
		(stroke
			(width 0.12)
			(type solid)
		)
		(layer "F.SilkS")
		(uuid "e4b6d20a-3f18-453e-b00e-787d4e134e56")
	)
	(fp_line
		(start -8.67 -5.2)
		(end -8.67 7.56)
		(stroke
			(width 0.12)
			(type solid)
		)
		(layer "F.SilkS")
		(uuid "e655880d-3ea7-40b4-8589-b010ca372ef5")
	)
	(fp_line
		(start 1.37 -5.14)
		(end 4.03 -5.14)
		(stroke
			(width 0.12)
			(type solid)
		)
		(layer "F.SilkS")
		(uuid "991d56c7-3f4c-4361-b310-846de7085ca9")
	)
	(fp_line
		(start 1.37 -5.04)
		(end 1.37 5.02)
		(stroke
			(width 0.12)
			(type solid)
		)
		(layer "F.SilkS")
		(uuid "b5311099-ac66-4a9a-b000-8d36775ec88a")
	)
	(fp_line
		(start 1.37 5.02)
		(end 4.03 5.02)
		(stroke
			(width 0.12)
			(type solid)
		)
		(layer "F.SilkS")
		(uuid "d7beb9b8-3f04-4ba9-a2e6-1d244d82194a")
	)
	(fp_line
		(start 4.03 -5.14)
		(end 4.03 5.02)
		(stroke
			(width 0.12)
			(type solid)
		)
		(layer "F.SilkS")
		(uuid "2ac417fe-59f6-44fa-a571-d8006829d960")
	)
	(fp_rect
		(start -12.5 -12.77)
		(end 5.28 12.63)
		(stroke
			(width 0.12)
			(type default)
		)
		(fill none)
		(layer "F.SilkS")
		(uuid "076216bc-0422-4ad6-b456-974029d252ca")
	)
	(fp_line
		(start -11.8 -8.27)
		(end -11.8 8.03)
		(stroke
			(width 0.05)
			(type solid)
		)
		(layer "F.CrtYd")
		(uuid "b9a48b47-1d8a-4730-b799-3c63b02654dd")
	)
	(fp_line
		(start -11.8 8.03)
		(end -8.2 8.03)
		(stroke
			(width 0.05)
			(type solid)
		)
		(layer "F.CrtYd")
		(uuid "75bddfb1-ae2f-472a-b1b7-6051f75df1ca")
	)
	(fp_line
		(start -8.2 -8.27)
		(end -11.8 -8.27)
		(stroke
			(width 0.05)
			(type solid)
		)
		(layer "F.CrtYd")
		(uuid "5502933d-b36d-4c62-b764-5a2d390b494d")
	)
	(fp_line
		(start -8.2 8.03)
		(end -8.2 -8.27)
		(stroke
			(width 0.05)
			(type solid)
		)
		(layer "F.CrtYd")
		(uuid "1a8a7c24-9121-445b-aa55-b3ae90eef583")
	)
	(fp_line
		(start 0.9 -5.64)
		(end 0.9 5.49)
		(stroke
			(width 0.05)
			(type solid)
		)
		(layer "F.CrtYd")
		(uuid "a9f5c5f3-55e3-4084-8feb-ea96e2ef7c8f")
	)
	(fp_line
		(start 0.9 5.49)
		(end 4.5 5.49)
		(stroke
			(width 0.05)
			(type solid)
		)
		(layer "F.CrtYd")
		(uuid "3812af05-ba0f-4f85-a620-8a4d2582e1a9")
	)
	(fp_line
		(start 4.5 -5.64)
		(end 0.9 -5.64)
		(stroke
			(width 0.05)
			(type solid)
		)
		(layer "F.CrtYd")
		(uuid "9bf562d9-0533-46ff-bccf-4e7ab5a245f4")
	)
	(fp_line
		(start 4.5 5.49)
		(end 4.5 -5.64)
		(stroke
			(width 0.05)
			(type solid)
		)
		(layer "F.CrtYd")
		(uuid "d44e3a8c-7762-4d12-a48c-23cdb530688e")
	)
	(fp_line
		(start -11.27 -7.105)
		(end -10.635 -7.74)
		(stroke
			(width 0.1)
			(type solid)
		)
		(layer "F.Fab")
		(uuid "c5b4dc85-54ea-4c46-ad89-45da8621e5ad")
	)
	(fp_line
		(start -11.27 7.5)
		(end -11.27 -7.105)
		(stroke
			(width 0.1)
			(type solid)
		)
		(layer "F.Fab")
		(uuid "fef1ddcf-17c1-44dd-81ee-7e43ec9bf7e5")
	)
	(fp_line
		(start -10.635 -7.74)
		(end -8.73 -7.74)
		(stroke
			(width 0.1)
			(type solid)
		)
		(layer "F.Fab")
		(uuid "54182105-4bfc-483e-b0b8-72fb0d9ae522")
	)
	(fp_line
		(start -8.73 -7.74)
		(end -8.73 7.5)
		(stroke
			(width 0.1)
			(type solid)
		)
		(layer "F.Fab")
		(uuid "883128b9-3d33-4a05-a840-4273cc89ded5")
	)
	(fp_line
		(start -8.73 7.5)
		(end -11.27 7.5)
		(stroke
			(width 0.1)
			(type solid)
		)
		(layer "F.Fab")
		(uuid "d8e5351f-8092-40a9-8df4-4700f2edeb7f")
	)
	(fp_line
		(start 1.43 4.96)
		(end 1.43 -5.14)
		(stroke
			(width 0.1)
			(type solid)
		)
		(layer "F.Fab")
		(uuid "dfd4a0d9-c16f-4362-85fc-22b2d4ca35ce")
	)
	(fp_line
		(start 3.97 -5.34)
		(end 3.97 4.96)
		(stroke
			(width 0.1)
			(type solid)
		)
		(layer "F.Fab")
		(uuid "216f3f90-8969-4001-8f48-531fae8f686d")
	)
	(fp_line
		(start 3.97 4.96)
		(end 1.43 4.96)
		(stroke
			(width 0.1)
			(type solid)
		)
		(layer "F.Fab")
		(uuid "35926ecc-f37f-48f0-b1c9-1eeffb15066a")
	)
	(fp_text user "${REFERENCE}"
		(at 2.7 -2.66 90)
		(layer "F.Fab")
		(uuid "08ff31d8-6559-4831-88fb-f08061ac57d2")
		(effects
			(font
				(size 1 1)
				(thickness 0.15)
			)
		)
	)
	(fp_text user "${REFERENCE}"
		(at -10 -0.12 90)
		(layer "F.Fab")
		(uuid "d3623428-dbf8-43d4-b612-2f58f5bb2b60")
		(effects
			(font
				(size 1 1)
				(thickness 0.15)
			)
		)
	)
	(pad "1" thru_hole rect
		(at -10 -6.47)
		(size 1.7 1.7)
		(drill 1)
		(layers "*.Cu" "*.Mask")
		(remove_unused_layers no)
		(uuid "a031e248-75c7-4b07-9f28-fc9c300b43f6")
	)
	(pad "2" thru_hole oval
		(at -10 -3.93)
		(size 1.7 1.7)
		(drill 1)
		(layers "*.Cu" "*.Mask")
		(remove_unused_layers no)
		(uuid "40d62885-ceb8-4c17-8b34-716b386af5cb")
	)
	(pad "3" thru_hole oval
		(at -10 -1.39)
		(size 1.7 1.7)
		(drill 1)
		(layers "*.Cu" "*.Mask")
		(remove_unused_layers no)
		(uuid "01ab6706-7706-4328-a6eb-ebc3eb410c3c")
	)
	(pad "4" thru_hole oval
		(at -10 1.15)
		(size 1.7 1.7)
		(drill 1)
		(layers "*.Cu" "*.Mask")
		(remove_unused_layers no)
		(uuid "ed05ba03-1e59-4764-8823-f63056f52720")
	)
	(pad "5" thru_hole oval
		(at -10 3.69)
		(size 1.7 1.7)
		(drill 1)
		(layers "*.Cu" "*.Mask")
		(remove_unused_layers no)
		(uuid "3361c9a3-c4cc-47dc-ac72-a9c418921124")
	)
	(pad "6" thru_hole oval
		(at -10 6.23)
		(size 1.7 1.7)
		(drill 1)
		(layers "*.Cu" "*.Mask")
		(remove_unused_layers no)
		(uuid "30d686b6-b79d-4837-a792-ba6d6ea1579e")
	)
	(pad "7" thru_hole oval
		(at 2.7 3.69)
		(size 1.7 1.7)
		(drill 1)
		(layers "*.Cu" "*.Mask")
		(remove_unused_layers no)
		(uuid "223ae2c6-fb4d-42a3-90bb-089084707181")
	)
	(pad "8" thru_hole oval
		(at 2.7 1.15)
		(size 1.7 1.7)
		(drill 1)
		(layers "*.Cu" "*.Mask")
		(remove_unused_layers no)
		(uuid "5b1a795d-0ac8-4b9d-af09-c91e89ad4af5")
	)
	(pad "9" thru_hole oval
		(at 2.7 -1.39)
		(size 1.7 1.7)
		(drill 1)
		(layers "*.Cu" "*.Mask")
		(remove_unused_layers no)
		(uuid "b7deadbf-194f-42d7-87e0-8d9a79e6fe3d")
	)
	(pad "10" thru_hole oval
		(at 2.7 -3.93)
		(size 1.7 1.7)
		(drill 1)
		(layers "*.Cu" "*.Mask")
		(remove_unused_layers no)
		(uuid "ca2d3bca-5f50-409e-90d9-8caf59030e26")
	)
	(model "${KICAD6_3DMODEL_DIR}/Connector_PinHeader_2.54mm.3dshapes/PinHeader_1x06_P2.54mm_Vertical.wrl"
		(offset
			(xyz 0 0 0)
		)
		(scale
			(xyz 1 1 1)
		)
		(rotate
			(xyz 0 0 0)
		)
	)
)