(kicad_sch
	(version 20231120)
	(generator "eeschema")
	(generator_version "8.0")
	(uuid "296246b7-c8f5-40d5-a662-7c2cd4332e84")
	(paper "A4")
	(lib_symbols
		(symbol "Connector:Conn_01x03_Female"
			(pin_names
				(offset 1.016) hide)
			(exclude_from_sim no)
			(in_bom yes)
			(on_board yes)
			(property "Reference" "J"
				(at 0 5.08 0)
				(effects
					(font
						(size 1.27 1.27)
					)
				)
			)
			(property "Value" "Conn_01x03_Female"
				(at 0 -5.08 0)
				(effects
					(font
						(size 1.27 1.27)
					)
				)
			)
			(property "Footprint" ""
				(at 0 0 0)
				(effects
					(font
						(size 1.27 1.27)
					)
					(hide yes)
				)
			)
			(property "Datasheet" "~"
				(at 0 0 0)
				(effects
					(font
						(size 1.27 1.27)
					)
					(hide yes)
				)
			)
			(property "Description" "Generic connector, single row, 01x03, script generated (kicad-library-utils/schlib/autogen/connector/)"
				(at 0 0 0)
				(effects
					(font
						(size 1.27 1.27)
					)
					(hide yes)
				)
			)
			(property "ki_keywords" "connector"
				(at 0 0 0)
				(effects
					(font
						(size 1.27 1.27)
					)
					(hide yes)
				)
			)
			(property "ki_fp_filters" "Connector*:*_1x??_*"
				(at 0 0 0)
				(effects
					(font
						(size 1.27 1.27)
					)
					(hide yes)
				)
			)
			(symbol "Conn_01x03_Female_1_1"
				(arc
					(start 0 -2.032)
					(mid -0.5058 -2.54)
					(end 0 -3.048)
					(stroke
						(width 0.1524)
						(type default)
					)
					(fill
						(type none)
					)
				)
				(polyline
					(pts
						(xy -1.27 -2.54) (xy -0.508 -2.54)
					)
					(stroke
						(width 0.1524)
						(type default)
					)
					(fill
						(type none)
					)
				)
				(polyline
					(pts
						(xy -1.27 0) (xy -0.508 0)
					)
					(stroke
						(width 0.1524)
						(type default)
					)
					(fill
						(type none)
					)
				)
				(polyline
					(pts
						(xy -1.27 2.54) (xy -0.508 2.54)
					)
					(stroke
						(width 0.1524)
						(type default)
					)
					(fill
						(type none)
					)
				)
				(arc
					(start 0 0.508)
					(mid -0.5058 0)
					(end 0 -0.508)
					(stroke
						(width 0.1524)
						(type default)
					)
					(fill
						(type none)
					)
				)
				(arc
					(start 0 3.048)
					(mid -0.5058 2.54)
					(end 0 2.032)
					(stroke
						(width 0.1524)
						(type default)
					)
					(fill
						(type none)
					)
				)
				(pin passive line
					(at -5.08 2.54 0)
					(length 3.81)
					(name "Pin_1"
						(effects
							(font
								(size 1.27 1.27)
							)
						)
					)
					(number "1"
						(effects
							(font
								(size 1.27 1.27)
							)
						)
					)
				)
				(pin passive line
					(at -5.08 0 0)
					(length 3.81)
					(name "Pin_2"
						(effects
							(font
								(size 1.27 1.27)
							)
						)
					)
					(number "2"
						(effects
							(font
								(size 1.27 1.27)
							)
						)
					)
				)
				(pin passive line
					(at -5.08 -2.54 0)
					(length 3.81)
					(name "Pin_3"
						(effects
							(font
								(size 1.27 1.27)
							)
						)
					)
					(number "3"
						(effects
							(font
								(size 1.27 1.27)
							)
						)
					)
				)
			)
		)
		(symbol "Connector:Conn_Coaxial"
			(pin_names
				(offset 1.016) hide)
			(exclude_from_sim no)
			(in_bom yes)
			(on_board yes)
			(property "Reference" "J"
				(at 0.254 3.048 0)
				(effects
					(font
						(size 1.27 1.27)
					)
				)
			)
			(property "Value" "Conn_Coaxial"
				(at 2.921 0 90)
				(effects
					(font
						(size 1.27 1.27)
					)
				)
			)
			(property "Footprint" ""
				(at 0 0 0)
				(effects
					(font
						(size 1.27 1.27)
					)
					(hide yes)
				)
			)
			(property "Datasheet" " ~"
				(at 0 0 0)
				(effects
					(font
						(size 1.27 1.27)
					)
					(hide yes)
				)
			)
			(property "Description" "coaxial connector (BNC, SMA, SMB, SMC, Cinch/RCA, LEMO, ...)"
				(at 0 0 0)
				(effects
					(font
						(size 1.27 1.27)
					)
					(hide yes)
				)
			)
			(property "ki_keywords" "BNC SMA SMB SMC LEMO coaxial connector CINCH RCA"
				(at 0 0 0)
				(effects
					(font
						(size 1.27 1.27)
					)
					(hide yes)
				)
			)
			(property "ki_fp_filters" "*BNC* *SMA* *SMB* *SMC* *Cinch* *LEMO*"
				(at 0 0 0)
				(effects
					(font
						(size 1.27 1.27)
					)
					(hide yes)
				)
			)
			(symbol "Conn_Coaxial_0_1"
				(arc
					(start -1.778 -0.508)
					(mid 0.2311 -1.8066)
					(end 1.778 0)
					(stroke
						(width 0.254)
						(type default)
					)
					(fill
						(type none)
					)
				)
				(polyline
					(pts
						(xy -2.54 0) (xy -0.508 0)
					)
					(stroke
						(width 0)
						(type default)
					)
					(fill
						(type none)
					)
				)
				(polyline
					(pts
						(xy 0 -2.54) (xy 0 -1.778)
					)
					(stroke
						(width 0)
						(type default)
					)
					(fill
						(type none)
					)
				)
				(circle
					(center 0 0)
					(radius 0.508)
					(stroke
						(width 0.2032)
						(type default)
					)
					(fill
						(type none)
					)
				)
				(arc
					(start 1.778 0)
					(mid 0.2099 1.8101)
					(end -1.778 0.508)
					(stroke
						(width 0.254)
						(type default)
					)
					(fill
						(type none)
					)
				)
			)
			(symbol "Conn_Coaxial_1_1"
				(pin passive line
					(at -5.08 0 0)
					(length 2.54)
					(name "In"
						(effects
							(font
								(size 1.27 1.27)
							)
						)
					)
					(number "1"
						(effects
							(font
								(size 1.27 1.27)
							)
						)
					)
				)
				(pin passive line
					(at 0 -5.08 90)
					(length 2.54)
					(name "Ext"
						(effects
							(font
								(size 1.27 1.27)
							)
						)
					)
					(number "2"
						(effects
							(font
								(size 1.27 1.27)
							)
						)
					)
				)
			)
		)
		(symbol "Connector:Micro_SD_Card"
			(pin_names
				(offset 1.016)
			)
			(exclude_from_sim no)
			(in_bom yes)
			(on_board yes)
			(property "Reference" "J"
				(at -16.51 15.24 0)
				(effects
					(font
						(size 1.27 1.27)
					)
				)
			)
			(property "Value" "Micro_SD_Card"
				(at 16.51 15.24 0)
				(effects
					(font
						(size 1.27 1.27)
					)
					(justify right)
				)
			)
			(property "Footprint" ""
				(at 29.21 7.62 0)
				(effects
					(font
						(size 1.27 1.27)
					)
					(hide yes)
				)
			)
			(property "Datasheet" "http://katalog.we-online.de/em/datasheet/693072010801.pdf"
				(at 0 0 0)
				(effects
					(font
						(size 1.27 1.27)
					)
					(hide yes)
				)
			)
			(property "Description" "Micro SD Card Socket"
				(at 0 0 0)
				(effects
					(font
						(size 1.27 1.27)
					)
					(hide yes)
				)
			)
			(property "ki_keywords" "connector SD microsd"
				(at 0 0 0)
				(effects
					(font
						(size 1.27 1.27)
					)
					(hide yes)
				)
			)
			(property "ki_fp_filters" "microSD*"
				(at 0 0 0)
				(effects
					(font
						(size 1.27 1.27)
					)
					(hide yes)
				)
			)
			(symbol "Micro_SD_Card_0_1"
				(rectangle
					(start -7.62 -9.525)
					(end -5.08 -10.795)
					(stroke
						(width 0)
						(type default)
					)
					(fill
						(type outline)
					)
				)
				(rectangle
					(start -7.62 -6.985)
					(end -5.08 -8.255)
					(stroke
						(width 0)
						(type default)
					)
					(fill
						(type outline)
					)
				)
				(rectangle
					(start -7.62 -4.445)
					(end -5.08 -5.715)
					(stroke
						(width 0)
						(type default)
					)
					(fill
						(type outline)
					)
				)
				(rectangle
					(start -7.62 -1.905)
					(end -5.08 -3.175)
					(stroke
						(width 0)
						(type default)
					)
					(fill
						(type outline)
					)
				)
				(rectangle
					(start -7.62 0.635)
					(end -5.08 -0.635)
					(stroke
						(width 0)
						(type default)
					)
					(fill
						(type outline)
					)
				)
				(rectangle
					(start -7.62 3.175)
					(end -5.08 1.905)
					(stroke
						(width 0)
						(type default)
					)
					(fill
						(type outline)
					)
				)
				(rectangle
					(start -7.62 5.715)
					(end -5.08 4.445)
					(stroke
						(width 0)
						(type default)
					)
					(fill
						(type outline)
					)
				)
				(rectangle
					(start -7.62 8.255)
					(end -5.08 6.985)
					(stroke
						(width 0)
						(type default)
					)
					(fill
						(type outline)
					)
				)
				(polyline
					(pts
						(xy 16.51 12.7) (xy 16.51 13.97) (xy -19.05 13.97) (xy -19.05 -16.51) (xy 16.51 -16.51) (xy 16.51 -11.43)
					)
					(stroke
						(width 0.254)
						(type default)
					)
					(fill
						(type none)
					)
				)
				(polyline
					(pts
						(xy -8.89 -11.43) (xy -8.89 8.89) (xy -1.27 8.89) (xy 2.54 12.7) (xy 3.81 12.7) (xy 3.81 11.43)
						(xy 6.35 11.43) (xy 7.62 12.7) (xy 20.32 12.7) (xy 20.32 -11.43) (xy -8.89 -11.43)
					)
					(stroke
						(width 0.254)
						(type default)
					)
					(fill
						(type background)
					)
				)
			)
			(symbol "Micro_SD_Card_1_1"
				(pin bidirectional line
					(at -22.86 7.62 0)
					(length 3.81)
					(name "DAT2"
						(effects
							(font
								(size 1.27 1.27)
							)
						)
					)
					(number "1"
						(effects
							(font
								(size 1.27 1.27)
							)
						)
					)
				)
				(pin bidirectional line
					(at -22.86 5.08 0)
					(length 3.81)
					(name "DAT3/CD"
						(effects
							(font
								(size 1.27 1.27)
							)
						)
					)
					(number "2"
						(effects
							(font
								(size 1.27 1.27)
							)
						)
					)
				)
				(pin input line
					(at -22.86 2.54 0)
					(length 3.81)
					(name "CMD"
						(effects
							(font
								(size 1.27 1.27)
							)
						)
					)
					(number "3"
						(effects
							(font
								(size 1.27 1.27)
							)
						)
					)
				)
				(pin power_in line
					(at -22.86 0 0)
					(length 3.81)
					(name "VDD"
						(effects
							(font
								(size 1.27 1.27)
							)
						)
					)
					(number "4"
						(effects
							(font
								(size 1.27 1.27)
							)
						)
					)
				)
				(pin input line
					(at -22.86 -2.54 0)
					(length 3.81)
					(name "CLK"
						(effects
							(font
								(size 1.27 1.27)
							)
						)
					)
					(number "5"
						(effects
							(font
								(size 1.27 1.27)
							)
						)
					)
				)
				(pin power_in line
					(at -22.86 -5.08 0)
					(length 3.81)
					(name "VSS"
						(effects
							(font
								(size 1.27 1.27)
							)
						)
					)
					(number "6"
						(effects
							(font
								(size 1.27 1.27)
							)
						)
					)
				)
				(pin bidirectional line
					(at -22.86 -7.62 0)
					(length 3.81)
					(name "DAT0"
						(effects
							(font
								(size 1.27 1.27)
							)
						)
					)
					(number "7"
						(effects
							(font
								(size 1.27 1.27)
							)
						)
					)
				)
				(pin bidirectional line
					(at -22.86 -10.16 0)
					(length 3.81)
					(name "DAT1"
						(effects
							(font
								(size 1.27 1.27)
							)
						)
					)
					(number "8"
						(effects
							(font
								(size 1.27 1.27)
							)
						)
					)
				)
				(pin passive line
					(at 20.32 -15.24 180)
					(length 3.81)
					(name "SHIELD"
						(effects
							(font
								(size 1.27 1.27)
							)
						)
					)
					(number "9"
						(effects
							(font
								(size 1.27 1.27)
							)
						)
					)
				)
			)
		)
		(symbol "MCU_Module:Adafruit_Feather_M0_Basic_Proto"
			(exclude_from_sim no)
			(in_bom yes)
			(on_board yes)
			(property "Reference" "A"
				(at -10.16 29.21 0)
				(effects
					(font
						(size 1.27 1.27)
					)
					(justify left)
				)
			)
			(property "Value" "Adafruit_Feather_M0_Basic_Proto"
				(at 2.54 -31.75 0)
				(effects
					(font
						(size 1.27 1.27)
					)
					(justify left)
				)
			)
			(property "Footprint" "Module:Adafruit_Feather"
				(at 2.54 -34.29 0)
				(effects
					(font
						(size 1.27 1.27)
					)
					(justify left)
					(hide yes)
				)
			)
			(property "Datasheet" "https://cdn-learn.adafruit.com/downloads/pdf/adafruit-feather-m0-basic-proto.pdf"
				(at 0 -30.48 0)
				(effects
					(font
						(size 1.27 1.27)
					)
					(hide yes)
				)
			)
			(property "Description" "Microcontroller module with SAMD21 Cortex-M0 MCU"
				(at 0 0 0)
				(effects
					(font
						(size 1.27 1.27)
					)
					(hide yes)
				)
			)
			(property "ki_keywords" "Adafruit feather microcontroller module USB M0 SAMD21"
				(at 0 0 0)
				(effects
					(font
						(size 1.27 1.27)
					)
					(hide yes)
				)
			)
			(property "ki_fp_filters" "Adafruit*Feather*"
				(at 0 0 0)
				(effects
					(font
						(size 1.27 1.27)
					)
					(hide yes)
				)
			)
			(symbol "Adafruit_Feather_M0_Basic_Proto_0_1"
				(rectangle
					(start -10.16 27.94)
					(end 10.16 -30.48)
					(stroke
						(width 0.254)
						(type default)
					)
					(fill
						(type background)
					)
				)
			)
			(symbol "Adafruit_Feather_M0_Basic_Proto_1_1"
				(pin input line
					(at 12.7 20.32 180)
					(length 2.54)
					(name "~{RESET}"
						(effects
							(font
								(size 1.27 1.27)
							)
						)
					)
					(number "1"
						(effects
							(font
								(size 1.27 1.27)
							)
						)
					)
				)
				(pin bidirectional line
					(at 12.7 -7.62 180)
					(length 2.54)
					(name "A5"
						(effects
							(font
								(size 1.27 1.27)
							)
						)
					)
					(number "10"
						(effects
							(font
								(size 1.27 1.27)
							)
						)
					)
				)
				(pin bidirectional line
					(at -12.7 -2.54 0)
					(length 2.54)
					(name "SCK/D24"
						(effects
							(font
								(size 1.27 1.27)
							)
						)
					)
					(number "11"
						(effects
							(font
								(size 1.27 1.27)
							)
						)
					)
				)
				(pin bidirectional line
					(at -12.7 -5.08 0)
					(length 2.54)
					(name "MOSI/D23"
						(effects
							(font
								(size 1.27 1.27)
							)
						)
					)
					(number "12"
						(effects
							(font
								(size 1.27 1.27)
							)
						)
					)
				)
				(pin bidirectional line
					(at -12.7 -7.62 0)
					(length 2.54)
					(name "MISO/D22"
						(effects
							(font
								(size 1.27 1.27)
							)
						)
					)
					(number "13"
						(effects
							(font
								(size 1.27 1.27)
							)
						)
					)
				)
				(pin bidirectional line
					(at -12.7 -12.7 0)
					(length 2.54)
					(name "RX/D0"
						(effects
							(font
								(size 1.27 1.27)
							)
						)
					)
					(number "14"
						(effects
							(font
								(size 1.27 1.27)
							)
						)
					)
				)
				(pin bidirectional line
					(at -12.7 -15.24 0)
					(length 2.54)
					(name "TX/D1"
						(effects
							(font
								(size 1.27 1.27)
							)
						)
					)
					(number "15"
						(effects
							(font
								(size 1.27 1.27)
							)
						)
					)
				)
				(pin passive line
					(at 0 -33.02 90)
					(length 2.54) hide
					(name "GND"
						(effects
							(font
								(size 1.27 1.27)
							)
						)
					)
					(number "16"
						(effects
							(font
								(size 1.27 1.27)
							)
						)
					)
				)
				(pin bidirectional line
					(at -12.7 -20.32 0)
					(length 2.54)
					(name "SDA/D20"
						(effects
							(font
								(size 1.27 1.27)
							)
						)
					)
					(number "17"
						(effects
							(font
								(size 1.27 1.27)
							)
						)
					)
				)
				(pin bidirectional line
					(at -12.7 -22.86 0)
					(length 2.54)
					(name "SCL/D21"
						(effects
							(font
								(size 1.27 1.27)
							)
						)
					)
					(number "18"
						(effects
							(font
								(size 1.27 1.27)
							)
						)
					)
				)
				(pin bidirectional line
					(at -12.7 20.32 0)
					(length 2.54)
					(name "D5"
						(effects
							(font
								(size 1.27 1.27)
							)
						)
					)
					(number "19"
						(effects
							(font
								(size 1.27 1.27)
							)
						)
					)
				)
				(pin power_in line
					(at 2.54 30.48 270)
					(length 2.54)
					(name "3V3"
						(effects
							(font
								(size 1.27 1.27)
							)
						)
					)
					(number "2"
						(effects
							(font
								(size 1.27 1.27)
							)
						)
					)
				)
				(pin bidirectional line
					(at -12.7 17.78 0)
					(length 2.54)
					(name "D6"
						(effects
							(font
								(size 1.27 1.27)
							)
						)
					)
					(number "20"
						(effects
							(font
								(size 1.27 1.27)
							)
						)
					)
				)
				(pin bidirectional line
					(at -12.7 15.24 0)
					(length 2.54)
					(name "D9"
						(effects
							(font
								(size 1.27 1.27)
							)
						)
					)
					(number "21"
						(effects
							(font
								(size 1.27 1.27)
							)
						)
					)
				)
				(pin bidirectional line
					(at -12.7 12.7 0)
					(length 2.54)
					(name "D10"
						(effects
							(font
								(size 1.27 1.27)
							)
						)
					)
					(number "22"
						(effects
							(font
								(size 1.27 1.27)
							)
						)
					)
				)
				(pin bidirectional line
					(at -12.7 10.16 0)
					(length 2.54)
					(name "D11"
						(effects
							(font
								(size 1.27 1.27)
							)
						)
					)
					(number "23"
						(effects
							(font
								(size 1.27 1.27)
							)
						)
					)
				)
				(pin bidirectional line
					(at -12.7 7.62 0)
					(length 2.54)
					(name "D12"
						(effects
							(font
								(size 1.27 1.27)
							)
						)
					)
					(number "24"
						(effects
							(font
								(size 1.27 1.27)
							)
						)
					)
				)
				(pin bidirectional line
					(at -12.7 5.08 0)
					(length 2.54)
					(name "D13"
						(effects
							(font
								(size 1.27 1.27)
							)
						)
					)
					(number "25"
						(effects
							(font
								(size 1.27 1.27)
							)
						)
					)
				)
				(pin power_in line
					(at 5.08 30.48 270)
					(length 2.54)
					(name "USB"
						(effects
							(font
								(size 1.27 1.27)
							)
						)
					)
					(number "26"
						(effects
							(font
								(size 1.27 1.27)
							)
						)
					)
				)
				(pin input line
					(at 12.7 12.7 180)
					(length 2.54)
					(name "EN"
						(effects
							(font
								(size 1.27 1.27)
							)
						)
					)
					(number "27"
						(effects
							(font
								(size 1.27 1.27)
							)
						)
					)
				)
				(pin power_in line
					(at -2.54 30.48 270)
					(length 2.54)
					(name "VBAT"
						(effects
							(font
								(size 1.27 1.27)
							)
						)
					)
					(number "28"
						(effects
							(font
								(size 1.27 1.27)
							)
						)
					)
				)
				(pin input line
					(at 12.7 10.16 180)
					(length 2.54)
					(name "AREF"
						(effects
							(font
								(size 1.27 1.27)
							)
						)
					)
					(number "3"
						(effects
							(font
								(size 1.27 1.27)
							)
						)
					)
				)
				(pin power_in line
					(at 0 -33.02 90)
					(length 2.54)
					(name "GND"
						(effects
							(font
								(size 1.27 1.27)
							)
						)
					)
					(number "4"
						(effects
							(font
								(size 1.27 1.27)
							)
						)
					)
				)
				(pin bidirectional line
					(at 12.7 5.08 180)
					(length 2.54)
					(name "DAC0/A0"
						(effects
							(font
								(size 1.27 1.27)
							)
						)
					)
					(number "5"
						(effects
							(font
								(size 1.27 1.27)
							)
						)
					)
				)
				(pin bidirectional line
					(at 12.7 2.54 180)
					(length 2.54)
					(name "A1"
						(effects
							(font
								(size 1.27 1.27)
							)
						)
					)
					(number "6"
						(effects
							(font
								(size 1.27 1.27)
							)
						)
					)
				)
				(pin bidirectional line
					(at 12.7 0 180)
					(length 2.54)
					(name "A2"
						(effects
							(font
								(size 1.27 1.27)
							)
						)
					)
					(number "7"
						(effects
							(font
								(size 1.27 1.27)
							)
						)
					)
				)
				(pin bidirectional line
					(at 12.7 -2.54 180)
					(length 2.54)
					(name "A3"
						(effects
							(font
								(size 1.27 1.27)
							)
						)
					)
					(number "8"
						(effects
							(font
								(size 1.27 1.27)
							)
						)
					)
				)
				(pin bidirectional line
					(at 12.7 -5.08 180)
					(length 2.54)
					(name "A4"
						(effects
							(font
								(size 1.27 1.27)
							)
						)
					)
					(number "9"
						(effects
							(font
								(size 1.27 1.27)
							)
						)
					)
				)
			)
		)
		(symbol "Mechanical:MountingHole"
			(pin_names
				(offset 1.016)
			)
			(exclude_from_sim no)
			(in_bom yes)
			(on_board yes)
			(property "Reference" "H"
				(at 0 5.08 0)
				(effects
					(font
						(size 1.27 1.27)
					)
				)
			)
			(property "Value" "MountingHole"
				(at 0 3.175 0)
				(effects
					(font
						(size 1.27 1.27)
					)
				)
			)
			(property "Footprint" ""
				(at 0 0 0)
				(effects
					(font
						(size 1.27 1.27)
					)
					(hide yes)
				)
			)
			(property "Datasheet" "~"
				(at 0 0 0)
				(effects
					(font
						(size 1.27 1.27)
					)
					(hide yes)
				)
			)
			(property "Description" "Mounting Hole without connection"
				(at 0 0 0)
				(effects
					(font
						(size 1.27 1.27)
					)
					(hide yes)
				)
			)
			(property "ki_keywords" "mounting hole"
				(at 0 0 0)
				(effects
					(font
						(size 1.27 1.27)
					)
					(hide yes)
				)
			)
			(property "ki_fp_filters" "MountingHole*"
				(at 0 0 0)
				(effects
					(font
						(size 1.27 1.27)
					)
					(hide yes)
				)
			)
			(symbol "MountingHole_0_1"
				(circle
					(center 0 0)
					(radius 1.27)
					(stroke
						(width 1.27)
						(type default)
					)
					(fill
						(type none)
					)
				)
			)
		)
		(symbol "Switch:SW_Push"
			(pin_numbers hide)
			(pin_names
				(offset 1.016) hide)
			(exclude_from_sim no)
			(in_bom yes)
			(on_board yes)
			(property "Reference" "SW"
				(at 1.27 2.54 0)
				(effects
					(font
						(size 1.27 1.27)
					)
					(justify left)
				)
			)
			(property "Value" "SW_Push"
				(at 0 -1.524 0)
				(effects
					(font
						(size 1.27 1.27)
					)
				)
			)
			(property "Footprint" ""
				(at 0 5.08 0)
				(effects
					(font
						(size 1.27 1.27)
					)
					(hide yes)
				)
			)
			(property "Datasheet" "~"
				(at 0 5.08 0)
				(effects
					(font
						(size 1.27 1.27)
					)
					(hide yes)
				)
			)
			(property "Description" "Push button switch, generic, two pins"
				(at 0 0 0)
				(effects
					(font
						(size 1.27 1.27)
					)
					(hide yes)
				)
			)
			(property "ki_keywords" "switch normally-open pushbutton push-button"
				(at 0 0 0)
				(effects
					(font
						(size 1.27 1.27)
					)
					(hide yes)
				)
			)
			(symbol "SW_Push_0_1"
				(circle
					(center -2.032 0)
					(radius 0.508)
					(stroke
						(width 0)
						(type default)
					)
					(fill
						(type none)
					)
				)
				(polyline
					(pts
						(xy 0 1.27) (xy 0 3.048)
					)
					(stroke
						(width 0)
						(type default)
					)
					(fill
						(type none)
					)
				)
				(polyline
					(pts
						(xy 2.54 1.27) (xy -2.54 1.27)
					)
					(stroke
						(width 0)
						(type default)
					)
					(fill
						(type none)
					)
				)
				(circle
					(center 2.032 0)
					(radius 0.508)
					(stroke
						(width 0)
						(type default)
					)
					(fill
						(type none)
					)
				)
				(pin passive line
					(at -5.08 0 0)
					(length 2.54)
					(name "1"
						(effects
							(font
								(size 1.27 1.27)
							)
						)
					)
					(number "1"
						(effects
							(font
								(size 1.27 1.27)
							)
						)
					)
				)
				(pin passive line
					(at 5.08 0 180)
					(length 2.54)
					(name "2"
						(effects
							(font
								(size 1.27 1.27)
							)
						)
					)
					(number "2"
						(effects
							(font
								(size 1.27 1.27)
							)
						)
					)
				)
			)
		)
		(symbol "lucc:compass_lsm303agr_adafruit"
			(exclude_from_sim no)
			(in_bom yes)
			(on_board yes)
			(property "Reference" "U"
				(at -10.16 10.16 0)
				(effects
					(font
						(size 1.27 1.27)
					)
					(justify left)
				)
			)
			(property "Value" "compass_lsm303agr_adafruit"
				(at -11.684 -1.27 0)
				(effects
					(font
						(size 1.27 1.27)
					)
					(justify left)
				)
			)
			(property "Footprint" "Package_DFN_QFN:TDFN-8-1EP_3x2mm_P0.5mm_EP1.80x1.65mm"
				(at 0.508 -39.37 0)
				(effects
					(font
						(size 1.27 1.27)
					)
					(hide yes)
				)
			)
			(property "Datasheet" "https://ww1.microchip.com/downloads/en/DeviceDoc/20005533A.pdf"
				(at 2.032 -42.418 0)
				(effects
					(font
						(size 1.27 1.27)
					)
					(hide yes)
				)
			)
			(property "Description" "CAN FD Transceiver with Silent Mode, up to 8 Mbps, TDFN-8"
				(at 1.27 -45.212 0)
				(effects
					(font
						(size 1.27 1.27)
					)
					(hide yes)
				)
			)
			(property "ki_keywords" "CAN FD Transceiver"
				(at 0 0 0)
				(effects
					(font
						(size 1.27 1.27)
					)
					(hide yes)
				)
			)
			(property "ki_fp_filters" "TDFN*1EP*3x2mm*P0.5mm*"
				(at 0 0 0)
				(effects
					(font
						(size 1.27 1.27)
					)
					(hide yes)
				)
			)
			(symbol "compass_lsm303agr_adafruit_0_1"
				(rectangle
					(start -11.43 -5.08)
					(end 2.54 -22.86)
					(stroke
						(width 0.254)
						(type default)
					)
					(fill
						(type background)
					)
				)
			)
			(symbol "compass_lsm303agr_adafruit_1_1"
				(pin bidirectional line
					(at -13.97 -7.62 0)
					(length 2.54)
					(name "VIN"
						(effects
							(font
								(size 1.27 1.27)
							)
						)
					)
					(number "1"
						(effects
							(font
								(size 1.27 1.27)
							)
						)
					)
				)
				(pin input line
					(at 5.08 -10.16 180)
					(length 2.54)
					(name "CSM"
						(effects
							(font
								(size 1.27 1.27)
							)
						)
					)
					(number "10"
						(effects
							(font
								(size 1.27 1.27)
							)
						)
					)
				)
				(pin output line
					(at -13.97 -10.16 0)
					(length 2.54)
					(name "3V"
						(effects
							(font
								(size 1.27 1.27)
							)
						)
					)
					(number "2"
						(effects
							(font
								(size 1.27 1.27)
							)
						)
					)
				)
				(pin input line
					(at -13.97 -12.7 0)
					(length 2.54)
					(name "GND"
						(effects
							(font
								(size 1.27 1.27)
							)
						)
					)
					(number "3"
						(effects
							(font
								(size 1.27 1.27)
							)
						)
					)
				)
				(pin bidirectional line
					(at -13.97 -15.24 0)
					(length 2.54)
					(name "SCL"
						(effects
							(font
								(size 1.27 1.27)
							)
						)
					)
					(number "4"
						(effects
							(font
								(size 1.27 1.27)
							)
						)
					)
				)
				(pin input line
					(at -13.97 -17.78 0)
					(length 2.54)
					(name "SDA"
						(effects
							(font
								(size 1.27 1.27)
							)
						)
					)
					(number "5"
						(effects
							(font
								(size 1.27 1.27)
							)
						)
					)
				)
				(pin bidirectional line
					(at -13.97 -20.32 0)
					(length 2.54)
					(name "INTM"
						(effects
							(font
								(size 1.27 1.27)
							)
						)
					)
					(number "6"
						(effects
							(font
								(size 1.27 1.27)
							)
						)
					)
				)
				(pin bidirectional line
					(at 5.08 -17.78 180)
					(length 2.54)
					(name "IA2"
						(effects
							(font
								(size 1.27 1.27)
							)
						)
					)
					(number "7"
						(effects
							(font
								(size 1.27 1.27)
							)
						)
					)
				)
				(pin input line
					(at 5.08 -15.24 180)
					(length 2.54)
					(name "IA1"
						(effects
							(font
								(size 1.27 1.27)
							)
						)
					)
					(number "8"
						(effects
							(font
								(size 1.27 1.27)
							)
						)
					)
				)
				(pin bidirectional line
					(at 5.08 -12.7 180)
					(length 2.54)
					(name "CSA"
						(effects
							(font
								(size 1.27 1.27)
							)
						)
					)
					(number "9"
						(effects
							(font
								(size 1.27 1.27)
							)
						)
					)
				)
			)
		)
		(symbol "lucc:display_adafruit_sharp"
			(exclude_from_sim no)
			(in_bom yes)
			(on_board yes)
			(property "Reference" "A"
				(at -10.16 29.21 0)
				(effects
					(font
						(size 1.27 1.27)
					)
					(justify left)
				)
			)
			(property "Value" "display_adafruit_sharp"
				(at -3.81 27.178 0)
				(effects
					(font
						(size 1.27 1.27)
					)
					(justify left)
				)
			)
			(property "Footprint" "Module:Adafruit_Feather"
				(at -13.208 -11.684 0)
				(effects
					(font
						(size 1.27 1.27)
					)
					(justify left)
					(hide yes)
				)
			)
			(property "Datasheet" "https://cdn-learn.adafruit.com/downloads/pdf/adafruit-feather.pdf"
				(at 0 -20.32 0)
				(effects
					(font
						(size 1.27 1.27)
					)
					(hide yes)
				)
			)
			(property "Description" "Microcontroller module in various flavor, generic symbol"
				(at 0 0 0)
				(effects
					(font
						(size 1.27 1.27)
					)
					(hide yes)
				)
			)
			(property "ki_keywords" "Adafruit feather microcontroller module"
				(at 0 0 0)
				(effects
					(font
						(size 1.27 1.27)
					)
					(hide yes)
				)
			)
			(property "ki_fp_filters" "Adafruit*Feather*"
				(at 0 0 0)
				(effects
					(font
						(size 1.27 1.27)
					)
					(hide yes)
				)
			)
			(symbol "display_adafruit_sharp_0_1"
				(rectangle
					(start -2.54 22.86)
					(end 3.81 -2.54)
					(stroke
						(width 0.254)
						(type default)
					)
					(fill
						(type background)
					)
				)
			)
			(symbol "display_adafruit_sharp_1_1"
				(pin bidirectional line
					(at -5.08 20.32 0)
					(length 2.54)
					(name "VIN"
						(effects
							(font
								(size 1.27 1.27)
							)
						)
					)
					(number "1"
						(effects
							(font
								(size 1.27 1.27)
							)
						)
					)
				)
				(pin bidirectional line
					(at -5.08 17.78 0)
					(length 2.54)
					(name "3V3"
						(effects
							(font
								(size 1.27 1.27)
							)
						)
					)
					(number "2"
						(effects
							(font
								(size 1.27 1.27)
							)
						)
					)
				)
				(pin bidirectional line
					(at -5.08 15.24 0)
					(length 2.54)
					(name "GND"
						(effects
							(font
								(size 1.27 1.27)
							)
						)
					)
					(number "3"
						(effects
							(font
								(size 1.27 1.27)
							)
						)
					)
				)
				(pin bidirectional line
					(at -5.08 12.7 0)
					(length 2.54)
					(name "CLK"
						(effects
							(font
								(size 1.27 1.27)
							)
						)
					)
					(number "4"
						(effects
							(font
								(size 1.27 1.27)
							)
						)
					)
				)
				(pin bidirectional line
					(at -5.08 10.16 0)
					(length 2.54)
					(name "DI"
						(effects
							(font
								(size 1.27 1.27)
							)
						)
					)
					(number "5"
						(effects
							(font
								(size 1.27 1.27)
							)
						)
					)
				)
				(pin bidirectional line
					(at -5.08 7.62 0)
					(length 2.54)
					(name "CS"
						(effects
							(font
								(size 1.27 1.27)
							)
						)
					)
					(number "6"
						(effects
							(font
								(size 1.27 1.27)
							)
						)
					)
				)
				(pin bidirectional line
					(at -5.08 5.08 0)
					(length 2.54)
					(name "EMD"
						(effects
							(font
								(size 1.27 1.27)
							)
						)
					)
					(number "7"
						(effects
							(font
								(size 1.27 1.27)
							)
						)
					)
				)
				(pin bidirectional line
					(at -5.08 2.54 0)
					(length 2.54)
					(name "DISP"
						(effects
							(font
								(size 1.27 1.27)
							)
						)
					)
					(number "8"
						(effects
							(font
								(size 1.27 1.27)
							)
						)
					)
				)
				(pin bidirectional line
					(at -5.08 0 0)
					(length 2.54)
					(name "EIN"
						(effects
							(font
								(size 1.27 1.27)
							)
						)
					)
					(number "9"
						(effects
							(font
								(size 1.27 1.27)
							)
						)
					)
				)
			)
		)
		(symbol "lucc:display_adafruit_tft_1.14"
			(exclude_from_sim no)
			(in_bom yes)
			(on_board yes)
			(property "Reference" "A"
				(at -10.16 29.21 0)
				(effects
					(font
						(size 1.27 1.27)
					)
					(justify left)
				)
			)
			(property "Value" "display_adafruit_tft_1.14"
				(at -3.81 27.178 0)
				(effects
					(font
						(size 1.27 1.27)
					)
					(justify left)
				)
			)
			(property "Footprint" "Module:Adafruit_Feather"
				(at -13.208 -11.684 0)
				(effects
					(font
						(size 1.27 1.27)
					)
					(justify left)
					(hide yes)
				)
			)
			(property "Datasheet" "https://cdn-learn.adafruit.com/downloads/pdf/adafruit-feather.pdf"
				(at 0 -20.32 0)
				(effects
					(font
						(size 1.27 1.27)
					)
					(hide yes)
				)
			)
			(property "Description" "Microcontroller module in various flavor, generic symbol"
				(at 2.54 -15.24 0)
				(effects
					(font
						(size 1.27 1.27)
					)
					(hide yes)
				)
			)
			(property "ki_keywords" "Adafruit feather microcontroller module"
				(at 0 0 0)
				(effects
					(font
						(size 1.27 1.27)
					)
					(hide yes)
				)
			)
			(property "ki_fp_filters" "Adafruit*Feather*"
				(at 0 0 0)
				(effects
					(font
						(size 1.27 1.27)
					)
					(hide yes)
				)
			)
			(symbol "display_adafruit_tft_1.14_0_1"
				(rectangle
					(start -2.54 22.86)
					(end 3.81 -7.62)
					(stroke
						(width 0.254)
						(type default)
					)
					(fill
						(type background)
					)
				)
			)
			(symbol "display_adafruit_tft_1.14_1_1"
				(pin bidirectional line
					(at -5.08 20.32 0)
					(length 2.54)
					(name "VIN"
						(effects
							(font
								(size 1.27 1.27)
							)
						)
					)
					(number "1"
						(effects
							(font
								(size 1.27 1.27)
							)
						)
					)
				)
				(pin bidirectional line
					(at -5.08 -2.54 0)
					(length 2.54)
					(name "SDCS"
						(effects
							(font
								(size 1.27 1.27)
							)
						)
					)
					(number "10"
						(effects
							(font
								(size 1.27 1.27)
							)
						)
					)
				)
				(pin bidirectional line
					(at -5.08 -5.08 0)
					(length 2.54)
					(name "LIT"
						(effects
							(font
								(size 1.27 1.27)
							)
						)
					)
					(number "11"
						(effects
							(font
								(size 1.27 1.27)
							)
						)
					)
				)
				(pin bidirectional line
					(at -5.08 17.78 0)
					(length 2.54)
					(name "3V3"
						(effects
							(font
								(size 1.27 1.27)
							)
						)
					)
					(number "2"
						(effects
							(font
								(size 1.27 1.27)
							)
						)
					)
				)
				(pin bidirectional line
					(at -5.08 15.24 0)
					(length 2.54)
					(name "GND"
						(effects
							(font
								(size 1.27 1.27)
							)
						)
					)
					(number "3"
						(effects
							(font
								(size 1.27 1.27)
							)
						)
					)
				)
				(pin bidirectional line
					(at -5.08 12.7 0)
					(length 2.54)
					(name "CLK"
						(effects
							(font
								(size 1.27 1.27)
							)
						)
					)
					(number "4"
						(effects
							(font
								(size 1.27 1.27)
							)
						)
					)
				)
				(pin bidirectional line
					(at -5.08 10.16 0)
					(length 2.54)
					(name "MISO"
						(effects
							(font
								(size 1.27 1.27)
							)
						)
					)
					(number "5"
						(effects
							(font
								(size 1.27 1.27)
							)
						)
					)
				)
				(pin bidirectional line
					(at -5.08 7.62 0)
					(length 2.54)
					(name "MOSI"
						(effects
							(font
								(size 1.27 1.27)
							)
						)
					)
					(number "6"
						(effects
							(font
								(size 1.27 1.27)
							)
						)
					)
				)
				(pin bidirectional line
					(at -5.08 5.08 0)
					(length 2.54)
					(name "TFTCS"
						(effects
							(font
								(size 1.27 1.27)
							)
						)
					)
					(number "7"
						(effects
							(font
								(size 1.27 1.27)
							)
						)
					)
				)
				(pin bidirectional line
					(at -5.08 2.54 0)
					(length 2.54)
					(name "RST"
						(effects
							(font
								(size 1.27 1.27)
							)
						)
					)
					(number "8"
						(effects
							(font
								(size 1.27 1.27)
							)
						)
					)
				)
				(pin bidirectional line
					(at -5.08 0 0)
					(length 2.54)
					(name "DC"
						(effects
							(font
								(size 1.27 1.27)
							)
						)
					)
					(number "9"
						(effects
							(font
								(size 1.27 1.27)
							)
						)
					)
				)
			)
		)
		(symbol "lucc:gps_neo6"
			(exclude_from_sim no)
			(in_bom yes)
			(on_board yes)
			(property "Reference" "U"
				(at -10.16 10.16 0)
				(effects
					(font
						(size 1.27 1.27)
					)
					(justify left)
				)
			)
			(property "Value" "gps_neo6"
				(at -4.064 11.43 0)
				(effects
					(font
						(size 1.27 1.27)
					)
					(justify left)
				)
			)
			(property "Footprint" "Package_DFN_QFN:TDFN-8-1EP_3x2mm_P0.5mm_EP1.80x1.65mm"
				(at 0 -15.24 0)
				(effects
					(font
						(size 1.27 1.27)
					)
					(hide yes)
				)
			)
			(property "Datasheet" "https://ww1.microchip.com/downloads/en/DeviceDoc/20005533A.pdf"
				(at 1.524 -18.288 0)
				(effects
					(font
						(size 1.27 1.27)
					)
					(hide yes)
				)
			)
			(property "Description" "CAN FD Transceiver with Silent Mode, up to 8 Mbps, TDFN-8"
				(at 0.762 -21.082 0)
				(effects
					(font
						(size 1.27 1.27)
					)
					(hide yes)
				)
			)
			(property "ki_keywords" "CAN FD Transceiver"
				(at 0 0 0)
				(effects
					(font
						(size 1.27 1.27)
					)
					(hide yes)
				)
			)
			(property "ki_fp_filters" "TDFN*1EP*3x2mm*P0.5mm*"
				(at 0 0 0)
				(effects
					(font
						(size 1.27 1.27)
					)
					(hide yes)
				)
			)
			(symbol "gps_neo6_0_1"
				(rectangle
					(start -2.54 7.62)
					(end 2.54 -5.08)
					(stroke
						(width 0.254)
						(type default)
					)
					(fill
						(type background)
					)
				)
			)
			(symbol "gps_neo6_1_1"
				(pin bidirectional line
					(at 5.08 5.08 180)
					(length 2.54)
					(name "VCC"
						(effects
							(font
								(size 1.27 1.27)
							)
						)
					)
					(number "1"
						(effects
							(font
								(size 1.27 1.27)
							)
						)
					)
				)
				(pin output line
					(at 5.08 2.54 180)
					(length 2.54)
					(name "RXD"
						(effects
							(font
								(size 1.27 1.27)
							)
						)
					)
					(number "2"
						(effects
							(font
								(size 1.27 1.27)
							)
						)
					)
				)
				(pin input line
					(at 5.08 0 180)
					(length 2.54)
					(name "TXD"
						(effects
							(font
								(size 1.27 1.27)
							)
						)
					)
					(number "3"
						(effects
							(font
								(size 1.27 1.27)
							)
						)
					)
				)
				(pin bidirectional line
					(at 5.08 -2.54 180)
					(length 2.54)
					(name "GND"
						(effects
							(font
								(size 1.27 1.27)
							)
						)
					)
					(number "4"
						(effects
							(font
								(size 1.27 1.27)
							)
						)
					)
				)
			)
		)
		(symbol "lucc:grove_a"
			(exclude_from_sim no)
			(in_bom yes)
			(on_board yes)
			(property "Reference" "U"
				(at -10.16 10.16 0)
				(effects
					(font
						(size 1.27 1.27)
					)
					(justify left)
				)
			)
			(property "Value" "grove_a"
				(at -4.064 11.43 0)
				(effects
					(font
						(size 1.27 1.27)
					)
					(justify left)
				)
			)
			(property "Footprint" "Package_DFN_QFN:TDFN-8-1EP_3x2mm_P0.5mm_EP1.80x1.65mm"
				(at 0 -15.24 0)
				(effects
					(font
						(size 1.27 1.27)
					)
					(hide yes)
				)
			)
			(property "Datasheet" "https://ww1.microchip.com/downloads/en/DeviceDoc/20005533A.pdf"
				(at 1.524 -18.288 0)
				(effects
					(font
						(size 1.27 1.27)
					)
					(hide yes)
				)
			)
			(property "Description" "CAN FD Transceiver with Silent Mode, up to 8 Mbps, TDFN-8"
				(at 0.762 -21.082 0)
				(effects
					(font
						(size 1.27 1.27)
					)
					(hide yes)
				)
			)
			(property "ki_keywords" "CAN FD Transceiver"
				(at 0 0 0)
				(effects
					(font
						(size 1.27 1.27)
					)
					(hide yes)
				)
			)
			(property "ki_fp_filters" "TDFN*1EP*3x2mm*P0.5mm*"
				(at 0 0 0)
				(effects
					(font
						(size 1.27 1.27)
					)
					(hide yes)
				)
			)
			(symbol "grove_a_0_1"
				(rectangle
					(start -2.54 7.62)
					(end 2.54 -5.08)
					(stroke
						(width 0.254)
						(type default)
					)
					(fill
						(type background)
					)
				)
			)
			(symbol "grove_a_1_1"
				(pin bidirectional line
					(at 5.08 5.08 180)
					(length 2.54)
					(name "GND"
						(effects
							(font
								(size 1.27 1.27)
							)
						)
					)
					(number "1"
						(effects
							(font
								(size 1.27 1.27)
							)
						)
					)
				)
				(pin output line
					(at 5.08 2.54 180)
					(length 2.54)
					(name "VCC"
						(effects
							(font
								(size 1.27 1.27)
							)
						)
					)
					(number "2"
						(effects
							(font
								(size 1.27 1.27)
							)
						)
					)
				)
				(pin input line
					(at 5.08 0 180)
					(length 2.54)
					(name "SDA"
						(effects
							(font
								(size 1.27 1.27)
							)
						)
					)
					(number "3"
						(effects
							(font
								(size 1.27 1.27)
							)
						)
					)
				)
				(pin bidirectional line
					(at 5.08 -2.54 180)
					(length 2.54)
					(name "SCL"
						(effects
							(font
								(size 1.27 1.27)
							)
						)
					)
					(number "4"
						(effects
							(font
								(size 1.27 1.27)
							)
						)
					)
				)
			)
		)
		(symbol "lucc:itsybitsy_nrf52840_express"
			(exclude_from_sim no)
			(in_bom yes)
			(on_board yes)
			(property "Reference" "A"
				(at -10.16 28.575 0)
				(effects
					(font
						(size 1.27 1.27)
					)
					(justify left bottom)
				)
			)
			(property "Value" "itsybitsy_nrf52840_express"
				(at -5.842 29.718 0)
				(effects
					(font
						(size 1.27 1.27)
					)
					(justify left)
				)
			)
			(property "Footprint" "Module:Adafruit_Feather"
				(at -5.842 27.178 0)
				(effects
					(font
						(size 1.27 1.27)
						(italic yes)
					)
					(justify left)
					(hide yes)
				)
			)
			(property "Datasheet" "https://cdn-learn.adafruit.com/downloads/pdf/adafruit-feather-32u4-bluefruit-le.pdf"
				(at -2.032 -24.638 0)
				(effects
					(font
						(size 1.27 1.27)
					)
					(hide yes)
				)
			)
			(property "Description" "Microcontroller module with ATmega32u4 MCU and bluetooth"
				(at -3.556 -21.844 0)
				(effects
					(font
						(size 1.27 1.27)
					)
					(hide yes)
				)
			)
			(property "ki_keywords" "Adafruit feather microcontroller module USB AVR ATmega32U4  Bluetooth BLE"
				(at 0 0 0)
				(effects
					(font
						(size 1.27 1.27)
					)
					(hide yes)
				)
			)
			(property "ki_fp_filters" "Adafruit*Feather*"
				(at 0 0 0)
				(effects
					(font
						(size 1.27 1.27)
					)
					(hide yes)
				)
			)
			(symbol "itsybitsy_nrf52840_express_0_1"
				(rectangle
					(start -10.16 22.86)
					(end 10.16 -15.24)
					(stroke
						(width 0.254)
						(type default)
					)
					(fill
						(type background)
					)
				)
			)
			(symbol "itsybitsy_nrf52840_express_1_1"
				(pin bidirectional line
					(at -12.7 20.32 0)
					(length 2.54)
					(name "RESET"
						(effects
							(font
								(size 1.27 1.27)
							)
						)
					)
					(number "1"
						(effects
							(font
								(size 1.27 1.27)
							)
						)
					)
				)
				(pin bidirectional line
					(at -12.7 -2.54 0)
					(length 2.54)
					(name "A5"
						(effects
							(font
								(size 1.27 1.27)
							)
						)
					)
					(number "10"
						(effects
							(font
								(size 1.27 1.27)
							)
						)
					)
				)
				(pin bidirectional line
					(at -12.7 -5.08 0)
					(length 2.54)
					(name "SCK"
						(effects
							(font
								(size 1.27 1.27)
							)
						)
					)
					(number "11"
						(effects
							(font
								(size 1.27 1.27)
							)
						)
					)
				)
				(pin bidirectional line
					(at -12.7 -7.62 0)
					(length 2.54)
					(name "M0"
						(effects
							(font
								(size 1.27 1.27)
							)
						)
					)
					(number "12"
						(effects
							(font
								(size 1.27 1.27)
							)
						)
					)
				)
				(pin bidirectional line
					(at -12.7 -10.16 0)
					(length 2.54)
					(name "MI"
						(effects
							(font
								(size 1.27 1.27)
							)
						)
					)
					(number "13"
						(effects
							(font
								(size 1.27 1.27)
							)
						)
					)
				)
				(pin bidirectional line
					(at -12.7 -12.7 0)
					(length 2.54)
					(name "D2"
						(effects
							(font
								(size 1.27 1.27)
							)
						)
					)
					(number "14"
						(effects
							(font
								(size 1.27 1.27)
							)
						)
					)
				)
				(pin bidirectional line
					(at 12.7 -12.7 180)
					(length 2.54)
					(name "RX"
						(effects
							(font
								(size 1.27 1.27)
							)
						)
					)
					(number "15"
						(effects
							(font
								(size 1.27 1.27)
							)
						)
					)
				)
				(pin bidirectional line
					(at 12.7 -10.16 180)
					(length 2.54)
					(name "TX"
						(effects
							(font
								(size 1.27 1.27)
							)
						)
					)
					(number "16"
						(effects
							(font
								(size 1.27 1.27)
							)
						)
					)
				)
				(pin bidirectional line
					(at 12.7 -7.62 180)
					(length 2.54)
					(name "SDA"
						(effects
							(font
								(size 1.27 1.27)
							)
						)
					)
					(number "17"
						(effects
							(font
								(size 1.27 1.27)
							)
						)
					)
				)
				(pin bidirectional line
					(at 12.7 -5.08 180)
					(length 2.54)
					(name "SCL"
						(effects
							(font
								(size 1.27 1.27)
							)
						)
					)
					(number "18"
						(effects
							(font
								(size 1.27 1.27)
							)
						)
					)
				)
				(pin bidirectional line
					(at 12.7 -2.54 180)
					(length 2.54)
					(name "5!"
						(effects
							(font
								(size 1.27 1.27)
							)
						)
					)
					(number "19"
						(effects
							(font
								(size 1.27 1.27)
							)
						)
					)
				)
				(pin bidirectional line
					(at -12.7 17.78 0)
					(length 2.54)
					(name "3V"
						(effects
							(font
								(size 1.27 1.27)
							)
						)
					)
					(number "2"
						(effects
							(font
								(size 1.27 1.27)
							)
						)
					)
				)
				(pin bidirectional line
					(at 12.7 0 180)
					(length 2.54)
					(name "7"
						(effects
							(font
								(size 1.27 1.27)
							)
						)
					)
					(number "20"
						(effects
							(font
								(size 1.27 1.27)
							)
						)
					)
				)
				(pin bidirectional line
					(at 12.7 2.54 180)
					(length 2.54)
					(name "9"
						(effects
							(font
								(size 1.27 1.27)
							)
						)
					)
					(number "21"
						(effects
							(font
								(size 1.27 1.27)
							)
						)
					)
				)
				(pin bidirectional line
					(at 12.7 5.08 180)
					(length 2.54)
					(name "10"
						(effects
							(font
								(size 1.27 1.27)
							)
						)
					)
					(number "22"
						(effects
							(font
								(size 1.27 1.27)
							)
						)
					)
				)
				(pin bidirectional line
					(at 12.7 7.62 180)
					(length 2.54)
					(name "11"
						(effects
							(font
								(size 1.27 1.27)
							)
						)
					)
					(number "23"
						(effects
							(font
								(size 1.27 1.27)
							)
						)
					)
				)
				(pin bidirectional line
					(at 12.7 10.16 180)
					(length 2.54)
					(name "12"
						(effects
							(font
								(size 1.27 1.27)
							)
						)
					)
					(number "24"
						(effects
							(font
								(size 1.27 1.27)
							)
						)
					)
				)
				(pin input line
					(at 12.7 12.7 180)
					(length 2.54)
					(name "13"
						(effects
							(font
								(size 1.27 1.27)
							)
						)
					)
					(number "25"
						(effects
							(font
								(size 1.27 1.27)
							)
						)
					)
				)
				(pin input line
					(at 12.7 15.24 180)
					(length 2.54)
					(name "USB"
						(effects
							(font
								(size 1.27 1.27)
							)
						)
					)
					(number "26"
						(effects
							(font
								(size 1.27 1.27)
							)
						)
					)
				)
				(pin input line
					(at 12.7 17.78 180)
					(length 2.54)
					(name "GND"
						(effects
							(font
								(size 1.27 1.27)
							)
						)
					)
					(number "27"
						(effects
							(font
								(size 1.27 1.27)
							)
						)
					)
				)
				(pin input line
					(at 12.7 20.32 180)
					(length 2.54)
					(name "BAT"
						(effects
							(font
								(size 1.27 1.27)
							)
						)
					)
					(number "28"
						(effects
							(font
								(size 1.27 1.27)
							)
						)
					)
				)
				(pin bidirectional line
					(at -12.7 15.24 0)
					(length 2.54)
					(name "EN"
						(effects
							(font
								(size 1.27 1.27)
							)
						)
					)
					(number "3"
						(effects
							(font
								(size 1.27 1.27)
							)
						)
					)
				)
				(pin bidirectional line
					(at -12.7 12.7 0)
					(length 2.54)
					(name "VHI"
						(effects
							(font
								(size 1.27 1.27)
							)
						)
					)
					(number "4"
						(effects
							(font
								(size 1.27 1.27)
							)
						)
					)
				)
				(pin bidirectional line
					(at -12.7 10.16 0)
					(length 2.54)
					(name "A0"
						(effects
							(font
								(size 1.27 1.27)
							)
						)
					)
					(number "5"
						(effects
							(font
								(size 1.27 1.27)
							)
						)
					)
				)
				(pin bidirectional line
					(at -12.7 7.62 0)
					(length 2.54)
					(name "A1"
						(effects
							(font
								(size 1.27 1.27)
							)
						)
					)
					(number "6"
						(effects
							(font
								(size 1.27 1.27)
							)
						)
					)
				)
				(pin bidirectional line
					(at -12.7 5.08 0)
					(length 2.54)
					(name "A2"
						(effects
							(font
								(size 1.27 1.27)
							)
						)
					)
					(number "7"
						(effects
							(font
								(size 1.27 1.27)
							)
						)
					)
				)
				(pin bidirectional line
					(at -12.7 2.54 0)
					(length 2.54)
					(name "A3"
						(effects
							(font
								(size 1.27 1.27)
							)
						)
					)
					(number "8"
						(effects
							(font
								(size 1.27 1.27)
							)
						)
					)
				)
				(pin bidirectional line
					(at -12.7 0 0)
					(length 2.54)
					(name "A4"
						(effects
							(font
								(size 1.27 1.27)
							)
						)
					)
					(number "9"
						(effects
							(font
								(size 1.27 1.27)
							)
						)
					)
				)
			)
		)
		(symbol "lucc:ssd1306"
			(exclude_from_sim no)
			(in_bom yes)
			(on_board yes)
			(property "Reference" "A"
				(at -10.16 29.21 0)
				(effects
					(font
						(size 1.27 1.27)
					)
					(justify left)
				)
			)
			(property "Value" "ssd1306"
				(at -3.81 27.178 0)
				(effects
					(font
						(size 1.27 1.27)
					)
					(justify left)
				)
			)
			(property "Footprint" "Module:Adafruit_Feather"
				(at -13.208 -11.684 0)
				(effects
					(font
						(size 1.27 1.27)
					)
					(justify left)
					(hide yes)
				)
			)
			(property "Datasheet" "https://cdn-learn.adafruit.com/downloads/pdf/adafruit-feather.pdf"
				(at 0 -20.32 0)
				(effects
					(font
						(size 1.27 1.27)
					)
					(hide yes)
				)
			)
			(property "Description" "Microcontroller module in various flavor, generic symbol"
				(at 0 0 0)
				(effects
					(font
						(size 1.27 1.27)
					)
					(hide yes)
				)
			)
			(property "ki_keywords" "Adafruit feather microcontroller module"
				(at 0 0 0)
				(effects
					(font
						(size 1.27 1.27)
					)
					(hide yes)
				)
			)
			(property "ki_fp_filters" "Adafruit*Feather*"
				(at 0 0 0)
				(effects
					(font
						(size 1.27 1.27)
					)
					(hide yes)
				)
			)
			(symbol "ssd1306_0_1"
				(rectangle
					(start -2.54 22.86)
					(end 3.81 10.16)
					(stroke
						(width 0.254)
						(type default)
					)
					(fill
						(type background)
					)
				)
			)
			(symbol "ssd1306_1_1"
				(pin bidirectional line
					(at -5.08 20.32 0)
					(length 2.54)
					(name "GND"
						(effects
							(font
								(size 1.27 1.27)
							)
						)
					)
					(number "1"
						(effects
							(font
								(size 1.27 1.27)
							)
						)
					)
				)
				(pin bidirectional line
					(at -5.08 17.78 0)
					(length 2.54)
					(name "VCC"
						(effects
							(font
								(size 1.27 1.27)
							)
						)
					)
					(number "2"
						(effects
							(font
								(size 1.27 1.27)
							)
						)
					)
				)
				(pin bidirectional line
					(at -5.08 15.24 0)
					(length 2.54)
					(name "SCL"
						(effects
							(font
								(size 1.27 1.27)
							)
						)
					)
					(number "3"
						(effects
							(font
								(size 1.27 1.27)
							)
						)
					)
				)
				(pin bidirectional line
					(at -5.08 12.7 0)
					(length 2.54)
					(name "SDA"
						(effects
							(font
								(size 1.27 1.27)
							)
						)
					)
					(number "4"
						(effects
							(font
								(size 1.27 1.27)
							)
						)
					)
				)
			)
		)
		(symbol "lucc:sx1262_waveshare_core"
			(exclude_from_sim no)
			(in_bom yes)
			(on_board yes)
			(property "Reference" "A"
				(at -10.16 29.21 0)
				(effects
					(font
						(size 1.27 1.27)
					)
					(justify left)
				)
			)
			(property "Value" "sx1262_waveshare_core"
				(at -10.668 27.686 0)
				(effects
					(font
						(size 1.27 1.27)
					)
					(justify left)
				)
			)
			(property "Footprint" "Module:Adafruit_Feather"
				(at 2.54 -34.29 0)
				(effects
					(font
						(size 1.27 1.27)
					)
					(justify left)
					(hide yes)
				)
			)
			(property "Datasheet" "https://cdn-learn.adafruit.com/downloads/pdf/adafruit-feather.pdf"
				(at 0 -20.32 0)
				(effects
					(font
						(size 1.27 1.27)
					)
					(hide yes)
				)
			)
			(property "Description" "Microcontroller module in various flavor, generic symbol"
				(at 1.016 -7.62 0)
				(effects
					(font
						(size 1.27 1.27)
					)
					(hide yes)
				)
			)
			(property "ki_keywords" "Adafruit feather microcontroller module"
				(at 0 0 0)
				(effects
					(font
						(size 1.27 1.27)
					)
					(hide yes)
				)
			)
			(property "ki_fp_filters" "Adafruit*Feather*"
				(at 0 0 0)
				(effects
					(font
						(size 1.27 1.27)
					)
					(hide yes)
				)
			)
			(symbol "sx1262_waveshare_core_0_1"
				(rectangle
					(start -10.16 22.86)
					(end 10.16 0)
					(stroke
						(width 0.254)
						(type default)
					)
					(fill
						(type background)
					)
				)
			)
			(symbol "sx1262_waveshare_core_1_1"
				(pin bidirectional line
					(at -12.7 20.32 0)
					(length 2.54)
					(name "ANT"
						(effects
							(font
								(size 1.27 1.27)
							)
						)
					)
					(number "1"
						(effects
							(font
								(size 1.27 1.27)
							)
						)
					)
				)
				(pin bidirectional line
					(at 12.7 2.54 180)
					(length 2.54)
					(name "3V3"
						(effects
							(font
								(size 1.27 1.27)
							)
						)
					)
					(number "11"
						(effects
							(font
								(size 1.27 1.27)
							)
						)
					)
				)
				(pin bidirectional line
					(at 12.7 5.08 180)
					(length 2.54)
					(name "GND"
						(effects
							(font
								(size 1.27 1.27)
							)
						)
					)
					(number "12"
						(effects
							(font
								(size 1.27 1.27)
							)
						)
					)
				)
				(pin bidirectional line
					(at 12.7 7.62 180)
					(length 2.54)
					(name "DIO1"
						(effects
							(font
								(size 1.27 1.27)
							)
						)
					)
					(number "13"
						(effects
							(font
								(size 1.27 1.27)
							)
						)
					)
				)
				(pin bidirectional line
					(at 12.7 10.16 180)
					(length 2.54)
					(name "DIO2"
						(effects
							(font
								(size 1.27 1.27)
							)
						)
					)
					(number "14"
						(effects
							(font
								(size 1.27 1.27)
							)
						)
					)
				)
				(pin bidirectional line
					(at 12.7 12.7 180)
					(length 2.54)
					(name "TXEN"
						(effects
							(font
								(size 1.27 1.27)
							)
						)
					)
					(number "15"
						(effects
							(font
								(size 1.27 1.27)
							)
						)
					)
				)
				(pin bidirectional line
					(at 12.7 15.24 180)
					(length 2.54)
					(name "RXEN"
						(effects
							(font
								(size 1.27 1.27)
							)
						)
					)
					(number "16"
						(effects
							(font
								(size 1.27 1.27)
							)
						)
					)
				)
				(pin bidirectional line
					(at 12.7 17.78 180)
					(length 2.54)
					(name "GND"
						(effects
							(font
								(size 1.27 1.27)
							)
						)
					)
					(number "17"
						(effects
							(font
								(size 1.27 1.27)
							)
						)
					)
				)
				(pin bidirectional line
					(at 12.7 20.32 180)
					(length 2.54)
					(name "GND"
						(effects
							(font
								(size 1.27 1.27)
							)
						)
					)
					(number "18"
						(effects
							(font
								(size 1.27 1.27)
							)
						)
					)
				)
				(pin bidirectional line
					(at -12.7 17.78 0)
					(length 2.54)
					(name "GND"
						(effects
							(font
								(size 1.27 1.27)
							)
						)
					)
					(number "2"
						(effects
							(font
								(size 1.27 1.27)
							)
						)
					)
				)
				(pin bidirectional line
					(at -12.7 15.24 0)
					(length 2.54)
					(name "CS"
						(effects
							(font
								(size 1.27 1.27)
							)
						)
					)
					(number "3"
						(effects
							(font
								(size 1.27 1.27)
							)
						)
					)
				)
				(pin bidirectional line
					(at -12.7 12.7 0)
					(length 2.54)
					(name "CLK"
						(effects
							(font
								(size 1.27 1.27)
							)
						)
					)
					(number "4"
						(effects
							(font
								(size 1.27 1.27)
							)
						)
					)
				)
				(pin bidirectional line
					(at -12.7 10.16 0)
					(length 2.54)
					(name "MOSI"
						(effects
							(font
								(size 1.27 1.27)
							)
						)
					)
					(number "5"
						(effects
							(font
								(size 1.27 1.27)
							)
						)
					)
				)
				(pin bidirectional line
					(at -12.7 7.62 0)
					(length 2.54)
					(name "MISO"
						(effects
							(font
								(size 1.27 1.27)
							)
						)
					)
					(number "6"
						(effects
							(font
								(size 1.27 1.27)
							)
						)
					)
				)
				(pin bidirectional line
					(at -12.7 5.08 0)
					(length 2.54)
					(name "RESET"
						(effects
							(font
								(size 1.27 1.27)
							)
						)
					)
					(number "7"
						(effects
							(font
								(size 1.27 1.27)
							)
						)
					)
				)
				(pin bidirectional line
					(at -12.7 2.54 0)
					(length 2.54)
					(name "BUSY"
						(effects
							(font
								(size 1.27 1.27)
							)
						)
					)
					(number "8"
						(effects
							(font
								(size 1.27 1.27)
							)
						)
					)
				)
			)
		)
	)
	(symbol
		(lib_id "lucc:sx1262_waveshare_core")
		(at 52.07 43.18 0)
		(unit 1)
		(exclude_from_sim no)
		(in_bom yes)
		(on_board yes)
		(dnp no)
		(fields_autoplaced yes)
		(uuid "081ef1d4-22b3-4aa0-ac17-71cdf6eeb0f9")
		(property "Reference" "A4"
			(at 52.07 15.24 0)
			(effects
				(font
					(size 1.27 1.27)
				)
			)
		)
		(property "Value" "sx1262_waveshare_core"
			(at 52.07 17.78 0)
			(effects
				(font
					(size 1.27 1.27)
				)
			)
		)
		(property "Footprint" "lucc:sx1262_waveshare_core"
			(at 54.61 77.47 0)
			(effects
				(font
					(size 1.27 1.27)
				)
				(justify left)
				(hide yes)
			)
		)
		(property "Datasheet" "https://cdn-learn.adafruit.com/downloads/pdf/adafruit-feather.pdf"
			(at 52.07 63.5 0)
			(effects
				(font
					(size 1.27 1.27)
				)
				(hide yes)
			)
		)
		(property "Description" "Microcontroller module in various flavor, generic symbol"
			(at 53.086 50.8 0)
			(effects
				(font
					(size 1.27 1.27)
				)
				(hide yes)
			)
		)
		(pin "14"
			(uuid "feadde5d-8fa0-4cc6-b746-a2087ed4a607")
		)
		(pin "17"
			(uuid "f0d0cd24-f4b4-4af1-8bd5-cad6a0a07738")
		)
		(pin "6"
			(uuid "5a7e2355-10dd-4f97-944b-0af2afe56310")
		)
		(pin "16"
			(uuid "bc9cb236-d780-40d7-9d12-dc6ddb4b3cec")
		)
		(pin "15"
			(uuid "314f93e6-9b27-4b84-8236-1e33bcb62aee")
		)
		(pin "4"
			(uuid "0cc27c83-2ea3-4598-b3f0-25bad9b07baf")
		)
		(pin "1"
			(uuid "0bb0c055-bac2-468c-9502-d865570deb3e")
		)
		(pin "11"
			(uuid "18d26b87-85f3-478f-9e9a-2998b7328dcb")
		)
		(pin "7"
			(uuid "1a7478e0-12d7-4c89-9c68-3c1d2692f5b1")
		)
		(pin "3"
			(uuid "141cb1bf-62d3-487d-9fe5-1a0bbcc09c10")
		)
		(pin "2"
			(uuid "4bf7608f-ccca-40c6-8946-7f901d0faaab")
		)
		(pin "8"
			(uuid "c41a1657-027b-451a-90c8-02ec44711f86")
		)
		(pin "12"
			(uuid "22ffbea2-50c5-40c5-b896-f460c04f46ac")
		)
		(pin "5"
			(uuid "76d298eb-3a72-4eb5-9b5d-f0760c94e9b7")
		)
		(pin "18"
			(uuid "14501628-0fb1-449a-85f0-214f97d6544d")
		)
		(pin "13"
			(uuid "c4346cac-6f5e-4d26-978f-f72f66c75a29")
		)
		(instances
			(project "luccioloa"
				(path "/296246b7-c8f5-40d5-a662-7c2cd4332e84"
					(reference "A4")
					(unit 1)
				)
			)
		)
	)
	(symbol
		(lib_id "Switch:SW_Push")
		(at 227.33 74.93 0)
		(unit 1)
		(exclude_from_sim no)
		(in_bom yes)
		(on_board yes)
		(dnp no)
		(fields_autoplaced yes)
		(uuid "0bd17c18-e2e0-4600-aeeb-5efa4b00f4ef")
		(property "Reference" "SW2"
			(at 227.33 67.31 0)
			(effects
				(font
					(size 1.27 1.27)
				)
			)
		)
		(property "Value" "SW_Push"
			(at 227.33 69.85 0)
			(effects
				(font
					(size 1.27 1.27)
				)
			)
		)
		(property "Footprint" "Button_Switch_THT:SW_Tactile_SPST_Angled_PTS645Vx39-2LFS"
			(at 227.33 69.85 0)
			(effects
				(font
					(size 1.27 1.27)
				)
				(hide yes)
			)
		)
		(property "Datasheet" "~"
			(at 227.33 69.85 0)
			(effects
				(font
					(size 1.27 1.27)
				)
				(hide yes)
			)
		)
		(property "Description" "Push button switch, generic, two pins"
			(at 227.33 74.93 0)
			(effects
				(font
					(size 1.27 1.27)
				)
				(hide yes)
			)
		)
		(pin "2"
			(uuid "b09725b9-fbcf-45d6-9117-553a9ed780e9")
		)
		(pin "1"
			(uuid "0da0aff8-0c7b-485a-8156-cb0069b0b8e8")
		)
		(instances
			(project "luccioloa"
				(path "/296246b7-c8f5-40d5-a662-7c2cd4332e84"
					(reference "SW2")
					(unit 1)
				)
			)
		)
	)
	(symbol
		(lib_id "Mechanical:MountingHole")
		(at 137.16 160.02 0)
		(unit 1)
		(exclude_from_sim no)
		(in_bom yes)
		(on_board yes)
		(dnp no)
		(fields_autoplaced yes)
		(uuid "25733929-a692-4f93-8b7f-845750349510")
		(property "Reference" "H3"
			(at 139.7 158.7499 0)
			(effects
				(font
					(size 1.27 1.27)
				)
				(justify left)
			)
		)
		(property "Value" "MountingHole"
			(at 139.7 161.2899 0)
			(effects
				(font
					(size 1.27 1.27)
				)
				(justify left)
			)
		)
		(property "Footprint" "MountingHole:MountingHole_3.2mm_M3"
			(at 137.16 160.02 0)
			(effects
				(font
					(size 1.27 1.27)
				)
				(hide yes)
			)
		)
		(property "Datasheet" "~"
			(at 137.16 160.02 0)
			(effects
				(font
					(size 1.27 1.27)
				)
				(hide yes)
			)
		)
		(property "Description" "Mounting Hole without connection"
			(at 137.16 160.02 0)
			(effects
				(font
					(size 1.27 1.27)
				)
				(hide yes)
			)
		)
		(instances
			(project "luccioloa"
				(path "/296246b7-c8f5-40d5-a662-7c2cd4332e84"
					(reference "H3")
					(unit 1)
				)
			)
		)
	)
	(symbol
		(lib_id "Switch:SW_Push")
		(at 227.33 90.17 0)
		(unit 1)
		(exclude_from_sim no)
		(in_bom yes)
		(on_board yes)
		(dnp no)
		(fields_autoplaced yes)
		(uuid "31cdc229-91bf-4816-b458-671cf1e10bc6")
		(property "Reference" "SW3"
			(at 227.33 82.55 0)
			(effects
				(font
					(size 1.27 1.27)
				)
			)
		)
		(property "Value" "SW_Push"
			(at 227.33 85.09 0)
			(effects
				(font
					(size 1.27 1.27)
				)
			)
		)
		(property "Footprint" "Button_Switch_THT:SW_Tactile_SPST_Angled_PTS645Vx39-2LFS"
			(at 227.33 85.09 0)
			(effects
				(font
					(size 1.27 1.27)
				)
				(hide yes)
			)
		)
		(property "Datasheet" "~"
			(at 227.33 85.09 0)
			(effects
				(font
					(size 1.27 1.27)
				)
				(hide yes)
			)
		)
		(property "Description" "Push button switch, generic, two pins"
			(at 227.33 90.17 0)
			(effects
				(font
					(size 1.27 1.27)
				)
				(hide yes)
			)
		)
		(pin "2"
			(uuid "dece5b07-6f84-4240-b48f-50ef67ad6e74")
		)
		(pin "1"
			(uuid "d51f403d-aa79-4a45-be35-2510376625c5")
		)
		(instances
			(project "luccioloa"
				(path "/296246b7-c8f5-40d5-a662-7c2cd4332e84"
					(reference "SW3")
					(unit 1)
				)
			)
		)
	)
	(symbol
		(lib_id "lucc:ssd1306")
		(at 92.71 46.99 0)
		(unit 1)
		(exclude_from_sim no)
		(in_bom yes)
		(on_board yes)
		(dnp no)
		(uuid "3344702e-34ce-43e9-8d73-e34c13ab14d2")
		(property "Reference" "A3"
			(at 91.948 18.796 0)
			(effects
				(font
					(size 1.27 1.27)
				)
				(justify left)
			)
		)
		(property "Value" "ssd1306"
			(at 89.408 21.59 0)
			(effects
				(font
					(size 1.27 1.27)
				)
				(justify left)
			)
		)
		(property "Footprint" "lucc:ssd1306"
			(at 79.502 58.674 0)
			(effects
				(font
					(size 1.27 1.27)
				)
				(justify left)
				(hide yes)
			)
		)
		(property "Datasheet" "https://cdn-learn.adafruit.com/downloads/pdf/adafruit-feather.pdf"
			(at 92.71 67.31 0)
			(effects
				(font
					(size 1.27 1.27)
				)
				(hide yes)
			)
		)
		(property "Description" "Microcontroller module in various flavor, generic symbol"
			(at 92.71 46.99 0)
			(effects
				(font
					(size 1.27 1.27)
				)
				(hide yes)
			)
		)
		(pin "3"
			(uuid "aaae6aca-9205-4db0-8052-99d3658a3776")
		)
		(pin "2"
			(uuid "0e112070-8823-4025-8400-5e739e523ce0")
		)
		(pin "4"
			(uuid "1874c2c4-f97c-4f32-b45c-8e466f35ebc1")
		)
		(pin "1"
			(uuid "1c7e857d-3562-47e2-9e98-a88b92b00156")
		)
		(instances
			(project "luccioloa"
				(path "/296246b7-c8f5-40d5-a662-7c2cd4332e84"
					(reference "A3")
					(unit 1)
				)
			)
		)
	)
	(symbol
		(lib_id "Connector:Micro_SD_Card")
		(at 60.96 171.45 0)
		(unit 1)
		(exclude_from_sim no)
		(in_bom yes)
		(on_board yes)
		(dnp no)
		(fields_autoplaced yes)
		(uuid "48733f9d-9346-4355-a858-44fa9f95ba7b")
		(property "Reference" "J1"
			(at 61.595 152.4 0)
			(effects
				(font
					(size 1.27 1.27)
				)
			)
		)
		(property "Value" "Micro_SD_Card"
			(at 61.595 154.94 0)
			(effects
				(font
					(size 1.27 1.27)
				)
			)
		)
		(property "Footprint" "lucc:DM3D-SF_outline"
			(at 90.17 163.83 0)
			(effects
				(font
					(size 1.27 1.27)
				)
				(hide yes)
			)
		)
		(property "Datasheet" "http://katalog.we-online.de/em/datasheet/693072010801.pdf"
			(at 60.96 171.45 0)
			(effects
				(font
					(size 1.27 1.27)
				)
				(hide yes)
			)
		)
		(property "Description" "Micro SD Card Socket"
			(at 60.96 171.45 0)
			(effects
				(font
					(size 1.27 1.27)
				)
				(hide yes)
			)
		)
		(pin "1"
			(uuid "23c3876a-b5ad-4968-a2be-580e2b600b31")
		)
		(pin "4"
			(uuid "631f692d-4226-42e3-a1db-b01fa4f9bbf8")
		)
		(pin "2"
			(uuid "bfbf4a98-ba65-4efe-ba91-5735ad3fe0b7")
		)
		(pin "3"
			(uuid "e060bfcc-ec02-4d95-9451-beacd3110362")
		)
		(pin "7"
			(uuid "fa61556e-1a9a-4a3e-809a-1864a59ac68f")
		)
		(pin "8"
			(uuid "341c2308-2957-4757-850a-597ae7675304")
		)
		(pin "9"
			(uuid "c169c821-d6a8-41ad-acb2-557e4b85ada2")
		)
		(pin "5"
			(uuid "3175614d-d0b8-43f8-9e12-11bad6043c07")
		)
		(pin "6"
			(uuid "d01a2bae-d5c2-4ee1-8c47-a61e567f505b")
		)
		(instances
			(project "luccioloa"
				(path "/296246b7-c8f5-40d5-a662-7c2cd4332e84"
					(reference "J1")
					(unit 1)
				)
			)
		)
	)
	(symbol
		(lib_id "Switch:SW_Push")
		(at 227.33 60.96 0)
		(unit 1)
		(exclude_from_sim no)
		(in_bom yes)
		(on_board yes)
		(dnp no)
		(fields_autoplaced yes)
		(uuid "6398278f-c10a-4608-8cdf-26f60dfc857f")
		(property "Reference" "SW1"
			(at 227.33 53.34 0)
			(effects
				(font
					(size 1.27 1.27)
				)
			)
		)
		(property "Value" "SW_Push"
			(at 227.33 55.88 0)
			(effects
				(font
					(size 1.27 1.27)
				)
			)
		)
		(property "Footprint" "Button_Switch_THT:SW_Tactile_SPST_Angled_PTS645Vx39-2LFS"
			(at 227.33 55.88 0)
			(effects
				(font
					(size 1.27 1.27)
				)
				(hide yes)
			)
		)
		(property "Datasheet" "~"
			(at 227.33 55.88 0)
			(effects
				(font
					(size 1.27 1.27)
				)
				(hide yes)
			)
		)
		(property "Description" "Push button switch, generic, two pins"
			(at 227.33 60.96 0)
			(effects
				(font
					(size 1.27 1.27)
				)
				(hide yes)
			)
		)
		(pin "2"
			(uuid "6d8c00c2-f922-4703-afb1-682f0ba4a295")
		)
		(pin "1"
			(uuid "f3fb69a2-26da-49c3-aa07-3ad7e4c6bfad")
		)
		(instances
			(project "luccioloa"
				(path "/296246b7-c8f5-40d5-a662-7c2cd4332e84"
					(reference "SW1")
					(unit 1)
				)
			)
		)
	)
	(symbol
		(lib_id "MCU_Module:Adafruit_Feather_M0_Basic_Proto")
		(at 191.77 83.82 0)
		(unit 1)
		(exclude_from_sim no)
		(in_bom yes)
		(on_board yes)
		(dnp no)
		(fields_autoplaced yes)
		(uuid "69cebca9-4cf5-4bf5-958f-e987518cbdd7")
		(property "Reference" "A7"
			(at 193.9641 116.84 0)
			(effects
				(font
					(size 1.27 1.27)
				)
				(justify left)
			)
		)
		(property "Value" "Adafruit_Feather_M0_Basic_Proto"
			(at 193.9641 119.38 0)
			(effects
				(font
					(size 1.27 1.27)
				)
				(justify left)
			)
		)
		(property "Footprint" "Module:Adafruit_Feather"
			(at 194.31 118.11 0)
			(effects
				(font
					(size 1.27 1.27)
				)
				(justify left)
				(hide yes)
			)
		)
		(property "Datasheet" "https://cdn-learn.adafruit.com/downloads/pdf/adafruit-feather-m0-basic-proto.pdf"
			(at 191.77 114.3 0)
			(effects
				(font
					(size 1.27 1.27)
				)
				(hide yes)
			)
		)
		(property "Description" "Microcontroller module with SAMD21 Cortex-M0 MCU"
			(at 191.77 83.82 0)
			(effects
				(font
					(size 1.27 1.27)
				)
				(hide yes)
			)
		)
		(pin "25"
			(uuid "6fc25c22-41c1-4b14-910c-05d1ea469951")
		)
		(pin "18"
			(uuid "5ef6a13e-1027-4946-9705-323b0b577b2a")
		)
		(pin "20"
			(uuid "3d1bc5f0-5463-42f7-bbac-60cb3119255f")
		)
		(pin "4"
			(uuid "d2cf9ab6-9d01-46fb-a2f0-9209cc8070e7")
		)
		(pin "28"
			(uuid "f2390298-ed43-4519-9cb5-3baa956b4dd3")
		)
		(pin "7"
			(uuid "ada1cc9d-87d2-4980-b93e-78aa7248c761")
		)
		(pin "11"
			(uuid "fa393926-b4f3-40fc-83b2-2b59e1111f2e")
		)
		(pin "12"
			(uuid "16cc28ec-0b66-4998-a2b4-106f7cc6a0b8")
		)
		(pin "13"
			(uuid "97a04220-24e4-4bb4-a9a7-1582e63b250a")
		)
		(pin "6"
			(uuid "9c6d2a29-4755-485d-a758-565eb2f8f389")
		)
		(pin "2"
			(uuid "c32947ca-10f4-4c0c-99b3-9eed1ef91df2")
		)
		(pin "14"
			(uuid "7925c6c8-63cc-4a16-bc7b-470f47d3587e")
		)
		(pin "10"
			(uuid "f28bc972-9e81-4be3-96ba-50f0cd03afbb")
		)
		(pin "26"
			(uuid "593f1952-47f2-4998-bd22-6829de6aaf5b")
		)
		(pin "8"
			(uuid "05d648a9-8853-4df4-92c4-9d067311ca0a")
		)
		(pin "5"
			(uuid "8e5abb03-91fa-4bde-8fae-29541204f910")
		)
		(pin "16"
			(uuid "be3de231-eae5-4f9b-adc8-ac106a1dd004")
		)
		(pin "1"
			(uuid "45921ac4-6535-4bc5-aad7-018224b2fab9")
		)
		(pin "9"
			(uuid "bea64085-1c35-45b9-b03c-d7884c22bdd4")
		)
		(pin "15"
			(uuid "d0ff0e91-3622-4ddd-89df-698bb28c5691")
		)
		(pin "24"
			(uuid "6664fc30-a075-4141-9f57-e7c5bbb98ee1")
		)
		(pin "19"
			(uuid "adfdc52b-d8a4-4651-8c6e-ea264143dfcd")
		)
		(pin "3"
			(uuid "ba4319c5-c2ee-425f-82a8-9db8a98507f4")
		)
		(pin "27"
			(uuid "96cdd008-f667-45f8-95ef-715e7a778125")
		)
		(pin "22"
			(uuid "3fba8df0-cdd9-4701-bbc4-3af66e90f78e")
		)
		(pin "21"
			(uuid "0123ad75-00c2-4be6-8693-9d28fe3fb78b")
		)
		(pin "23"
			(uuid "4a67c65e-62ef-482d-bef8-242412097e45")
		)
		(pin "17"
			(uuid "1d8e1969-1d7f-46de-946c-aa37f5ecccc1")
		)
		(instances
			(project "luccioloa"
				(path "/296246b7-c8f5-40d5-a662-7c2cd4332e84"
					(reference "A7")
					(unit 1)
				)
			)
		)
	)
	(symbol
		(lib_id "Connector:Conn_Coaxial")
		(at 44.45 105.41 0)
		(unit 1)
		(exclude_from_sim no)
		(in_bom yes)
		(on_board yes)
		(dnp no)
		(fields_autoplaced yes)
		(uuid "6da6a2ad-0550-49ba-bc9d-0e1ab259f90b")
		(property "Reference" "J2"
			(at 48.26 104.4331 0)
			(effects
				(font
					(size 1.27 1.27)
				)
				(justify left)
			)
		)
		(property "Value" "Conn_Coaxial"
			(at 48.26 106.9731 0)
			(effects
				(font
					(size 1.27 1.27)
				)
				(justify left)
			)
		)
		(property "Footprint" "Connector_Coaxial:SMA_Amphenol_132134_Vertical"
			(at 44.45 105.41 0)
			(effects
				(font
					(size 1.27 1.27)
				)
				(hide yes)
			)
		)
		(property "Datasheet" " ~"
			(at 44.45 105.41 0)
			(effects
				(font
					(size 1.27 1.27)
				)
				(hide yes)
			)
		)
		(property "Description" "coaxial connector (BNC, SMA, SMB, SMC, Cinch/RCA, LEMO, ...)"
			(at 44.45 105.41 0)
			(effects
				(font
					(size 1.27 1.27)
				)
				(hide yes)
			)
		)
		(pin "2"
			(uuid "6390620d-c77d-4962-815c-eb2c9b8face7")
		)
		(pin "1"
			(uuid "0becfb50-c603-4ab4-a753-d878fd25cca1")
		)
		(instances
			(project "luccioloa"
				(path "/296246b7-c8f5-40d5-a662-7c2cd4332e84"
					(reference "J2")
					(unit 1)
				)
			)
		)
	)
	(symbol
		(lib_id "lucc:grove_a")
		(at 27.94 58.42 0)
		(unit 1)
		(exclude_from_sim no)
		(in_bom yes)
		(on_board yes)
		(dnp no)
		(fields_autoplaced yes)
		(uuid "6f60813a-fd09-4cb0-af60-b6faf69fae79")
		(property "Reference" "U3"
			(at 27.94 45.72 0)
			(effects
				(font
					(size 1.27 1.27)
				)
			)
		)
		(property "Value" "grove_a"
			(at 27.94 48.26 0)
			(effects
				(font
					(size 1.27 1.27)
				)
			)
		)
		(property "Footprint" "lucc:grove_a"
			(at 27.94 73.66 0)
			(effects
				(font
					(size 1.27 1.27)
				)
				(hide yes)
			)
		)
		(property "Datasheet" "https://ww1.microchip.com/downloads/en/DeviceDoc/20005533A.pdf"
			(at 29.464 76.708 0)
			(effects
				(font
					(size 1.27 1.27)
				)
				(hide yes)
			)
		)
		(property "Description" "CAN FD Transceiver with Silent Mode, up to 8 Mbps, TDFN-8"
			(at 28.702 79.502 0)
			(effects
				(font
					(size 1.27 1.27)
				)
				(hide yes)
			)
		)
		(pin "1"
			(uuid "643d4a7e-01a2-482e-802a-409091d3a8d2")
		)
		(pin "2"
			(uuid "0a362d74-2367-464f-a422-c3bcacd8001f")
		)
		(pin "3"
			(uuid "01d8217f-b812-471e-b894-2a34d0bfa5ec")
		)
		(pin "4"
			(uuid "b077bb78-3278-4013-95bf-d47c599187ce")
		)
		(instances
			(project "luccioloa"
				(path "/296246b7-c8f5-40d5-a662-7c2cd4332e84"
					(reference "U3")
					(unit 1)
				)
			)
		)
	)
	(symbol
		(lib_id "lucc:display_adafruit_sharp")
		(at 121.92 109.22 0)
		(unit 1)
		(exclude_from_sim no)
		(in_bom yes)
		(on_board yes)
		(dnp no)
		(fields_autoplaced yes)
		(uuid "7c2aba8b-1cf2-41a5-899f-cdc5ae16dd1b")
		(property "Reference" "A2"
			(at 127 97.7899 0)
			(effects
				(font
					(size 1.27 1.27)
				)
				(justify left)
			)
		)
		(property "Value" "display_adafruit_sharp"
			(at 127 100.3299 0)
			(effects
				(font
					(size 1.27 1.27)
				)
				(justify left)
			)
		)
		(property "Footprint" "lucc:display_adafruit_sharp_large_and_small_noholes"
			(at 108.712 120.904 0)
			(effects
				(font
					(size 1.27 1.27)
				)
				(justify left)
				(hide yes)
			)
		)
		(property "Datasheet" "https://cdn-learn.adafruit.com/downloads/pdf/adafruit-feather.pdf"
			(at 121.92 129.54 0)
			(effects
				(font
					(size 1.27 1.27)
				)
				(hide yes)
			)
		)
		(property "Description" "Microcontroller module in various flavor, generic symbol"
			(at 121.92 109.22 0)
			(effects
				(font
					(size 1.27 1.27)
				)
				(hide yes)
			)
		)
		(pin "1"
			(uuid "9df778e1-5f8e-40e2-b6a9-44dd65ea08a8")
		)
		(pin "5"
			(uuid "7ea55030-35dc-4edf-81f6-0a44ad3f6dbd")
		)
		(pin "3"
			(uuid "e5e52830-adf8-4cba-b7aa-f86e0209f1c6")
		)
		(pin "9"
			(uuid "15d85389-d705-4071-bbfb-8f6142f585cb")
		)
		(pin "8"
			(uuid "748ba928-6885-494a-8d25-58494858b236")
		)
		(pin "2"
			(uuid "1e4526ef-8649-46f5-90a8-cb9cd5f6f958")
		)
		(pin "7"
			(uuid "f1191d49-f84f-4d2d-818f-98d1cec2e578")
		)
		(pin "6"
			(uuid "9f99f9fe-f098-43d5-82ec-61481d543b34")
		)
		(pin "4"
			(uuid "157b5a0f-3a35-4873-8243-fa3be56816c0")
		)
		(instances
			(project "luccioloa"
				(path "/296246b7-c8f5-40d5-a662-7c2cd4332e84"
					(reference "A2")
					(unit 1)
				)
			)
		)
	)
	(symbol
		(lib_id "lucc:ssd1306")
		(at 111.76 46.99 0)
		(unit 1)
		(exclude_from_sim no)
		(in_bom yes)
		(on_board yes)
		(dnp no)
		(uuid "91f9de1c-718f-4e83-9988-d3ddead5bff1")
		(property "Reference" "A5"
			(at 110.998 18.796 0)
			(effects
				(font
					(size 1.27 1.27)
				)
				(justify left)
			)
		)
		(property "Value" "ssd1306"
			(at 108.458 21.59 0)
			(effects
				(font
					(size 1.27 1.27)
				)
				(justify left)
			)
		)
		(property "Footprint" "lucc:ssd1306"
			(at 98.552 58.674 0)
			(effects
				(font
					(size 1.27 1.27)
				)
				(justify left)
				(hide yes)
			)
		)
		(property "Datasheet" "https://cdn-learn.adafruit.com/downloads/pdf/adafruit-feather.pdf"
			(at 111.76 67.31 0)
			(effects
				(font
					(size 1.27 1.27)
				)
				(hide yes)
			)
		)
		(property "Description" "Microcontroller module in various flavor, generic symbol"
			(at 111.76 46.99 0)
			(effects
				(font
					(size 1.27 1.27)
				)
				(hide yes)
			)
		)
		(pin "3"
			(uuid "ee8e7d9e-b5fc-435b-afc5-98529ab54b17")
		)
		(pin "2"
			(uuid "1891de15-f7fd-4833-9ce6-80c49dc9ba55")
		)
		(pin "4"
			(uuid "d369b260-6b16-4a0c-9c12-d72f54ee88c2")
		)
		(pin "1"
			(uuid "c9fa3d5a-eecb-4264-bc93-e695b2e4868a")
		)
		(instances
			(project "luccioloa"
				(path "/296246b7-c8f5-40d5-a662-7c2cd4332e84"
					(reference "A5")
					(unit 1)
				)
			)
		)
	)
	(symbol
		(lib_id "lucc:compass_lsm303agr_adafruit")
		(at 201.93 19.05 0)
		(unit 1)
		(exclude_from_sim no)
		(in_bom yes)
		(on_board yes)
		(dnp no)
		(fields_autoplaced yes)
		(uuid "a2429070-9fdd-4ec9-8ffc-e04c2243f65f")
		(property "Reference" "U2"
			(at 197.485 19.05 0)
			(effects
				(font
					(size 1.27 1.27)
				)
			)
		)
		(property "Value" "compass_lsm303agr_adafruit"
			(at 197.485 21.59 0)
			(effects
				(font
					(size 1.27 1.27)
				)
			)
		)
		(property "Footprint" "lucc:compass_adafruit_lsm303agr"
			(at 202.438 58.42 0)
			(effects
				(font
					(size 1.27 1.27)
				)
				(hide yes)
			)
		)
		(property "Datasheet" "https://ww1.microchip.com/downloads/en/DeviceDoc/20005533A.pdf"
			(at 203.962 61.468 0)
			(effects
				(font
					(size 1.27 1.27)
				)
				(hide yes)
			)
		)
		(property "Description" "CAN FD Transceiver with Silent Mode, up to 8 Mbps, TDFN-8"
			(at 203.2 64.262 0)
			(effects
				(font
					(size 1.27 1.27)
				)
				(hide yes)
			)
		)
		(pin "8"
			(uuid "feaec97b-5be8-45a4-952b-e93b13a2e987")
		)
		(pin "4"
			(uuid "21c2d9e8-84f0-4ede-8862-1e9f366b48cd")
		)
		(pin "6"
			(uuid "b9fe4631-0d00-486c-9f8e-1d80d0b6d18f")
		)
		(pin "7"
			(uuid "4cf5fbef-4f24-4042-81e7-34b6241abf4b")
		)
		(pin "3"
			(uuid "dd0d5569-39d0-46ae-9703-597ce9d2c5ec")
		)
		(pin "5"
			(uuid "d52f6ac0-dd85-4ba5-b7f8-088db8b4fa4c")
		)
		(pin "9"
			(uuid "d2c9254f-3820-41f2-a343-2831b779791a")
		)
		(pin "1"
			(uuid "74e9deac-979c-43e6-a124-86fe95a52296")
		)
		(pin "2"
			(uuid "bd423694-81fb-4526-87cb-a105d74f9f63")
		)
		(pin "10"
			(uuid "b599afd3-9f5f-48de-a206-585f407b30a6")
		)
		(instances
			(project "luccioloa"
				(path "/296246b7-c8f5-40d5-a662-7c2cd4332e84"
					(reference "U2")
					(unit 1)
				)
			)
		)
	)
	(symbol
		(lib_id "Mechanical:MountingHole")
		(at 134.62 142.24 0)
		(unit 1)
		(exclude_from_sim no)
		(in_bom yes)
		(on_board yes)
		(dnp no)
		(fields_autoplaced yes)
		(uuid "a364cd8e-7b11-46e9-b144-4fb82d99f1d4")
		(property "Reference" "H1"
			(at 137.16 140.9699 0)
			(effects
				(font
					(size 1.27 1.27)
				)
				(justify left)
			)
		)
		(property "Value" "MountingHole"
			(at 137.16 143.5099 0)
			(effects
				(font
					(size 1.27 1.27)
				)
				(justify left)
			)
		)
		(property "Footprint" "MountingHole:MountingHole_3.2mm_M3"
			(at 134.62 142.24 0)
			(effects
				(font
					(size 1.27 1.27)
				)
				(hide yes)
			)
		)
		(property "Datasheet" "~"
			(at 134.62 142.24 0)
			(effects
				(font
					(size 1.27 1.27)
				)
				(hide yes)
			)
		)
		(property "Description" "Mounting Hole without connection"
			(at 134.62 142.24 0)
			(effects
				(font
					(size 1.27 1.27)
				)
				(hide yes)
			)
		)
		(instances
			(project "luccioloa"
				(path "/296246b7-c8f5-40d5-a662-7c2cd4332e84"
					(reference "H1")
					(unit 1)
				)
			)
		)
	)
	(symbol
		(lib_id "Connector:Conn_01x03_Female")
		(at 256.54 109.22 0)
		(unit 1)
		(exclude_from_sim no)
		(in_bom yes)
		(on_board yes)
		(dnp no)
		(fields_autoplaced yes)
		(uuid "b82e37e9-efe7-4c28-9fb0-9cdb5b138972")
		(property "Reference" "J3"
			(at 257.81 107.9499 0)
			(effects
				(font
					(size 1.27 1.27)
				)
				(justify left)
			)
		)
		(property "Value" "Conn_01x03_Female"
			(at 257.81 110.4899 0)
			(effects
				(font
					(size 1.27 1.27)
				)
				(justify left)
			)
		)
		(property "Footprint" "Connector_PinSocket_2.54mm:PinSocket_1x03_P2.54mm_Vertical"
			(at 256.54 109.22 0)
			(effects
				(font
					(size 1.27 1.27)
				)
				(hide yes)
			)
		)
		(property "Datasheet" "~"
			(at 256.54 109.22 0)
			(effects
				(font
					(size 1.27 1.27)
				)
				(hide yes)
			)
		)
		(property "Description" "Generic connector, single row, 01x03, script generated (kicad-library-utils/schlib/autogen/connector/)"
			(at 256.54 109.22 0)
			(effects
				(font
					(size 1.27 1.27)
				)
				(hide yes)
			)
		)
		(pin "2"
			(uuid "192425c3-769b-44c1-8043-53e8234a76e6")
		)
		(pin "3"
			(uuid "fca0cfba-7e16-4c25-9a21-0a7184e7c721")
		)
		(pin "1"
			(uuid "c3cd441f-35ef-4c9c-b7d6-5b0fe04de8eb")
		)
		(instances
			(project "luccioloa"
				(path "/296246b7-c8f5-40d5-a662-7c2cd4332e84"
					(reference "J3")
					(unit 1)
				)
			)
		)
	)
	(symbol
		(lib_id "lucc:gps_neo6")
		(at 144.78 34.29 0)
		(unit 1)
		(exclude_from_sim no)
		(in_bom yes)
		(on_board yes)
		(dnp no)
		(fields_autoplaced yes)
		(uuid "ca5ababd-4a54-4e63-99cc-2ab08b47bcbe")
		(property "Reference" "U1"
			(at 144.78 21.59 0)
			(effects
				(font
					(size 1.27 1.27)
				)
			)
		)
		(property "Value" "gps_neo6"
			(at 144.78 24.13 0)
			(effects
				(font
					(size 1.27 1.27)
				)
			)
		)
		(property "Footprint" "lucc:GPS_neo6_blue_3"
			(at 144.78 49.53 0)
			(effects
				(font
					(size 1.27 1.27)
				)
				(hide yes)
			)
		)
		(property "Datasheet" "https://ww1.microchip.com/downloads/en/DeviceDoc/20005533A.pdf"
			(at 146.304 52.578 0)
			(effects
				(font
					(size 1.27 1.27)
				)
				(hide yes)
			)
		)
		(property "Description" "CAN FD Transceiver with Silent Mode, up to 8 Mbps, TDFN-8"
			(at 145.542 55.372 0)
			(effects
				(font
					(size 1.27 1.27)
				)
				(hide yes)
			)
		)
		(pin "1"
			(uuid "4fc359f2-84e3-495a-8e92-a0672352ceba")
		)
		(pin "2"
			(uuid "ac65baf9-b95a-4dd0-a3a2-3a9f3c1fdff9")
		)
		(pin "4"
			(uuid "9300069b-969e-4795-9f2e-e314ecfcb52a")
		)
		(pin "3"
			(uuid "69c94550-fc9f-40f7-b417-312d60a2da83")
		)
		(instances
			(project "luccioloa"
				(path "/296246b7-c8f5-40d5-a662-7c2cd4332e84"
					(reference "U1")
					(unit 1)
				)
			)
		)
	)
	(symbol
		(lib_id "Mechanical:MountingHole")
		(at 137.16 170.18 0)
		(unit 1)
		(exclude_from_sim no)
		(in_bom yes)
		(on_board yes)
		(dnp no)
		(fields_autoplaced yes)
		(uuid "cbc6e74d-3454-4193-8696-232ea34735d5")
		(property "Reference" "H4"
			(at 139.7 168.9099 0)
			(effects
				(font
					(size 1.27 1.27)
				)
				(justify left)
			)
		)
		(property "Value" "MountingHole"
			(at 139.7 171.4499 0)
			(effects
				(font
					(size 1.27 1.27)
				)
				(justify left)
			)
		)
		(property "Footprint" "MountingHole:MountingHole_3.2mm_M3"
			(at 137.16 170.18 0)
			(effects
				(font
					(size 1.27 1.27)
				)
				(hide yes)
			)
		)
		(property "Datasheet" "~"
			(at 137.16 170.18 0)
			(effects
				(font
					(size 1.27 1.27)
				)
				(hide yes)
			)
		)
		(property "Description" "Mounting Hole without connection"
			(at 137.16 170.18 0)
			(effects
				(font
					(size 1.27 1.27)
				)
				(hide yes)
			)
		)
		(instances
			(project "luccioloa"
				(path "/296246b7-c8f5-40d5-a662-7c2cd4332e84"
					(reference "H4")
					(unit 1)
				)
			)
		)
	)
	(symbol
		(lib_id "lucc:itsybitsy_nrf52840_express")
		(at 86.36 80.01 0)
		(unit 1)
		(exclude_from_sim no)
		(in_bom yes)
		(on_board yes)
		(dnp no)
		(fields_autoplaced yes)
		(uuid "d1153aa5-3bed-4790-8e13-e2ef909a78ec")
		(property "Reference" "A1"
			(at 86.36 52.07 0)
			(effects
				(font
					(size 1.27 1.27)
				)
			)
		)
		(property "Value" "itsybitsy_nrf52840_express"
			(at 86.36 54.61 0)
			(effects
				(font
					(size 1.27 1.27)
				)
			)
		)
		(property "Footprint" "lucc:itsybitsy"
			(at 80.518 52.832 0)
			(effects
				(font
					(size 1.27 1.27)
					(italic yes)
				)
				(justify left)
				(hide yes)
			)
		)
		(property "Datasheet" "https://cdn-learn.adafruit.com/downloads/pdf/adafruit-feather-32u4-bluefruit-le.pdf"
			(at 84.328 104.648 0)
			(effects
				(font
					(size 1.27 1.27)
				)
				(hide yes)
			)
		)
		(property "Description" "Microcontroller module with ATmega32u4 MCU and bluetooth"
			(at 82.804 101.854 0)
			(effects
				(font
					(size 1.27 1.27)
				)
				(hide yes)
			)
		)
		(pin "1"
			(uuid "8b6de814-349f-4d65-bf36-46b798f511e4")
		)
		(pin "9"
			(uuid "2575219c-fb09-4fc9-ae0d-9606448a1505")
		)
		(pin "8"
			(uuid "f36091e6-c9a4-43b0-b611-fd53214d2c75")
		)
		(pin "7"
			(uuid "e423b3e6-cc86-46b8-a875-35a3d3db7464")
		)
		(pin "2"
			(uuid "a17d9539-83c9-43dd-9480-45fc41ea462e")
		)
		(pin "28"
			(uuid "7d9891ef-0b07-4631-90ad-aeedee19c1c7")
		)
		(pin "16"
			(uuid "357667e9-5486-4930-8d08-0bc262ba842f")
		)
		(pin "24"
			(uuid "4ef76878-6b58-4ee4-ba7d-798adb4853d4")
		)
		(pin "23"
			(uuid "a9d028f6-c2df-49c0-8148-57a62032426c")
		)
		(pin "25"
			(uuid "dc6adb09-c7a7-496f-a6b2-6b57d940bf86")
		)
		(pin "20"
			(uuid "5635335a-c7d7-4acb-8041-c9a98160f8eb")
		)
		(pin "5"
			(uuid "722d910f-218d-44aa-9265-b3c9a64fdc16")
		)
		(pin "26"
			(uuid "34d23db2-d5d6-475f-a1d1-cc4740d86ac4")
		)
		(pin "3"
			(uuid "971bd574-7b86-492d-9a71-87868cc4b3e0")
		)
		(pin "18"
			(uuid "884f18c7-ad74-4929-8474-e0c1242cd461")
		)
		(pin "6"
			(uuid "f3272cb1-14c7-435c-a9ad-b40d70ada878")
		)
		(pin "19"
			(uuid "d30c55a4-4ccd-42de-be6f-cb1a0a11a528")
		)
		(pin "27"
			(uuid "2afc1f2b-6b24-48bb-a61e-490f20feeb28")
		)
		(pin "21"
			(uuid "25ca816a-b9b0-411c-803d-e1ec4e9d7840")
		)
		(pin "17"
			(uuid "1d51b0d4-ff55-4694-bbd4-2addd7ecde1a")
		)
		(pin "12"
			(uuid "e6020718-201d-409a-a8a9-2b77870cff41")
		)
		(pin "13"
			(uuid "ebb377f6-0f11-4064-b891-27a24614435f")
		)
		(pin "10"
			(uuid "ab5ece4b-172d-4e61-8086-77061f94ada8")
		)
		(pin "11"
			(uuid "0ba24be4-71f2-4a51-8aa0-9bd84a5b58b0")
		)
		(pin "15"
			(uuid "a28ce381-a032-4c14-9d21-6ba91551760f")
		)
		(pin "14"
			(uuid "f4df822a-da96-4115-ac0b-b90b3ed18269")
		)
		(pin "22"
			(uuid "7a7a9506-3e2e-49aa-a29e-fcde059b6b0c")
		)
		(pin "4"
			(uuid "983ac7f1-3118-479b-a45e-325c630c0e93")
		)
		(instances
			(project "luccioloa"
				(path "/296246b7-c8f5-40d5-a662-7c2cd4332e84"
					(reference "A1")
					(unit 1)
				)
			)
		)
	)
	(symbol
		(lib_id "lucc:display_adafruit_tft_1.14")
		(at 82.55 128.27 0)
		(unit 1)
		(exclude_from_sim no)
		(in_bom yes)
		(on_board yes)
		(dnp no)
		(fields_autoplaced yes)
		(uuid "dcf40a74-89ba-41c4-a9e1-b79ce1dc29d6")
		(property "Reference" "A6"
			(at 87.63 119.3799 0)
			(effects
				(font
					(size 1.27 1.27)
				)
				(justify left)
			)
		)
		(property "Value" "display_adafruit_tft_1.14"
			(at 87.63 121.9199 0)
			(effects
				(font
					(size 1.27 1.27)
				)
				(justify left)
			)
		)
		(property "Footprint" "lucc:display_adafruit_1.14_noholes"
			(at 69.342 139.954 0)
			(effects
				(font
					(size 1.27 1.27)
				)
				(justify left)
				(hide yes)
			)
		)
		(property "Datasheet" "https://cdn-learn.adafruit.com/downloads/pdf/adafruit-feather.pdf"
			(at 82.55 148.59 0)
			(effects
				(font
					(size 1.27 1.27)
				)
				(hide yes)
			)
		)
		(property "Description" "Microcontroller module in various flavor, generic symbol"
			(at 85.09 143.51 0)
			(effects
				(font
					(size 1.27 1.27)
				)
				(hide yes)
			)
		)
		(pin "7"
			(uuid "d1cf39a1-e44b-4929-9737-00fc255b12d6")
		)
		(pin "8"
			(uuid "cfc94494-0ee1-41c2-90d4-8bd52942db80")
		)
		(pin "3"
			(uuid "3de0491f-e85a-4c75-8638-9e0b398c207d")
		)
		(pin "9"
			(uuid "29c0d750-4a67-4324-80cc-95a1d9240a15")
		)
		(pin "4"
			(uuid "261d2677-0f0f-42be-ac78-acef9425edd5")
		)
		(pin "10"
			(uuid "0d587f73-9623-4be2-ba90-e80e954d6d04")
		)
		(pin "6"
			(uuid "2a0d3e6e-dc7b-44c8-832a-3af034370c65")
		)
		(pin "11"
			(uuid "21ddd798-b2d5-4c9e-9dbe-edf008c042fc")
		)
		(pin "5"
			(uuid "112a4604-c6c5-4797-8980-d732bfd68c1e")
		)
		(pin "1"
			(uuid "07be2a89-1c67-42a6-b5f3-8b1a9569dee2")
		)
		(pin "2"
			(uuid "e6881f3c-d2b4-4c04-ae4f-3720842fecc1")
		)
		(instances
			(project "luccioloa"
				(path "/296246b7-c8f5-40d5-a662-7c2cd4332e84"
					(reference "A6")
					(unit 1)
				)
			)
		)
	)
	(symbol
		(lib_id "Mechanical:MountingHole")
		(at 133.35 149.86 0)
		(unit 1)
		(exclude_from_sim no)
		(in_bom yes)
		(on_board yes)
		(dnp no)
		(fields_autoplaced yes)
		(uuid "e7758f88-4523-4aec-b059-d2750fb32b0e")
		(property "Reference" "H2"
			(at 135.89 148.5899 0)
			(effects
				(font
					(size 1.27 1.27)
				)
				(justify left)
			)
		)
		(property "Value" "MountingHole"
			(at 135.89 151.1299 0)
			(effects
				(font
					(size 1.27 1.27)
				)
				(justify left)
			)
		)
		(property "Footprint" "MountingHole:MountingHole_3.2mm_M3"
			(at 133.35 149.86 0)
			(effects
				(font
					(size 1.27 1.27)
				)
				(hide yes)
			)
		)
		(property "Datasheet" "~"
			(at 133.35 149.86 0)
			(effects
				(font
					(size 1.27 1.27)
				)
				(hide yes)
			)
		)
		(property "Description" "Mounting Hole without connection"
			(at 133.35 149.86 0)
			(effects
				(font
					(size 1.27 1.27)
				)
				(hide yes)
			)
		)
		(instances
			(project "luccioloa"
				(path "/296246b7-c8f5-40d5-a662-7c2cd4332e84"
					(reference "H2")
					(unit 1)
				)
			)
		)
	)
	(sheet_instances
		(path "/"
			(page "1")
		)
	)
)