%TF.GenerationSoftware,KiCad,Pcbnew,8.0.0-8.0.0-1~ubuntu22.04.1*%
%TF.CreationDate,2024-06-06T20:49:56-04:00*%
%TF.ProjectId,luccioloa,6c756363-696f-46c6-9f61-2e6b69636164,rev?*%
%TF.SameCoordinates,Original*%
%TF.FileFunction,Copper,L2,Bot*%
%TF.FilePolarity,Positive*%
%FSLAX46Y46*%
G04 Gerber Fmt 4.6, Leading zero omitted, Abs format (unit mm)*
G04 Created by KiCad (PCBNEW 8.0.0-8.0.0-1~ubuntu22.04.1) date 2024-06-06 20:49:56*
%MOMM*%
%LPD*%
G01*
G04 APERTURE LIST*
%TA.AperFunction,ComponentPad*%
%ADD10O,2.400000X2.400000*%
%TD*%
%TA.AperFunction,ComponentPad*%
%ADD11C,2.400000*%
%TD*%
%TA.AperFunction,ComponentPad*%
%ADD12C,2.100000*%
%TD*%
%TA.AperFunction,ComponentPad*%
%ADD13C,1.750000*%
%TD*%
%TA.AperFunction,ComponentPad*%
%ADD14R,1.700000X1.700000*%
%TD*%
%TA.AperFunction,ComponentPad*%
%ADD15O,1.700000X1.700000*%
%TD*%
%TA.AperFunction,ComponentPad*%
%ADD16O,1.350000X1.350000*%
%TD*%
%TA.AperFunction,ComponentPad*%
%ADD17R,1.350000X1.350000*%
%TD*%
%TA.AperFunction,ComponentPad*%
%ADD18C,2.600000*%
%TD*%
%TA.AperFunction,ComponentPad*%
%ADD19C,2.500000*%
%TD*%
%TA.AperFunction,ComponentPad*%
%ADD20R,1.600000X1.600000*%
%TD*%
%TA.AperFunction,ComponentPad*%
%ADD21C,1.600000*%
%TD*%
%TA.AperFunction,ComponentPad*%
%ADD22R,1.800000X1.800000*%
%TD*%
%TA.AperFunction,ComponentPad*%
%ADD23C,1.800000*%
%TD*%
%TA.AperFunction,ViaPad*%
%ADD24C,0.600000*%
%TD*%
%TA.AperFunction,Conductor*%
%ADD25C,0.400000*%
%TD*%
%TA.AperFunction,Conductor*%
%ADD26C,0.700000*%
%TD*%
G04 APERTURE END LIST*
D10*
%TO.P,R10,2*%
%TO.N,A3*%
X68830000Y-22830000D03*
D11*
%TO.P,R10,1*%
%TO.N,+3V3*%
X48510000Y-22830000D03*
%TD*%
D12*
%TO.P,SW5,*%
%TO.N,*%
X84022500Y-33027500D03*
X84022500Y-40037500D03*
D13*
%TO.P,SW5,1,1*%
%TO.N,A5*%
X86512500Y-34277500D03*
%TO.P,SW5,2,2*%
%TO.N,GND*%
X86512500Y-38777500D03*
%TD*%
D14*
%TO.P,mesh_display1,1,GND*%
%TO.N,GND*%
X14770000Y1470000D03*
D15*
%TO.P,mesh_display1,2,VCC*%
%TO.N,+3V3*%
X17310000Y1470000D03*
%TO.P,mesh_display1,3,SCL*%
%TO.N,IB_SCL*%
X19850000Y1470000D03*
%TO.P,mesh_display1,4,SDA*%
%TO.N,IB_SDA*%
X22390000Y1470000D03*
%TD*%
D11*
%TO.P,R2,1*%
%TO.N,+3V3*%
X65600000Y-57320000D03*
D10*
%TO.P,R2,2*%
%TO.N,SDA*%
X45280000Y-57320000D03*
%TD*%
D14*
%TO.P,A2,1,ANT*%
%TO.N,ANT*%
X40560000Y-10090000D03*
D15*
%TO.P,A2,2,GND*%
%TO.N,GND*%
X40560000Y-12630000D03*
%TO.P,A2,3,CS*%
%TO.N,IB_D11*%
X40560000Y-15170000D03*
%TO.P,A2,4,CLK*%
%TO.N,IB_SCK*%
X40560000Y-17710000D03*
%TO.P,A2,5,MOSI*%
%TO.N,IB_MOSI*%
X40560000Y-20250000D03*
%TO.P,A2,6,MISO*%
%TO.N,IB_MISO*%
X40560000Y-22790000D03*
%TO.P,A2,7,RESET*%
%TO.N,IB_D10*%
X40560000Y-25330000D03*
%TO.P,A2,8,BUSY*%
%TO.N,IB_D9*%
X40560000Y-27870000D03*
D14*
%TO.P,A2,9*%
%TO.N,N/C*%
X25320000Y-27870000D03*
D15*
%TO.P,A2,10*%
X25320000Y-25330000D03*
%TO.P,A2,11,3V3*%
%TO.N,+3V3*%
X25320000Y-22790000D03*
%TO.P,A2,12,GND*%
%TO.N,GND*%
X25320000Y-20250000D03*
%TO.P,A2,13,DIO1*%
%TO.N,IB_D7*%
X25320000Y-17710000D03*
%TO.P,A2,14,DIO2*%
%TO.N,unconnected-(A2-DIO2-Pad14)*%
X25320000Y-15170000D03*
%TO.P,A2,15,TXEN*%
%TO.N,IB_D12*%
X25320000Y-12630000D03*
%TO.P,A2,16,RXEN*%
%TO.N,IB_D2*%
X25320000Y-10090000D03*
%TD*%
D16*
%TO.P,U3,1,GND*%
%TO.N,GND*%
X37070000Y-71240000D03*
%TO.P,U3,2,VCC*%
%TO.N,+3V3*%
X39070000Y-71240000D03*
%TO.P,U3,3,SDA*%
%TO.N,SDA*%
X41070000Y-71240000D03*
D17*
%TO.P,U3,4,SCL*%
%TO.N,SCL*%
X43070000Y-71240000D03*
%TD*%
D14*
%TO.P,A1,1,GND*%
%TO.N,GND*%
X54680000Y-17090000D03*
D15*
%TO.P,A1,2,VCC*%
%TO.N,+3V3*%
X57220000Y-17090000D03*
%TO.P,A1,3,SCL*%
%TO.N,SCL*%
X59760000Y-17090000D03*
%TO.P,A1,4,SDA*%
%TO.N,SDA*%
X62300000Y-17090000D03*
%TD*%
D11*
%TO.P,R14,1*%
%TO.N,+3V3*%
X48600000Y-33110000D03*
D10*
%TO.P,R14,2*%
%TO.N,A5*%
X68920000Y-33110000D03*
%TD*%
D12*
%TO.P,SW1,*%
%TO.N,*%
X44290000Y-2040000D03*
X51300000Y-2040000D03*
D13*
%TO.P,SW1,1,1*%
%TO.N,IB_RESET*%
X45540000Y450000D03*
%TO.P,SW1,2,2*%
%TO.N,GND*%
X50040000Y450000D03*
%TD*%
D11*
%TO.P,R12,1*%
%TO.N,+3V3*%
X48510000Y-27980000D03*
D10*
%TO.P,R12,2*%
%TO.N,A4*%
X68830000Y-27980000D03*
%TD*%
D14*
%TO.P,U2,1,VCC*%
%TO.N,+3V3*%
X13200000Y-33380000D03*
D15*
%TO.P,U2,2,RXD*%
%TO.N,IB_TX*%
X10660000Y-33380000D03*
%TO.P,U2,3,TXD*%
%TO.N,IB_RX*%
X8120000Y-33380000D03*
%TO.P,U2,4,GND*%
%TO.N,GND*%
X5580000Y-33380000D03*
%TD*%
D12*
%TO.P,SW2,*%
%TO.N,*%
X54800000Y-1990000D03*
X61810000Y-1990000D03*
D13*
%TO.P,SW2,1,1*%
%TO.N,RESET*%
X56050000Y500000D03*
%TO.P,SW2,2,2*%
%TO.N,GND*%
X60550000Y500000D03*
%TD*%
D11*
%TO.P,R3,1*%
%TO.N,+3V3*%
X6960000Y-43970000D03*
D10*
%TO.P,R3,2*%
%TO.N,IB_SDA*%
X27280000Y-43970000D03*
%TD*%
D14*
%TO.P,J2,1,Pin_1*%
%TO.N,unconnected-(J2-Pin_1-Pad1)*%
X70315000Y355000D03*
D15*
%TO.P,J2,2,Pin_2*%
%TO.N,EN*%
X72855000Y355000D03*
%TO.P,J2,3,Pin_3*%
%TO.N,GND*%
X75395000Y355000D03*
%TD*%
D12*
%TO.P,SW4,*%
%TO.N,*%
X83850000Y-21668750D03*
X83850000Y-28678750D03*
D13*
%TO.P,SW4,1,1*%
%TO.N,A4*%
X86340000Y-22918750D03*
%TO.P,SW4,2,2*%
%TO.N,GND*%
X86340000Y-27418750D03*
%TD*%
D14*
%TO.P,J5,1,Pin_1*%
%TO.N,SDA*%
X48750000Y-71360000D03*
D15*
%TO.P,J5,2,Pin_2*%
%TO.N,SCL*%
X51290000Y-71360000D03*
%TO.P,J5,3,Pin_3*%
%TO.N,A2*%
X53830000Y-71360000D03*
%TO.P,J5,4,Pin_4*%
%TO.N,A1*%
X56370000Y-71360000D03*
%TO.P,J5,5,Pin_5*%
%TO.N,A0*%
X58910000Y-71360000D03*
%TO.P,J5,6,Pin_6*%
%TO.N,VUSB*%
X61450000Y-71360000D03*
%TO.P,J5,7,Pin_7*%
%TO.N,VBAT*%
X63990000Y-71360000D03*
%TO.P,J5,8,Pin_8*%
%TO.N,+3V3*%
X66530000Y-71360000D03*
%TO.P,J5,9,Pin_9*%
%TO.N,GND*%
X69070000Y-71360000D03*
%TD*%
D11*
%TO.P,R5,1*%
%TO.N,+3V3*%
X6960000Y-49120000D03*
D10*
%TO.P,R5,2*%
%TO.N,IB_SCL*%
X27280000Y-49120000D03*
%TD*%
D11*
%TO.P,R9,1*%
%TO.N,+3V3*%
X65600000Y-52170000D03*
D10*
%TO.P,R9,2*%
%TO.N,SCL*%
X45280000Y-52170000D03*
%TD*%
D18*
%TO.P,AE1,1,A*%
%TO.N,GND*%
X34710000Y1460000D03*
X34710000Y-3620000D03*
X39790000Y1460000D03*
X39790000Y-3620000D03*
D19*
%TO.P,AE1,2,Shield*%
%TO.N,ANT*%
X37350000Y-1005000D03*
%TD*%
D20*
%TO.P,A4,1,~{RESET}*%
%TO.N,RESET*%
X82230000Y-44180000D03*
D21*
%TO.P,A4,2,3V3*%
%TO.N,+3V3*%
X79690000Y-44180000D03*
%TO.P,A4,3,AREF*%
%TO.N,AREF*%
X77150000Y-44180000D03*
%TO.P,A4,4,GND*%
%TO.N,GND*%
X74610000Y-44180000D03*
%TO.P,A4,5,DAC0/A0*%
%TO.N,A0*%
X72070000Y-44180000D03*
%TO.P,A4,6,A1*%
%TO.N,A1*%
X69530000Y-44180000D03*
%TO.P,A4,7,A2*%
%TO.N,A2*%
X66990000Y-44180000D03*
%TO.P,A4,8,A3*%
%TO.N,A3*%
X64450000Y-44180000D03*
%TO.P,A4,9,A4*%
%TO.N,A4*%
X61910000Y-44180000D03*
%TO.P,A4,10,A5*%
%TO.N,A5*%
X59370000Y-44180000D03*
%TO.P,A4,11,SCK/D24*%
%TO.N,SCK*%
X56830000Y-44180000D03*
%TO.P,A4,12,MOSI/D23*%
%TO.N,MOSI*%
X54290000Y-44180000D03*
%TO.P,A4,13,MISO/D22*%
%TO.N,MISO*%
X51750000Y-44180000D03*
%TO.P,A4,14,RX/D0*%
%TO.N,F_RX*%
X49210000Y-44180000D03*
%TO.P,A4,15,TX/D1*%
%TO.N,F_TX*%
X46670000Y-44180000D03*
%TO.P,A4,16,GND*%
%TO.N,GND*%
X44130000Y-44180000D03*
%TO.P,A4,17,SDA/D20*%
%TO.N,SDA*%
X44130000Y-64500000D03*
%TO.P,A4,18,SCL/D21*%
%TO.N,SCL*%
X46670000Y-64500000D03*
%TO.P,A4,19,D5*%
%TO.N,D5*%
X49210000Y-64500000D03*
%TO.P,A4,20,D6*%
%TO.N,D6*%
X51750000Y-64500000D03*
%TO.P,A4,21,D9*%
%TO.N,unconnected-(A4-D9-Pad21)*%
X54290000Y-64500000D03*
%TO.P,A4,22,D10*%
%TO.N,D10*%
X56830000Y-64500000D03*
%TO.P,A4,23,D11*%
%TO.N,D11*%
X59370000Y-64500000D03*
%TO.P,A4,24,D12*%
%TO.N,D12*%
X61910000Y-64500000D03*
%TO.P,A4,25,D13*%
%TO.N,D13*%
X64450000Y-64500000D03*
%TO.P,A4,26,USB*%
%TO.N,VUSB*%
X66990000Y-64500000D03*
%TO.P,A4,27,EN*%
%TO.N,EN*%
X69530000Y-64500000D03*
%TO.P,A4,28,VBAT*%
%TO.N,VBAT*%
X72070000Y-64500000D03*
%TD*%
D14*
%TO.P,A3,1,RESET*%
%TO.N,IB_RESET*%
X140000Y-54170000D03*
D15*
%TO.P,A3,2,3V*%
%TO.N,+3V3*%
X2680000Y-54170000D03*
%TO.P,A3,3,EN*%
%TO.N,unconnected-(A3-EN-Pad3)*%
X5220000Y-54170000D03*
%TO.P,A3,4,VHI*%
%TO.N,unconnected-(A3-VHI-Pad4)*%
X7760000Y-54170000D03*
%TO.P,A3,5,A0*%
%TO.N,unconnected-(A3-A0-Pad5)*%
X10300000Y-54170000D03*
%TO.P,A3,6,A1*%
%TO.N,unconnected-(A3-A1-Pad6)*%
X12840000Y-54170000D03*
%TO.P,A3,7,A2*%
%TO.N,F_RX*%
X15380000Y-54170000D03*
%TO.P,A3,8,A3*%
%TO.N,F_TX*%
X17920000Y-54170000D03*
%TO.P,A3,9,A4*%
%TO.N,unconnected-(A3-A4-Pad9)*%
X20460000Y-54170000D03*
%TO.P,A3,10,A5*%
%TO.N,unconnected-(A3-A5-Pad10)*%
X23000000Y-54170000D03*
%TO.P,A3,11,SCK*%
%TO.N,IB_SCK*%
X25540000Y-54170000D03*
%TO.P,A3,12,M0*%
%TO.N,IB_MOSI*%
X28080000Y-54170000D03*
%TO.P,A3,13,MI*%
%TO.N,IB_MISO*%
X30620000Y-54170000D03*
%TO.P,A3,14,D2*%
%TO.N,IB_D2*%
X33160000Y-54170000D03*
%TO.P,A3,15,RX*%
%TO.N,IB_TX*%
X33190000Y-39135000D03*
%TO.P,A3,16,TX*%
%TO.N,IB_RX*%
X30650000Y-39135000D03*
%TO.P,A3,17,SDA*%
%TO.N,IB_SDA*%
X28110000Y-39135000D03*
%TO.P,A3,18,SCL*%
%TO.N,IB_SCL*%
X25570000Y-39135000D03*
%TO.P,A3,19,5!*%
%TO.N,unconnected-(A3-5!-Pad19)*%
X23030000Y-39135000D03*
%TO.P,A3,20,7*%
%TO.N,IB_D7*%
X20490000Y-39135000D03*
%TO.P,A3,21,9*%
%TO.N,IB_D9*%
X17950000Y-39135000D03*
%TO.P,A3,22,10*%
%TO.N,IB_D10*%
X15410000Y-39135000D03*
%TO.P,A3,23,11*%
%TO.N,IB_D11*%
X12870000Y-39135000D03*
%TO.P,A3,24,12*%
%TO.N,IB_D12*%
X10330000Y-39135000D03*
%TO.P,A3,25,13*%
%TO.N,Net-(A3-13)*%
X7790000Y-39135000D03*
%TO.P,A3,26,USB*%
%TO.N,unconnected-(A3-USB-Pad26)*%
X5250000Y-39135000D03*
%TO.P,A3,27,GND*%
%TO.N,GND*%
X2710000Y-39135000D03*
D14*
%TO.P,A3,28,BAT*%
%TO.N,unconnected-(A3-BAT-Pad28)*%
X170000Y-39135000D03*
%TD*%
D11*
%TO.P,R1,1*%
%TO.N,Net-(D1-K)*%
X23680000Y-33340000D03*
D10*
%TO.P,R1,2*%
%TO.N,GND*%
X44000000Y-33340000D03*
%TD*%
D12*
%TO.P,SW3,*%
%TO.N,*%
X83930000Y-10310000D03*
X83930000Y-17320000D03*
D13*
%TO.P,SW3,1,1*%
%TO.N,A3*%
X86420000Y-11560000D03*
%TO.P,SW3,2,2*%
%TO.N,GND*%
X86420000Y-16060000D03*
%TD*%
D22*
%TO.P,D1,1,K*%
%TO.N,Net-(D1-K)*%
X40000Y-66350000D03*
D23*
%TO.P,D1,2,A*%
%TO.N,Net-(A3-13)*%
X40000Y-63810000D03*
%TD*%
D15*
%TO.P,A5,9,EIN*%
%TO.N,unconnected-(A5-EIN-Pad9)*%
X66770000Y-8190000D03*
%TO.P,A5,8,DISP*%
%TO.N,unconnected-(A5-DISP-Pad8)*%
X64230000Y-8190000D03*
%TO.P,A5,7,EMD*%
%TO.N,unconnected-(A5-EMD-Pad7)*%
X61690000Y-8190000D03*
%TO.P,A5,6,CS*%
%TO.N,D6*%
X59150000Y-8190000D03*
%TO.P,A5,5,DI*%
%TO.N,D12*%
X56610000Y-8190000D03*
%TO.P,A5,4,CLK*%
%TO.N,D11*%
X54070000Y-8190000D03*
%TO.P,A5,3,GND*%
%TO.N,GND*%
X51530000Y-8190000D03*
%TO.P,A5,2,3V3*%
%TO.N,unconnected-(A5-3V3-Pad2)*%
X48990000Y-8190000D03*
D14*
%TO.P,A5,1,VIN*%
%TO.N,+3V3*%
X46450000Y-8190000D03*
%TD*%
%TO.P,A6,1,VIN*%
%TO.N,+3V3*%
X72410000Y-12770000D03*
D15*
%TO.P,A6,2,3V3*%
%TO.N,unconnected-(A6-3V3-Pad2)*%
X69870000Y-12770000D03*
%TO.P,A6,3,GND*%
%TO.N,GND*%
X67330000Y-12770000D03*
%TO.P,A6,4,CLK*%
%TO.N,SCK*%
X64790000Y-12770000D03*
%TO.P,A6,5,MISO*%
%TO.N,MISO*%
X62250000Y-12770000D03*
%TO.P,A6,6,MOSI*%
%TO.N,MOSI*%
X59710000Y-12770000D03*
%TO.P,A6,7,TFTCS*%
%TO.N,D6*%
X57170000Y-12770000D03*
%TO.P,A6,8,RST*%
%TO.N,D5*%
X54630000Y-12770000D03*
%TO.P,A6,9,DC*%
%TO.N,D11*%
X52090000Y-12770000D03*
%TO.P,A6,10,SDCS*%
%TO.N,D9*%
X49550000Y-12770000D03*
%TO.P,A6,11,LIT*%
%TO.N,D12*%
X47010000Y-12770000D03*
%TD*%
D14*
%TO.P,U1,1,VIN*%
%TO.N,unconnected-(U1-VIN-Pad1)*%
X14420000Y-72910000D03*
D15*
%TO.P,U1,2,3V*%
%TO.N,+3V3*%
X16960000Y-72910000D03*
%TO.P,U1,3,GND*%
%TO.N,GND*%
X19500000Y-72910000D03*
%TO.P,U1,4,SCL*%
%TO.N,SCL*%
X22040000Y-72910000D03*
%TO.P,U1,5,SDA*%
%TO.N,SDA*%
X24580000Y-72910000D03*
%TO.P,U1,6,INTM*%
%TO.N,unconnected-(U1-INTM-Pad6)*%
X27120000Y-72910000D03*
%TO.P,U1,7,IA2*%
%TO.N,unconnected-(U1-IA2-Pad7)*%
X24580000Y-60210000D03*
%TO.P,U1,8,IA1*%
%TO.N,unconnected-(U1-IA1-Pad8)*%
X22040000Y-60210000D03*
%TO.P,U1,9,CSA*%
%TO.N,unconnected-(U1-CSA-Pad9)*%
X19500000Y-60210000D03*
%TO.P,U1,10,CSM*%
%TO.N,unconnected-(U1-CSM-Pad10)*%
X16960000Y-60210000D03*
%TD*%
D24*
%TO.N,SCL*%
X23085000Y-70165000D03*
%TO.N,A2*%
X56250000Y-55500000D03*
X58500000Y-55500000D03*
%TO.N,+3V3*%
X57750000Y-57320000D03*
%TO.N,A5*%
X60000000Y-35000000D03*
%TO.N,A4*%
X73500000Y-42250000D03*
X62000000Y-42500000D03*
X74000000Y-27980000D03*
%TO.N,A3*%
X65750000Y-22830000D03*
%TO.N,A0*%
X67500000Y-47250000D03*
X72000000Y-47000000D03*
X67750000Y-73250000D03*
X59250000Y-73500000D03*
%TO.N,A1*%
X68500000Y-60750000D03*
X58500000Y-61000000D03*
%TO.N,A2*%
X59000000Y-46000000D03*
%TO.N,SDA*%
X42250000Y-39250000D03*
X62000000Y-38000000D03*
X42500000Y-57250000D03*
%TO.N,A3*%
X78000000Y-11750000D03*
X77750000Y-22750000D03*
%TO.N,A5*%
X69000000Y-36000000D03*
%TO.N,A4*%
X80000000Y-23500000D03*
X79750000Y-27750000D03*
%TO.N,Net-(D1-K)*%
X-2000000Y-66250000D03*
X-2000000Y-61000000D03*
%TO.N,Net-(A3-13)*%
X1000000Y-57000000D03*
X8750000Y-57000000D03*
%TO.N,+3V3*%
X3500000Y-66250000D03*
%TO.N,Net-(D1-K)*%
X23750000Y-58000000D03*
X8000000Y-60000000D03*
X8500000Y-58000000D03*
%TO.N,IB_RESET*%
X1250000Y-6500000D03*
X44000000Y-5250000D03*
%TO.N,RESET*%
X81750000Y-6000000D03*
X57000000Y-5750000D03*
%TO.N,EN*%
X80750000Y-60000000D03*
X70000000Y-60000000D03*
X80250000Y-1000000D03*
%TO.N,SDA*%
X48750000Y-68750000D03*
X48750000Y-73250000D03*
%TO.N,SCL*%
X50750000Y-69500000D03*
X46670000Y-69500000D03*
X46750000Y-71250000D03*
%TO.N,SDA*%
X41250000Y-69000000D03*
X44000000Y-68750000D03*
%TO.N,SCL*%
X45750000Y-19250000D03*
X59750000Y-18750000D03*
%TO.N,MOSI*%
X54500000Y-32000000D03*
X59500000Y-31750000D03*
%TO.N,MISO*%
X51500000Y-40250000D03*
X61000000Y-40100000D03*
%TO.N,SCK*%
X63500000Y-49500000D03*
%TO.N,D5*%
X50500000Y-36000000D03*
X48500000Y-36000000D03*
%TO.N,MISO*%
X51000000Y-59250000D03*
%TO.N,SCK*%
X70000000Y-49500000D03*
X70000000Y-56750000D03*
X56750000Y-49250000D03*
%TO.N,MOSI*%
X54500000Y-54500000D03*
%TO.N,D10*%
X87750000Y-53750000D03*
X87750000Y-62750000D03*
%TO.N,D6*%
X55500000Y-48000000D03*
X51750000Y-48250000D03*
%TO.N,D11*%
X59250000Y-62500000D03*
X53500000Y-62250000D03*
%TO.N,D12*%
X46750000Y-41750000D03*
X60250000Y-41750000D03*
%TO.N,D5*%
X54750000Y-15000000D03*
X51000000Y-15500000D03*
%TO.N,D11*%
X52000000Y-11000000D03*
X54000000Y-10750000D03*
%TO.N,D12*%
X47000000Y-10000000D03*
X55500000Y-9750000D03*
%TO.N,D6*%
X57000000Y-10250000D03*
X59000000Y-10250000D03*
%TO.N,IB_TX*%
X10750000Y-36750000D03*
X14750000Y-42250000D03*
X14000000Y-37000000D03*
X33250000Y-41750000D03*
%TO.N,IB_RX*%
X6500000Y-41000000D03*
X30500000Y-41250000D03*
%TO.N,IB_SDA*%
X27000000Y1500000D03*
%TO.N,IB_SCL*%
X25500000Y-37500000D03*
X19500000Y-37500000D03*
%TO.N,F_RX*%
X49250000Y-47000000D03*
X15500000Y-47500000D03*
%TO.N,F_TX*%
X46750000Y-46250000D03*
X18000000Y-46500000D03*
%TO.N,IB_D2*%
X31500000Y-10500000D03*
%TO.N,IB_D12*%
X9370000Y-13370000D03*
%TO.N,IB_MOSI*%
X28250000Y-56750000D03*
X38500000Y-56750000D03*
X38500000Y-20250000D03*
%TO.N,IB_MISO*%
X37000000Y-51500000D03*
X37500000Y-22750000D03*
X30750000Y-51750000D03*
%TO.N,IB_SCK*%
X29250000Y-51500000D03*
X25500000Y-51500000D03*
X30000000Y-17750000D03*
%TO.N,IB_D11*%
X11250000Y-16750000D03*
%TO.N,IB_D7*%
X20750000Y-17710000D03*
%TO.N,IB_D10*%
X15795000Y-24080000D03*
%TO.N,IB_D9*%
X28775000Y-35750000D03*
X28825000Y-28650000D03*
X17875000Y-36375000D03*
%TO.N,GND*%
X42750000Y-12625000D03*
X42825000Y-3725000D03*
X54775000Y-25725000D03*
X76200000Y-25625000D03*
X76200000Y-19500000D03*
X85150000Y-13350000D03*
X75450000Y-13225000D03*
X67500000Y475000D03*
X75450000Y-2400000D03*
X67500000Y-2400000D03*
X14800000Y-4050000D03*
%TO.N,+3V3*%
X17625000Y-33300000D03*
X17675000Y-22750000D03*
X17500000Y-7950000D03*
X46325000Y-4525000D03*
X72400000Y-4475000D03*
X65550000Y-17350000D03*
X65475000Y-21575000D03*
X72800000Y-17350000D03*
X57825000Y-21550000D03*
%TO.N,GND*%
X67500000Y-19500000D03*
X88000000Y-19500000D03*
X86750000Y-48250000D03*
X75000000Y-48250000D03*
X71250000Y-58000000D03*
X71250000Y-48250000D03*
%TO.N,+3V3*%
X79750000Y-39250000D03*
X58000000Y-35750000D03*
X58000000Y-39250000D03*
%TO.N,VBAT*%
X63750000Y-69000000D03*
X71000000Y-69000000D03*
%TO.N,VUSB*%
X61250000Y-66250000D03*
X67000000Y-66250000D03*
%TO.N,+3V3*%
X66500000Y-67500000D03*
X39070000Y-67500000D03*
%TO.N,GND*%
X79500000Y-66500000D03*
X79500000Y-58000000D03*
X69250000Y-66750000D03*
%TO.N,+3V3*%
X79500000Y-55750000D03*
X79500000Y-52500000D03*
X57000000Y-61000000D03*
X39000000Y-61000000D03*
%TO.N,GND*%
X37000000Y-74750000D03*
X69000000Y-74750000D03*
%TO.N,+3V3*%
X16750000Y-66250000D03*
X39000000Y-66250000D03*
%TO.N,GND*%
X37150000Y-68550000D03*
X19550000Y-68550000D03*
%TO.N,+3V3*%
X2770000Y-49150000D03*
%TO.N,GND*%
X36590000Y-12430000D03*
X36510000Y-20280000D03*
X36520000Y-33450000D03*
X2810000Y-33490000D03*
X5580000Y-20320000D03*
%TD*%
D25*
%TO.N,SCL*%
X22040000Y-71210000D02*
X23085000Y-70165000D01*
%TO.N,A2*%
X58750000Y-52750000D02*
X58750000Y-55250000D01*
X58750000Y-55250000D02*
X58500000Y-55500000D01*
X56250000Y-55500000D02*
X55490000Y-56260000D01*
X55490000Y-56260000D02*
X55490000Y-69700000D01*
D26*
%TO.N,+3V3*%
X57000000Y-61000000D02*
X57000000Y-58070000D01*
X57000000Y-58070000D02*
X57750000Y-57320000D01*
D25*
%TO.N,A5*%
X59370000Y-35630000D02*
X60000000Y-35000000D01*
X59370000Y-44180000D02*
X59370000Y-35630000D01*
%TO.N,A4*%
X73500000Y-28480000D02*
X74000000Y-27980000D01*
X73500000Y-42250000D02*
X73500000Y-28480000D01*
X61910000Y-42590000D02*
X62000000Y-42500000D01*
X61910000Y-44180000D02*
X61910000Y-42590000D01*
%TO.N,A3*%
X65750000Y-29500000D02*
X65750000Y-22830000D01*
X64450000Y-44180000D02*
X64450000Y-30800000D01*
X64450000Y-30800000D02*
X65750000Y-29500000D01*
%TO.N,A0*%
X58910000Y-71360000D02*
X58910000Y-73160000D01*
X67500000Y-62250000D02*
X67200000Y-61950000D01*
X67200000Y-61950000D02*
X67200000Y-59300000D01*
X67750000Y-73250000D02*
X67780000Y-73220000D01*
X58910000Y-73160000D02*
X59250000Y-73500000D01*
X67200000Y-59300000D02*
X67500000Y-59000000D01*
X67500000Y-59000000D02*
X67500000Y-47250000D01*
X68190000Y-62940000D02*
X67500000Y-62250000D01*
X72000000Y-44250000D02*
X72070000Y-44180000D01*
X68190000Y-65559340D02*
X68190000Y-62940000D01*
X67780000Y-65969340D02*
X68190000Y-65559340D01*
X67780000Y-73220000D02*
X67780000Y-65969340D01*
X72000000Y-47000000D02*
X72000000Y-44250000D01*
%TO.N,A1*%
X56370000Y-71360000D02*
X58030000Y-69700000D01*
X58030000Y-69700000D02*
X58030000Y-61470000D01*
X58030000Y-61470000D02*
X58500000Y-61000000D01*
X68500000Y-60750000D02*
X68500000Y-45210000D01*
X68500000Y-45210000D02*
X69530000Y-44180000D01*
%TO.N,A2*%
X58750000Y-52750000D02*
X58750000Y-46250000D01*
X53830000Y-71360000D02*
X55490000Y-69700000D01*
X58750000Y-46250000D02*
X59000000Y-46000000D01*
%TO.N,SDA*%
X62300000Y-17090000D02*
X62300000Y-37700000D01*
X62300000Y-37700000D02*
X62000000Y-38000000D01*
X42250000Y-39250000D02*
X42250000Y-57000000D01*
X42250000Y-57000000D02*
X42500000Y-57250000D01*
%TO.N,A3*%
X77750000Y-12000000D02*
X78000000Y-11750000D01*
X77750000Y-22750000D02*
X77750000Y-12000000D01*
D26*
%TO.N,ANT*%
X37350000Y-1005000D02*
X37350000Y-6880000D01*
X37350000Y-6880000D02*
X40560000Y-10090000D01*
D25*
%TO.N,A5*%
X68920000Y-33110000D02*
X68920000Y-35920000D01*
X68920000Y-35920000D02*
X69000000Y-36000000D01*
%TO.N,A4*%
X79750000Y-23750000D02*
X80000000Y-23500000D01*
X79750000Y-27750000D02*
X79750000Y-23750000D01*
%TO.N,Net-(D1-K)*%
X-2000000Y-62250000D02*
X-2000000Y-66250000D01*
X-2000000Y-61000000D02*
X-2000000Y-62250000D01*
%TO.N,Net-(A3-13)*%
X40000Y-63810000D02*
X1000000Y-62850000D01*
X1000000Y-62850000D02*
X1000000Y-57000000D01*
X7790000Y-39135000D02*
X9010000Y-40355000D01*
X9010000Y-40355000D02*
X9010000Y-56740000D01*
X9010000Y-56740000D02*
X8750000Y-57000000D01*
D26*
%TO.N,+3V3*%
X2680000Y-65430000D02*
X3500000Y-66250000D01*
X2680000Y-54170000D02*
X2680000Y-65430000D01*
D25*
%TO.N,Net-(D1-K)*%
X24280000Y-57470000D02*
X23750000Y-58000000D01*
X24280000Y-33940000D02*
X24280000Y-57470000D01*
X23680000Y-33340000D02*
X24280000Y-33940000D01*
X8500000Y-59500000D02*
X8000000Y-60000000D01*
X8500000Y-58000000D02*
X8500000Y-59500000D01*
%TO.N,IB_RESET*%
X45540000Y450000D02*
X46414999Y-424999D01*
X46414999Y-2835001D02*
X44000000Y-5250000D01*
X46414999Y-424999D02*
X46414999Y-2835001D01*
X1250000Y-6500000D02*
X1420000Y-6670000D01*
X1420000Y-6670000D02*
X1420000Y-52890000D01*
X1420000Y-52890000D02*
X140000Y-54170000D01*
%TO.N,RESET*%
X56050000Y500000D02*
X57000000Y-450000D01*
X57000000Y-450000D02*
X57000000Y-5750000D01*
X82230000Y-6480000D02*
X82230000Y-44180000D01*
X81750000Y-6000000D02*
X82230000Y-6480000D01*
%TO.N,EN*%
X69530000Y-60470000D02*
X70000000Y-60000000D01*
X69530000Y-64500000D02*
X69530000Y-60470000D01*
X80890000Y-1640000D02*
X80250000Y-1000000D01*
X80890000Y-59860000D02*
X80890000Y-1640000D01*
X80750000Y-60000000D02*
X80890000Y-59860000D01*
%TO.N,SDA*%
X48750000Y-68750000D02*
X48750000Y-71360000D01*
%TO.N,SCL*%
X22040000Y-72910000D02*
X22040000Y-71210000D01*
%TO.N,SDA*%
X48750000Y-71360000D02*
X48750000Y-73250000D01*
X24500000Y-72990000D02*
X24580000Y-72910000D01*
%TO.N,SCL*%
X51290000Y-70040000D02*
X50750000Y-69500000D01*
X46670000Y-71170000D02*
X46670000Y-69500000D01*
X51290000Y-71360000D02*
X51290000Y-70040000D01*
X46670000Y-69500000D02*
X46670000Y-64500000D01*
X46750000Y-71250000D02*
X46670000Y-71170000D01*
%TO.N,SDA*%
X41250000Y-69000000D02*
X41250000Y-71060000D01*
X44130000Y-64500000D02*
X44130000Y-68620000D01*
X44130000Y-68620000D02*
X44000000Y-68750000D01*
X41250000Y-71060000D02*
X41070000Y-71240000D01*
%TO.N,SCL*%
X46670000Y-64500000D02*
X46880000Y-64290000D01*
X46880000Y-64290000D02*
X46880000Y-53770000D01*
X46880000Y-53770000D02*
X45280000Y-52170000D01*
%TO.N,SDA*%
X45280000Y-57320000D02*
X45280000Y-63350000D01*
X45280000Y-63350000D02*
X44130000Y-64500000D01*
%TO.N,SCL*%
X45750000Y-43262943D02*
X45330000Y-43682943D01*
X45330000Y-52120000D02*
X45280000Y-52170000D01*
X59760000Y-17090000D02*
X59760000Y-18740000D01*
X59760000Y-18740000D02*
X59750000Y-18750000D01*
X45330000Y-43682943D02*
X45330000Y-52120000D01*
X45750000Y-19250000D02*
X45750000Y-43262943D01*
%TO.N,MOSI*%
X59500000Y-31750000D02*
X59500000Y-20000000D01*
X59710000Y-12770000D02*
X58510000Y-13970000D01*
X58510000Y-13970000D02*
X58510000Y-19010000D01*
X58510000Y-19010000D02*
X59500000Y-20000000D01*
D26*
%TO.N,+3V3*%
X57825000Y-21550000D02*
X57825000Y-21325000D01*
X57825000Y-21325000D02*
X57220000Y-20720000D01*
X57220000Y-20720000D02*
X57220000Y-17090000D01*
D25*
%TO.N,MOSI*%
X54290000Y-32210000D02*
X54500000Y-32000000D01*
X54290000Y-44180000D02*
X54290000Y-32210000D01*
%TO.N,MISO*%
X62250000Y-12770000D02*
X61050000Y-13970000D01*
X61050000Y-13970000D02*
X61050000Y-40050000D01*
X51750000Y-40500000D02*
X51750000Y-44180000D01*
X61050000Y-40050000D02*
X61000000Y-40100000D01*
X51500000Y-40250000D02*
X51750000Y-40500000D01*
%TO.N,SCK*%
X64500000Y-13060000D02*
X64500000Y-29250000D01*
X64790000Y-12770000D02*
X64500000Y-13060000D01*
X64500000Y-29250000D02*
X63250000Y-30500000D01*
X63250000Y-30500000D02*
X63250000Y-49250000D01*
X63250000Y-49250000D02*
X63500000Y-49500000D01*
%TO.N,D5*%
X49210000Y-64500000D02*
X48010000Y-63300000D01*
X48010000Y-63300000D02*
X48010000Y-36490000D01*
X48010000Y-36490000D02*
X48500000Y-36000000D01*
X50500000Y-36000000D02*
X50500000Y-16000000D01*
X50500000Y-16000000D02*
X51000000Y-15500000D01*
%TO.N,MISO*%
X51000000Y-50250000D02*
X51000000Y-59250000D01*
X51000000Y-49750000D02*
X51000000Y-50250000D01*
X51750000Y-44180000D02*
X51000000Y-44930000D01*
X51000000Y-44930000D02*
X51000000Y-49750000D01*
%TO.N,SCK*%
X70000000Y-56750000D02*
X70000000Y-49500000D01*
X56750000Y-49250000D02*
X56750000Y-48750000D01*
X56750000Y-48750000D02*
X56830000Y-48670000D01*
X56830000Y-48670000D02*
X56830000Y-44180000D01*
%TO.N,MOSI*%
X54290000Y-54290000D02*
X54500000Y-54500000D01*
X54290000Y-44180000D02*
X54290000Y-54290000D01*
%TO.N,D10*%
X87750000Y-54500000D02*
X87750000Y-62750000D01*
X87750000Y-53750000D02*
X87750000Y-54500000D01*
%TO.N,D6*%
X55500000Y-48000000D02*
X55500000Y-26060660D01*
X51750000Y-64500000D02*
X51750000Y-48250000D01*
X55500000Y-26060660D02*
X55930000Y-25630660D01*
X55930000Y-25630660D02*
X55930000Y-14010000D01*
X55930000Y-14010000D02*
X57170000Y-12770000D01*
%TO.N,D11*%
X59250000Y-64380000D02*
X59370000Y-64500000D01*
X52090000Y-12770000D02*
X52950000Y-13630000D01*
X52950000Y-13630000D02*
X52950000Y-61700000D01*
X52950000Y-61700000D02*
X53500000Y-62250000D01*
X59250000Y-62500000D02*
X59250000Y-64380000D01*
%TO.N,D12*%
X46750000Y-41750000D02*
X46750000Y-13030000D01*
X46750000Y-13030000D02*
X47010000Y-12770000D01*
X61910000Y-64500000D02*
X60710000Y-63300000D01*
X60710000Y-42210000D02*
X60250000Y-41750000D01*
X60710000Y-63300000D02*
X60710000Y-42210000D01*
%TO.N,D5*%
X54750000Y-15000000D02*
X54750000Y-12890000D01*
X54750000Y-12890000D02*
X54630000Y-12770000D01*
%TO.N,D11*%
X52000000Y-11000000D02*
X52000000Y-12680000D01*
X54070000Y-8190000D02*
X54070000Y-10680000D01*
X54070000Y-10680000D02*
X54000000Y-10750000D01*
X52000000Y-12680000D02*
X52090000Y-12770000D01*
%TO.N,D12*%
X56610000Y-8190000D02*
X56610000Y-8640000D01*
X56610000Y-8640000D02*
X55500000Y-9750000D01*
X47000000Y-12760000D02*
X47010000Y-12770000D01*
X47000000Y-10000000D02*
X47000000Y-12760000D01*
%TO.N,D6*%
X57000000Y-12600000D02*
X57170000Y-12770000D01*
X59150000Y-8190000D02*
X59150000Y-10100000D01*
X57000000Y-10250000D02*
X57000000Y-12600000D01*
X59150000Y-10100000D02*
X59000000Y-10250000D01*
%TO.N,IB_TX*%
X14000000Y-37000000D02*
X14120000Y-37120000D01*
X14120000Y-41620000D02*
X14750000Y-42250000D01*
X10660000Y-36660000D02*
X10750000Y-36750000D01*
X10660000Y-33380000D02*
X10660000Y-36660000D01*
X14120000Y-37120000D02*
X14120000Y-41620000D01*
X33250000Y-41750000D02*
X33250000Y-39195000D01*
X33250000Y-39195000D02*
X33190000Y-39135000D01*
%TO.N,IB_RX*%
X6500000Y-35000000D02*
X8120000Y-33380000D01*
X30650000Y-39135000D02*
X30650000Y-41100000D01*
X30650000Y-41100000D02*
X30500000Y-41250000D01*
X6500000Y-41000000D02*
X6500000Y-35000000D01*
%TO.N,IB_SCL*%
X27280000Y-49120000D02*
X25570000Y-47410000D01*
X25570000Y-47410000D02*
X25570000Y-39135000D01*
%TO.N,IB_SDA*%
X27280000Y-43970000D02*
X27280000Y-39965000D01*
X27280000Y-39965000D02*
X28110000Y-39135000D01*
X27500000Y1000000D02*
X27000000Y1500000D01*
X27500000Y-37500000D02*
X27500000Y1000000D01*
X28110000Y-39135000D02*
X28110000Y-38110000D01*
X28110000Y-38110000D02*
X27500000Y-37500000D01*
%TO.N,IB_SCL*%
X19850000Y350000D02*
X19250000Y-250000D01*
X19850000Y1470000D02*
X19850000Y350000D01*
X19250000Y-250000D02*
X19250000Y-37250000D01*
X19250000Y-37250000D02*
X19500000Y-37500000D01*
X25500000Y-37500000D02*
X25500000Y-39065000D01*
X25500000Y-39065000D02*
X25570000Y-39135000D01*
%TO.N,F_RX*%
X49250000Y-47000000D02*
X49250000Y-44220000D01*
X15380000Y-47620000D02*
X15500000Y-47500000D01*
X15380000Y-54170000D02*
X15380000Y-47620000D01*
X49250000Y-44220000D02*
X49210000Y-44180000D01*
%TO.N,F_TX*%
X17920000Y-54170000D02*
X17920000Y-46580000D01*
X17920000Y-46580000D02*
X18000000Y-46500000D01*
X46750000Y-44260000D02*
X46670000Y-44180000D01*
X46750000Y-46250000D02*
X46750000Y-44260000D01*
%TO.N,IB_D2*%
X31500000Y-10500000D02*
X31900000Y-10900000D01*
X31900000Y-10900000D02*
X31900000Y-52910000D01*
X31900000Y-52910000D02*
X33160000Y-54170000D01*
%TO.N,IB_D12*%
X9370000Y-13370000D02*
X9370000Y-38175000D01*
X9370000Y-38175000D02*
X10330000Y-39135000D01*
%TO.N,IB_MOSI*%
X38500000Y-56750000D02*
X38500000Y-55250000D01*
X38500000Y-55250000D02*
X38500000Y-20250000D01*
X28080000Y-56580000D02*
X28250000Y-56750000D01*
X28080000Y-54170000D02*
X28080000Y-56580000D01*
%TO.N,IB_MISO*%
X37500000Y-51000000D02*
X37000000Y-51500000D01*
X37500000Y-22750000D02*
X37500000Y-51000000D01*
X30750000Y-51750000D02*
X30750000Y-54040000D01*
X30750000Y-54040000D02*
X30620000Y-54170000D01*
%TO.N,IB_SCK*%
X29400000Y-38617233D02*
X29400000Y-51350000D01*
X30000000Y-38017233D02*
X29400000Y-38617233D01*
X30000000Y-17750000D02*
X30000000Y-38017233D01*
X29400000Y-51350000D02*
X29250000Y-51500000D01*
X25500000Y-51500000D02*
X25500000Y-54130000D01*
X25500000Y-54130000D02*
X25540000Y-54170000D01*
%TO.N,IB_D11*%
X11250000Y-16750000D02*
X11910000Y-17410000D01*
X11910000Y-17410000D02*
X11910000Y-38175000D01*
X11910000Y-38175000D02*
X12870000Y-39135000D01*
%TO.N,IB_D7*%
X20490000Y-39135000D02*
X20490000Y-17970000D01*
X20490000Y-17970000D02*
X20750000Y-17710000D01*
%TO.N,IB_D10*%
X15410000Y-39135000D02*
X15410000Y-24465000D01*
X15410000Y-24465000D02*
X15795000Y-24080000D01*
%TO.N,IB_D9*%
X28825000Y-35700000D02*
X28775000Y-35750000D01*
X28825000Y-28650000D02*
X28825000Y-35700000D01*
X17875000Y-36375000D02*
X17875000Y-39060000D01*
X17875000Y-39060000D02*
X17950000Y-39135000D01*
D26*
%TO.N,GND*%
X42825000Y-12550000D02*
X42750000Y-12625000D01*
X42825000Y-3725000D02*
X42825000Y-12550000D01*
X51530000Y-8190000D02*
X51530000Y-5230000D01*
X49075000Y75000D02*
X49450000Y450000D01*
X51530000Y-5230000D02*
X49075000Y-2775000D01*
X49075000Y-2775000D02*
X49075000Y75000D01*
X49450000Y450000D02*
X50040000Y450000D01*
X76200000Y-25625000D02*
X76200000Y-19500000D01*
X54680000Y-25630000D02*
X54775000Y-25725000D01*
X54680000Y-17090000D02*
X54680000Y-25630000D01*
X75450000Y-2400000D02*
X75450000Y-2975000D01*
X85150000Y-13350000D02*
X85150000Y-14790000D01*
X75450000Y-2975000D02*
X75450000Y-13225000D01*
X85150000Y-14790000D02*
X86420000Y-16060000D01*
X67500000Y475000D02*
X67500000Y-2400000D01*
X75450000Y-2400000D02*
X75450000Y300000D01*
X75450000Y300000D02*
X75395000Y355000D01*
X39790000Y-3620000D02*
X39790000Y1460000D01*
X34710000Y-3620000D02*
X34710000Y1460000D01*
X14770000Y-4020000D02*
X14800000Y-4050000D01*
X14770000Y1470000D02*
X14770000Y-4020000D01*
%TO.N,+3V3*%
X17675000Y-33250000D02*
X17625000Y-33300000D01*
X17675000Y-22750000D02*
X17675000Y-33250000D01*
X17500000Y-22575000D02*
X17675000Y-22750000D01*
X17500000Y-7950000D02*
X17500000Y-22575000D01*
X17500000Y-7950000D02*
X17310000Y-7760000D01*
X17310000Y-7760000D02*
X17310000Y1470000D01*
X72410000Y-12770000D02*
X72410000Y-4485000D01*
X72410000Y-4485000D02*
X72400000Y-4475000D01*
X46325000Y-4525000D02*
X46325000Y-8065000D01*
X46325000Y-8065000D02*
X46450000Y-8190000D01*
X72800000Y-13160000D02*
X72410000Y-12770000D01*
X65475000Y-21575000D02*
X65475000Y-17425000D01*
X65475000Y-17425000D02*
X65550000Y-17350000D01*
X72800000Y-17350000D02*
X72800000Y-13160000D01*
X48600000Y-33110000D02*
X48600000Y-28070000D01*
X48600000Y-28070000D02*
X48510000Y-27980000D01*
X48510000Y-27980000D02*
X48510000Y-22830000D01*
%TO.N,GND*%
X44130000Y-44180000D02*
X44130000Y-33470000D01*
X44130000Y-33470000D02*
X44000000Y-33340000D01*
X88000000Y-24500000D02*
X88000000Y-19500000D01*
X67330000Y-19330000D02*
X67500000Y-19500000D01*
X67330000Y-12770000D02*
X67330000Y-19330000D01*
X88000000Y-19500000D02*
X88000000Y-17640000D01*
X86340000Y-26160000D02*
X88000000Y-24500000D01*
X86340000Y-27418750D02*
X86340000Y-26160000D01*
X88000000Y-17640000D02*
X86420000Y-16060000D01*
X86512500Y-37987500D02*
X88000000Y-36500000D01*
X88000000Y-36500000D02*
X88000000Y-29078750D01*
X86512500Y-38777500D02*
X86512500Y-37987500D01*
X88000000Y-29078750D02*
X86340000Y-27418750D01*
X86750000Y-48250000D02*
X86512500Y-48012500D01*
X86512500Y-48012500D02*
X86512500Y-38777500D01*
X75000000Y-44570000D02*
X74610000Y-44180000D01*
X71250000Y-58000000D02*
X71250000Y-57500000D01*
X71250000Y-57500000D02*
X71250000Y-48250000D01*
X75000000Y-48250000D02*
X75000000Y-44570000D01*
%TO.N,+3V3*%
X58000000Y-35750000D02*
X58000000Y-39250000D01*
X79750000Y-39250000D02*
X79750000Y-44120000D01*
X79750000Y-44120000D02*
X79690000Y-44180000D01*
%TO.N,VBAT*%
X72070000Y-66180000D02*
X71000000Y-67250000D01*
X72070000Y-64500000D02*
X72070000Y-66180000D01*
X71000000Y-67250000D02*
X71000000Y-69000000D01*
X63750000Y-69000000D02*
X63750000Y-71120000D01*
X63750000Y-71120000D02*
X63990000Y-71360000D01*
%TO.N,VUSB*%
X66990000Y-64500000D02*
X66990000Y-66240000D01*
X66990000Y-66240000D02*
X67000000Y-66250000D01*
X61250000Y-66250000D02*
X61250000Y-71160000D01*
X61250000Y-71160000D02*
X61450000Y-71360000D01*
%TO.N,+3V3*%
X39070000Y-67500000D02*
X39070000Y-66320000D01*
X66530000Y-67530000D02*
X66500000Y-67500000D01*
X66530000Y-71360000D02*
X66530000Y-67530000D01*
X39070000Y-71240000D02*
X39070000Y-67500000D01*
%TO.N,GND*%
X79500000Y-58500000D02*
X79500000Y-66500000D01*
X79500000Y-58000000D02*
X79500000Y-58500000D01*
X69250000Y-66750000D02*
X69250000Y-71180000D01*
X69250000Y-71180000D02*
X69070000Y-71360000D01*
%TO.N,+3V3*%
X79500000Y-55750000D02*
X79500000Y-52500000D01*
X79690000Y-52310000D02*
X79500000Y-52500000D01*
X79690000Y-44180000D02*
X79690000Y-52310000D01*
X65600000Y-57320000D02*
X65600000Y-52170000D01*
X39000000Y-66250000D02*
X39000000Y-61000000D01*
%TO.N,GND*%
X69070000Y-71360000D02*
X69070000Y-74680000D01*
X69070000Y-74680000D02*
X69000000Y-74750000D01*
X37000000Y-74750000D02*
X37000000Y-71310000D01*
X37000000Y-71310000D02*
X37070000Y-71240000D01*
%TO.N,+3V3*%
X16750000Y-66250000D02*
X16750000Y-68420000D01*
X39070000Y-66320000D02*
X39000000Y-66250000D01*
X16750000Y-68420000D02*
X16910000Y-68580000D01*
%TO.N,GND*%
X37150000Y-68550000D02*
X37150000Y-71160000D01*
X19500000Y-72910000D02*
X19500000Y-68600000D01*
X19500000Y-68600000D02*
X19550000Y-68550000D01*
X37150000Y-71160000D02*
X37070000Y-71240000D01*
%TO.N,+3V3*%
X16960000Y-68630000D02*
X16910000Y-68580000D01*
X16960000Y-72910000D02*
X16960000Y-68630000D01*
X6960000Y-49120000D02*
X6960000Y-43970000D01*
X2680000Y-49240000D02*
X2770000Y-49150000D01*
X2680000Y-54170000D02*
X2680000Y-49240000D01*
%TO.N,GND*%
X36510000Y-12510000D02*
X36590000Y-12430000D01*
X36510000Y-20280000D02*
X36510000Y-12510000D01*
X36520000Y-20290000D02*
X36510000Y-20280000D01*
X36520000Y-33450000D02*
X36520000Y-20290000D01*
X2710000Y-33590000D02*
X2810000Y-33490000D01*
X2710000Y-39135000D02*
X2710000Y-33590000D01*
X5580000Y-33380000D02*
X5580000Y-20320000D01*
%TD*%
M02*
