%TF.GenerationSoftware,KiCad,Pcbnew,8.0.0-8.0.0-1~ubuntu22.04.1*%
%TF.CreationDate,2024-06-06T20:49:56-04:00*%
%TF.ProjectId,luccioloa,6c756363-696f-46c6-9f61-2e6b69636164,rev?*%
%TF.SameCoordinates,Original*%
%TF.FileFunction,Soldermask,Top*%
%TF.FilePolarity,Negative*%
%FSLAX46Y46*%
G04 Gerber Fmt 4.6, Leading zero omitted, Abs format (unit mm)*
G04 Created by KiCad (PCBNEW 8.0.0-8.0.0-1~ubuntu22.04.1) date 2024-06-06 20:49:56*
%MOMM*%
%LPD*%
G01*
G04 APERTURE LIST*
G04 Aperture macros list*
%AMRoundRect*
0 Rectangle with rounded corners*
0 $1 Rounding radius*
0 $2 $3 $4 $5 $6 $7 $8 $9 X,Y pos of 4 corners*
0 Add a 4 corners polygon primitive as box body*
4,1,4,$2,$3,$4,$5,$6,$7,$8,$9,$2,$3,0*
0 Add four circle primitives for the rounded corners*
1,1,$1+$1,$2,$3*
1,1,$1+$1,$4,$5*
1,1,$1+$1,$6,$7*
1,1,$1+$1,$8,$9*
0 Add four rect primitives between the rounded corners*
20,1,$1+$1,$2,$3,$4,$5,0*
20,1,$1+$1,$4,$5,$6,$7,0*
20,1,$1+$1,$6,$7,$8,$9,0*
20,1,$1+$1,$8,$9,$2,$3,0*%
G04 Aperture macros list end*
%ADD10RoundRect,0.250000X0.450000X-0.325000X0.450000X0.325000X-0.450000X0.325000X-0.450000X-0.325000X0*%
%ADD11O,2.400000X2.400000*%
%ADD12C,2.400000*%
%ADD13C,3.200000*%
%ADD14RoundRect,0.250000X-0.350000X-0.450000X0.350000X-0.450000X0.350000X0.450000X-0.350000X0.450000X0*%
%ADD15C,2.100000*%
%ADD16C,1.750000*%
%ADD17R,1.700000X1.700000*%
%ADD18O,1.700000X1.700000*%
%ADD19O,1.350000X1.350000*%
%ADD20R,1.350000X1.350000*%
%ADD21R,1.750000X0.700000*%
%ADD22R,1.500000X1.300000*%
%ADD23R,1.500000X0.800000*%
%ADD24R,1.400000X0.800000*%
%ADD25R,1.500000X1.500000*%
%ADD26R,1.550000X1.000000*%
%ADD27R,1.000000X1.450000*%
%ADD28RoundRect,0.250000X0.350000X0.450000X-0.350000X0.450000X-0.350000X-0.450000X0.350000X-0.450000X0*%
%ADD29C,2.600000*%
%ADD30C,2.500000*%
%ADD31R,1.600000X1.600000*%
%ADD32C,1.600000*%
%ADD33R,1.800000X1.800000*%
%ADD34C,1.800000*%
G04 APERTURE END LIST*
D10*
%TO.C,D2*%
X-827500Y-60112500D03*
X-827500Y-58062500D03*
%TD*%
D11*
%TO.C,R10*%
X68830000Y-22830000D03*
D12*
X48510000Y-22830000D03*
%TD*%
D13*
%TO.C,H2*%
X86000000Y-73000000D03*
%TD*%
D14*
%TO.C,R13*%
X58020000Y-28230000D03*
X60020000Y-28230000D03*
%TD*%
D15*
%TO.C,SW5*%
X84022500Y-33027500D03*
X84022500Y-40037500D03*
D16*
X86512500Y-34277500D03*
X86512500Y-38777500D03*
%TD*%
D13*
%TO.C,H4*%
X0Y0D03*
%TD*%
D17*
%TO.C,mesh_display1*%
X14770000Y1470000D03*
D18*
X17310000Y1470000D03*
X19850000Y1470000D03*
X22390000Y1470000D03*
%TD*%
D12*
%TO.C,R2*%
X65600000Y-57320000D03*
D11*
X45280000Y-57320000D03*
%TD*%
D17*
%TO.C,A2*%
X40560000Y-10090000D03*
D18*
X40560000Y-12630000D03*
X40560000Y-15170000D03*
X40560000Y-17710000D03*
X40560000Y-20250000D03*
X40560000Y-22790000D03*
X40560000Y-25330000D03*
X40560000Y-27870000D03*
D17*
X25320000Y-27870000D03*
D18*
X25320000Y-25330000D03*
X25320000Y-22790000D03*
X25320000Y-20250000D03*
X25320000Y-17710000D03*
X25320000Y-15170000D03*
X25320000Y-12630000D03*
X25320000Y-10090000D03*
%TD*%
D19*
%TO.C,U3*%
X37070000Y-71240000D03*
X39070000Y-71240000D03*
X41070000Y-71240000D03*
D20*
X43070000Y-71240000D03*
%TD*%
D14*
%TO.C,R4*%
X16400000Y-43950000D03*
X18400000Y-43950000D03*
%TD*%
D17*
%TO.C,A1*%
X54680000Y-17090000D03*
D18*
X57220000Y-17090000D03*
X59760000Y-17090000D03*
X62300000Y-17090000D03*
%TD*%
D13*
%TO.C,H1*%
X86000000Y0D03*
%TD*%
D21*
%TO.C,J3*%
X85475000Y-52505000D03*
X85475000Y-53605000D03*
X85475000Y-54705000D03*
X85475000Y-55805000D03*
X85475000Y-56905000D03*
X85475000Y-58005000D03*
X85475000Y-59105000D03*
X85475000Y-60205000D03*
D22*
X85350000Y-61405000D03*
D23*
X77750000Y-61655000D03*
D24*
X77100000Y-49705000D03*
D25*
X85350000Y-50055000D03*
D26*
X74675000Y-50105000D03*
D27*
X76250000Y-61330000D03*
%TD*%
D12*
%TO.C,R14*%
X48600000Y-33110000D03*
D11*
X68920000Y-33110000D03*
%TD*%
D15*
%TO.C,SW1*%
X44290000Y-2040000D03*
X51300000Y-2040000D03*
D16*
X45540000Y450000D03*
X50040000Y450000D03*
%TD*%
D12*
%TO.C,R12*%
X48510000Y-27980000D03*
D11*
X68830000Y-27980000D03*
%TD*%
D28*
%TO.C,R16*%
X57000000Y-52250000D03*
X55000000Y-52250000D03*
%TD*%
D17*
%TO.C,U2*%
X13200000Y-33380000D03*
D18*
X10660000Y-33380000D03*
X8120000Y-33380000D03*
X5580000Y-33380000D03*
%TD*%
D15*
%TO.C,SW2*%
X54800000Y-1990000D03*
X61810000Y-1990000D03*
D16*
X56050000Y500000D03*
X60550000Y500000D03*
%TD*%
D12*
%TO.C,R3*%
X6960000Y-43970000D03*
D11*
X27280000Y-43970000D03*
%TD*%
D17*
%TO.C,J2*%
X70315000Y355000D03*
D18*
X72855000Y355000D03*
X75395000Y355000D03*
%TD*%
D28*
%TO.C,R8*%
X56750000Y-57250000D03*
X54750000Y-57250000D03*
%TD*%
D15*
%TO.C,SW4*%
X83850000Y-21668750D03*
X83850000Y-28678750D03*
D16*
X86340000Y-22918750D03*
X86340000Y-27418750D03*
%TD*%
D17*
%TO.C,J5*%
X48750000Y-71360000D03*
D18*
X51290000Y-71360000D03*
X53830000Y-71360000D03*
X56370000Y-71360000D03*
X58910000Y-71360000D03*
X61450000Y-71360000D03*
X63990000Y-71360000D03*
X66530000Y-71360000D03*
X69070000Y-71360000D03*
%TD*%
D12*
%TO.C,R5*%
X6960000Y-49120000D03*
D11*
X27280000Y-49120000D03*
%TD*%
D14*
%TO.C,R6*%
X16540000Y-48940000D03*
X18540000Y-48940000D03*
%TD*%
D12*
%TO.C,R9*%
X65600000Y-52170000D03*
D11*
X45280000Y-52170000D03*
%TD*%
D13*
%TO.C,H3*%
X0Y-73000000D03*
%TD*%
D29*
%TO.C,AE1*%
X34710000Y1460000D03*
X34710000Y-3620000D03*
X39790000Y1460000D03*
X39790000Y-3620000D03*
D30*
X37350000Y-1005000D03*
%TD*%
D31*
%TO.C,A4*%
X82230000Y-44180000D03*
D32*
X79690000Y-44180000D03*
X77150000Y-44180000D03*
X74610000Y-44180000D03*
X72070000Y-44180000D03*
X69530000Y-44180000D03*
X66990000Y-44180000D03*
X64450000Y-44180000D03*
X61910000Y-44180000D03*
X59370000Y-44180000D03*
X56830000Y-44180000D03*
X54290000Y-44180000D03*
X51750000Y-44180000D03*
X49210000Y-44180000D03*
X46670000Y-44180000D03*
X44130000Y-44180000D03*
X44130000Y-64500000D03*
X46670000Y-64500000D03*
X49210000Y-64500000D03*
X51750000Y-64500000D03*
X54290000Y-64500000D03*
X56830000Y-64500000D03*
X59370000Y-64500000D03*
X61910000Y-64500000D03*
X64450000Y-64500000D03*
X66990000Y-64500000D03*
X69530000Y-64500000D03*
X72070000Y-64500000D03*
%TD*%
D17*
%TO.C,A3*%
X140000Y-54170000D03*
D18*
X2680000Y-54170000D03*
X5220000Y-54170000D03*
X7760000Y-54170000D03*
X10300000Y-54170000D03*
X12840000Y-54170000D03*
X15380000Y-54170000D03*
X17920000Y-54170000D03*
X20460000Y-54170000D03*
X23000000Y-54170000D03*
X25540000Y-54170000D03*
X28080000Y-54170000D03*
X30620000Y-54170000D03*
X33160000Y-54170000D03*
X33190000Y-39135000D03*
X30650000Y-39135000D03*
X28110000Y-39135000D03*
X25570000Y-39135000D03*
X23030000Y-39135000D03*
X20490000Y-39135000D03*
X17950000Y-39135000D03*
X15410000Y-39135000D03*
X12870000Y-39135000D03*
X10330000Y-39135000D03*
X7790000Y-39135000D03*
X5250000Y-39135000D03*
X2710000Y-39135000D03*
D17*
X170000Y-39135000D03*
%TD*%
D12*
%TO.C,R1*%
X23680000Y-33340000D03*
D11*
X44000000Y-33340000D03*
%TD*%
D15*
%TO.C,SW3*%
X83930000Y-10310000D03*
X83930000Y-17320000D03*
D16*
X86420000Y-11560000D03*
X86420000Y-16060000D03*
%TD*%
D14*
%TO.C,R7*%
X34640000Y-33440000D03*
X32640000Y-33440000D03*
%TD*%
D33*
%TO.C,D1*%
X40000Y-66350000D03*
D34*
X40000Y-63810000D03*
%TD*%
D18*
%TO.C,A5*%
X66770000Y-8190000D03*
X64230000Y-8190000D03*
X61690000Y-8190000D03*
X59150000Y-8190000D03*
X56610000Y-8190000D03*
X54070000Y-8190000D03*
X51530000Y-8190000D03*
X48990000Y-8190000D03*
D17*
X46450000Y-8190000D03*
%TD*%
D14*
%TO.C,R15*%
X58020000Y-33540000D03*
X60020000Y-33540000D03*
%TD*%
D17*
%TO.C,A6*%
X72410000Y-12770000D03*
D18*
X69870000Y-12770000D03*
X67330000Y-12770000D03*
X64790000Y-12770000D03*
X62250000Y-12770000D03*
X59710000Y-12770000D03*
X57170000Y-12770000D03*
X54630000Y-12770000D03*
X52090000Y-12770000D03*
X49550000Y-12770000D03*
X47010000Y-12770000D03*
%TD*%
D14*
%TO.C,R11*%
X58020000Y-23140000D03*
X60020000Y-23140000D03*
%TD*%
D17*
%TO.C,U1*%
X14420000Y-72910000D03*
D18*
X16960000Y-72910000D03*
X19500000Y-72910000D03*
X22040000Y-72910000D03*
X24580000Y-72910000D03*
X27120000Y-72910000D03*
X24580000Y-60210000D03*
X22040000Y-60210000D03*
X19500000Y-60210000D03*
X16960000Y-60210000D03*
%TD*%
M02*
