%TF.GenerationSoftware,KiCad,Pcbnew,8.0.0-8.0.0-1~ubuntu22.04.1*%
%TF.CreationDate,2024-06-06T20:49:56-04:00*%
%TF.ProjectId,luccioloa,6c756363-696f-46c6-9f61-2e6b69636164,rev?*%
%TF.SameCoordinates,Original*%
%TF.FileFunction,Paste,Top*%
%TF.FilePolarity,Positive*%
%FSLAX46Y46*%
G04 Gerber Fmt 4.6, Leading zero omitted, Abs format (unit mm)*
G04 Created by KiCad (PCBNEW 8.0.0-8.0.0-1~ubuntu22.04.1) date 2024-06-06 20:49:56*
%MOMM*%
%LPD*%
G01*
G04 APERTURE LIST*
G04 Aperture macros list*
%AMRoundRect*
0 Rectangle with rounded corners*
0 $1 Rounding radius*
0 $2 $3 $4 $5 $6 $7 $8 $9 X,Y pos of 4 corners*
0 Add a 4 corners polygon primitive as box body*
4,1,4,$2,$3,$4,$5,$6,$7,$8,$9,$2,$3,0*
0 Add four circle primitives for the rounded corners*
1,1,$1+$1,$2,$3*
1,1,$1+$1,$4,$5*
1,1,$1+$1,$6,$7*
1,1,$1+$1,$8,$9*
0 Add four rect primitives between the rounded corners*
20,1,$1+$1,$2,$3,$4,$5,0*
20,1,$1+$1,$4,$5,$6,$7,0*
20,1,$1+$1,$6,$7,$8,$9,0*
20,1,$1+$1,$8,$9,$2,$3,0*%
G04 Aperture macros list end*
%ADD10RoundRect,0.250000X0.450000X-0.325000X0.450000X0.325000X-0.450000X0.325000X-0.450000X-0.325000X0*%
%ADD11RoundRect,0.250000X-0.350000X-0.450000X0.350000X-0.450000X0.350000X0.450000X-0.350000X0.450000X0*%
%ADD12R,1.750000X0.700000*%
%ADD13R,1.500000X1.300000*%
%ADD14R,1.500000X0.800000*%
%ADD15R,1.400000X0.800000*%
%ADD16R,1.500000X1.500000*%
%ADD17R,1.550000X1.000000*%
%ADD18R,1.000000X1.450000*%
%ADD19RoundRect,0.250000X0.350000X0.450000X-0.350000X0.450000X-0.350000X-0.450000X0.350000X-0.450000X0*%
G04 APERTURE END LIST*
D10*
%TO.C,D2*%
X-827500Y-60112500D03*
X-827500Y-58062500D03*
%TD*%
D11*
%TO.C,R13*%
X58020000Y-28230000D03*
X60020000Y-28230000D03*
%TD*%
%TO.C,R4*%
X16400000Y-43950000D03*
X18400000Y-43950000D03*
%TD*%
D12*
%TO.C,J3*%
X85475000Y-52505000D03*
X85475000Y-53605000D03*
X85475000Y-54705000D03*
X85475000Y-55805000D03*
X85475000Y-56905000D03*
X85475000Y-58005000D03*
X85475000Y-59105000D03*
X85475000Y-60205000D03*
D13*
X85350000Y-61405000D03*
D14*
X77750000Y-61655000D03*
D15*
X77100000Y-49705000D03*
D16*
X85350000Y-50055000D03*
D17*
X74675000Y-50105000D03*
D18*
X76250000Y-61330000D03*
%TD*%
D19*
%TO.C,R16*%
X57000000Y-52250000D03*
X55000000Y-52250000D03*
%TD*%
%TO.C,R8*%
X56750000Y-57250000D03*
X54750000Y-57250000D03*
%TD*%
D11*
%TO.C,R6*%
X16540000Y-48940000D03*
X18540000Y-48940000D03*
%TD*%
%TO.C,R7*%
X34640000Y-33440000D03*
X32640000Y-33440000D03*
%TD*%
%TO.C,R15*%
X58020000Y-33540000D03*
X60020000Y-33540000D03*
%TD*%
%TO.C,R11*%
X58020000Y-23140000D03*
X60020000Y-23140000D03*
%TD*%
M02*
